<?xml version="1.0" encoding="UTF-8" standalone="no"?>
<!-- Created with Inkscape (http://www.inkscape.org/) -->

<svg
   xmlns:dc="http://purl.org/dc/elements/1.1/"
   xmlns:cc="http://creativecommons.org/ns#"
   xmlns:rdf="http://www.w3.org/1999/02/22-rdf-syntax-ns#"
   xmlns:svg="http://www.w3.org/2000/svg"
   xmlns="http://www.w3.org/2000/svg"
   xmlns:sodipodi="http://sodipodi.sourceforge.net/DTD/sodipodi-0.dtd"
   xmlns:inkscape="http://www.inkscape.org/namespaces/inkscape"
   width="59.887501"
   height="76.426781"
   viewBox="0 0 59.887499 76.426782"
   id="svg4629"
   version="1.1"
   inkscape:version="0.91 r13725"
   sodipodi:docname="ministere-culture.svg">
  <defs
     id="defs4631">
    <clipPath
       id="clipPath5477"
       clipPathUnits="userSpaceOnUse">
      <path
         inkscape:connector-curvature="0"
         id="path5479"
         d="m 0,153.071 119.055,0 L 119.055,0 0,0 0,153.071 Z" />
    </clipPath>
    <clipPath
       id="clipPath5669"
       clipPathUnits="userSpaceOnUse">
      <path
         inkscape:connector-curvature="0"
         id="path5671"
         d="m 0,113.507 119.055,0 0,39.564 -119.055,0 0,-39.564 z" />
    </clipPath>
    <clipPath
       id="clipPath5711"
       clipPathUnits="userSpaceOnUse">
      <path
         inkscape:connector-curvature="0"
         id="path5713"
         d="m 0,153.071 119.055,0 L 119.055,0 0,0 0,153.071 Z" />
    </clipPath>
  </defs>
  <sodipodi:namedview
     id="base"
     pagecolor="#ffffff"
     bordercolor="#666666"
     borderopacity="1.0"
     inkscape:pageopacity="0.0"
     inkscape:pageshadow="2"
     inkscape:zoom="2.850137"
     inkscape:cx="65.346099"
     inkscape:cy="-8.4756797"
     inkscape:document-units="px"
     inkscape:current-layer="layer1"
     showgrid="false"
     units="px"
     borderlayer="true"
     inkscape:showpageshadow="false"
     inkscape:window-width="1920"
     inkscape:window-height="1031"
     inkscape:window-x="0"
     inkscape:window-y="27"
     inkscape:window-maximized="1"
     fit-margin-top="1"
     fit-margin-left="1"
     fit-margin-bottom="1"
     fit-margin-right="1" />
  <metadata
     id="metadata4634">
    <rdf:RDF>
      <cc:Work
         rdf:about="">
        <dc:format>image/svg+xml</dc:format>
        <dc:type
           rdf:resource="http://purl.org/dc/dcmitype/StillImage" />
        <dc:title></dc:title>
      </cc:Work>
    </rdf:RDF>
  </metadata>
  <g
     inkscape:label="Layer 1"
     inkscape:groupmode="layer"
     id="layer1"
     transform="translate(-4.9736321,-989.43408)">
    <g
       id="g5473"
       transform="matrix(0.48622485,0,0,-0.48622485,5.9736321,1064.861)">
      <g
         id="g5475"
         clip-path="url(#clipPath5477)">
        <g
           id="g5481"
           transform="translate(3.8016,92.5255)">
          <path
             d="m 0,0 c -0.235,0 -0.446,-0.035 -0.705,-0.094 0,-0.692 -0.011,-1.949 -0.011,-2.923 0.129,-0.024 0.364,-0.036 0.517,-0.036 0.962,0 1.609,0.599 1.609,1.515 C 1.41,-0.646 0.81,0 0,0 m 3.018,-7.349 c -0.435,0 -0.682,0.058 -0.928,0.223 -0.388,0.258 -0.798,0.962 -1.033,1.361 -0.399,0.693 -0.846,1.433 -1.268,2.055 -0.071,-0.011 -0.129,-0.011 -0.177,-0.011 -0.117,0 -0.211,0.011 -0.328,0.011 l 0,-0.622 c 0,-0.317 0.011,-0.634 0.011,-0.951 0.013,-0.634 0.024,-0.904 0.118,-1.151 0.118,-0.305 0.329,-0.458 0.716,-0.493 l 0,-0.328 -0.27,0.011 c -0.305,0.012 -0.728,0 -1.279,0 -0.54,0 -0.963,0.012 -1.268,0 l -0.282,-0.011 0,0.328 c 0.293,0.024 0.434,0.082 0.575,0.235 0.129,0.153 0.212,0.364 0.235,0.634 0.035,0.352 0.047,0.563 0.047,1.726 l 0,1.972 c 0,1.432 -0.047,1.785 -0.13,2.113 C -2.324,0.07 -2.57,0.2 -2.97,0.247 l 0,0.328 c 0.235,-0.023 0.47,-0.012 0.704,-0.012 0.611,0 0.799,0 1.526,0.036 0.635,0.024 0.999,0.035 1.28,0.035 0.799,0 1.28,-0.117 1.679,-0.399 0.446,-0.317 0.74,-0.927 0.74,-1.538 0,-0.963 -0.634,-1.75 -1.714,-2.149 0.446,-0.563 0.798,-1.127 1.209,-1.773 0.376,-0.598 0.751,-1.115 1.045,-1.409 0.165,-0.175 0.27,-0.234 0.493,-0.293 l 0,-0.328 C 3.687,-7.326 3.381,-7.349 3.018,-7.349"
             style="fill:#333399;fill-opacity:1;fill-rule:nonzero;stroke:none"
             id="path5483"
             inkscape:connector-curvature="0" />
        </g>
        <g
           id="g5485"
           transform="translate(12.8426,85.4156)">
          <path
             d="m 0,0 c -0.087,-0.146 -0.185,-0.175 -0.718,-0.175 -0.33,0 -0.649,0.02 -0.979,0.029 -0.466,0.01 -0.932,0.029 -1.397,0.029 -0.466,0 -0.931,-0.009 -1.396,-0.029 l 0,0.271 c 0.436,0.04 0.63,0.292 0.669,0.719 0.029,0.291 0.029,0.601 0.029,1.105 l 0,2.745 c 0,0.514 -0.029,0.747 -0.107,0.95 -0.087,0.252 -0.262,0.369 -0.591,0.408 l 0,0.272 4.538,0 C 0.048,6.042 0.04,5.751 0.04,5.47 0.04,5.237 0.03,5.014 0.048,4.781 l -0.348,0 c -0.069,0.747 -0.388,0.95 -1.543,0.95 -0.213,0 -0.494,-0.009 -0.727,-0.019 C -2.589,5.334 -2.599,5.208 -2.599,4.646 l 0,-1.125 c 0.145,-0.01 0.262,-0.01 0.436,-0.01 1.009,0 1.319,0.145 1.377,0.669 l 0.35,0 c -0.02,-0.155 -0.02,-0.475 -0.02,-0.96 0,-0.495 0.01,-0.786 0.02,-0.941 l -0.35,0 c -0.028,0.553 -0.291,0.689 -1.289,0.689 -0.175,0 -0.349,-0.01 -0.524,-0.01 0,-0.611 0.01,-1.222 0.01,-1.833 0,-0.408 0.067,-0.543 0.3,-0.602 0.145,-0.039 0.369,-0.048 0.669,-0.048 1.048,0 1.416,0.233 1.64,1.028 L 0.398,1.426 C 0.262,0.747 0.106,0.184 0,0 m -2.163,6.954 -0.456,0.271 0.961,1.416 1.115,-0.203 -1.62,-1.484 z"
             style="fill:#333399;fill-opacity:1;fill-rule:nonzero;stroke:none"
             id="path5487"
             inkscape:connector-curvature="0" />
        </g>
        <g
           id="g5489"
           transform="translate(16.8871,88.15)">
          <path
             d="m 0,0 c -0.097,0 -0.145,0 -0.271,0.01 l -0.214,0.495 c 0.912,0.058 1.416,0.504 1.416,1.241 0,0.776 -0.533,1.329 -1.27,1.329 -0.117,0 -0.214,-0.01 -0.369,-0.039 0,-0.601 -0.019,-1.203 -0.019,-1.804 l 0,-1.697 c 0,-1.27 0.01,-1.484 0.106,-1.736 0.087,-0.253 0.262,-0.379 0.592,-0.408 l 0,-0.271 -0.233,0.009 c -0.252,0.01 -0.601,0.01 -1.067,0.01 -0.456,0 -0.814,0 -1.057,-0.01 l -0.233,-0.009 0,0.271 c 0.437,0.039 0.631,0.292 0.67,0.718 0.029,0.291 0.029,0.465 0.029,1.426 l 0,2.424 c 0,0.515 -0.029,0.748 -0.107,0.951 -0.087,0.252 -0.262,0.368 -0.592,0.407 l 0,0.272 c 0.117,-0.009 0.03,-0.009 0.447,-0.009 0.165,0 0.398,0 0.708,0.009 0.494,0.019 0.989,0.048 1.484,0.048 1.377,0 2.201,-0.679 2.201,-1.804 C 2.221,0.776 1.28,0 0,0"
             style="fill:#333399;fill-opacity:1;fill-rule:nonzero;stroke:none"
             id="path5491"
             inkscape:connector-curvature="0" />
        </g>
        <g
           id="g5493"
           transform="translate(25.7015,91.254)">
          <path
             d="m 0,0 c -0.107,-0.146 -0.155,-0.34 -0.175,-0.728 -0.019,-0.417 -0.029,-0.736 -0.029,-1.338 0,-0.223 0.01,-0.892 0.01,-1.561 0,-0.679 -0.107,-1.086 -0.388,-1.494 -0.446,-0.65 -1.183,-0.979 -2.153,-0.979 -0.611,0 -1.077,0.116 -1.513,0.407 -0.679,0.437 -0.941,1.009 -0.941,2.037 0,1.048 0.02,1.502 0.02,1.843 0,0.494 0.028,1.008 -0.059,1.493 -0.058,0.349 -0.242,0.494 -0.649,0.533 l 0,0.272 0.223,-0.009 c 0.252,-0.011 0.61,-0.011 1.075,-0.011 0.467,0 0.825,0 1.078,0.011 l 0.222,0.009 0,-0.272 c -0.3,-0.039 -0.446,-0.116 -0.543,-0.281 -0.086,-0.145 -0.125,-0.339 -0.136,-0.766 -0.019,-0.612 -0.028,-1.212 -0.028,-1.823 0,-1.668 0.039,-1.989 0.34,-2.338 0.232,-0.271 0.629,-0.455 1.095,-0.455 0.65,0 1.28,0.329 1.474,0.979 0.126,0.417 0.145,0.718 0.145,1.814 l 0,0.96 c 0,1.105 -0.029,1.445 -0.135,1.61 -0.107,0.174 -0.253,0.271 -0.504,0.3 l 0,0.272 c 0.387,-0.02 0.523,-0.02 1.008,-0.02 0.495,0 0.63,0 1.019,0.02 l 0,-0.272 C 0.242,0.184 0.106,0.126 0,0"
             style="fill:#333399;fill-opacity:1;fill-rule:nonzero;stroke:none"
             id="path5495"
             inkscape:connector-curvature="0" />
        </g>
        <g
           id="g5497"
           transform="translate(29.5799,88.5289)">
          <path
             d="m 0,0 c -0.165,0 -0.34,-0.01 -0.592,-0.029 -0.01,-0.262 -0.01,-0.31 -0.01,-0.757 l 0,-0.572 c 0,-0.543 0.02,-0.834 0.088,-1.028 0.077,-0.243 0.31,-0.359 0.718,-0.359 0.824,0 1.29,0.456 1.29,1.271 C 1.494,-0.572 0.912,0 0,0 m -0.029,2.706 c -0.175,0 -0.349,-0.02 -0.524,-0.02 -0.009,-0.63 -0.029,-1.716 -0.039,-2.124 0.107,-0.009 0.242,-0.019 0.427,-0.019 0.951,0 1.494,0.397 1.494,1.096 0,0.669 -0.505,1.067 -1.358,1.067 m 2.114,-5.509 c -0.455,-0.349 -0.97,-0.466 -1.96,-0.466 -0.522,0 -1.057,0.039 -1.58,0.039 -0.213,0 -0.611,0 -0.882,-0.02 l -0.117,-0.009 0,0.271 c 0.455,0.039 0.631,0.272 0.669,0.718 0.029,0.291 0.039,0.465 0.039,1.426 l 0,1.833 c 0,0.902 -0.01,1.29 -0.107,1.542 -0.096,0.252 -0.271,0.368 -0.601,0.407 l 0,0.272 c 0.446,-0.02 0.708,-0.02 1.329,-0.02 0.563,0 1.406,0.03 1.968,0.03 0.893,0 1.708,-0.427 1.708,-1.436 0,-0.746 -0.466,-1.251 -1.387,-1.484 1.027,-0.203 1.571,-0.795 1.571,-1.755 0,-0.582 -0.214,-1.019 -0.65,-1.348"
             style="fill:#333399;fill-opacity:1;fill-rule:nonzero;stroke:none"
             id="path5499"
             inkscape:connector-curvature="0" />
        </g>
        <g
           id="g5501"
           transform="translate(37.7923,85.4058)">
          <path
             d="m 0,0 c -0.087,-0.136 -0.203,-0.165 -0.688,-0.165 -0.243,0 -0.495,0.01 -0.737,0.019 -0.601,0.02 -1.145,0.039 -1.804,0.039 -0.495,0 -0.825,-0.01 -1.135,-0.029 l 0,0.271 c 0.243,0.02 0.369,0.068 0.475,0.195 0.175,0.203 0.223,0.456 0.223,1.164 0,0.485 0.01,0.872 0.01,1.377 l 0,1.038 c 0,1.309 -0.01,1.484 -0.106,1.745 -0.088,0.252 -0.273,0.368 -0.602,0.408 l 0,0.271 0.243,-0.009 c 0.261,-0.011 0.62,-0.011 1.105,-0.011 0.475,0 0.844,0 1.096,0.011 l 0.243,0.009 0,-0.271 c -0.495,0 -0.709,-0.263 -0.767,-0.728 -0.019,-0.165 -0.029,-0.32 -0.029,-1.425 l 0,-1.62 c 0,-1.348 0.01,-1.514 0.136,-1.649 0.107,-0.107 0.311,-0.156 0.728,-0.156 0.532,0 0.823,0.059 1.066,0.195 0.272,0.145 0.475,0.436 0.572,0.844 L 0.397,1.426 C 0.291,0.863 0.107,0.165 0,0"
             style="fill:#333399;fill-opacity:1;fill-rule:nonzero;stroke:none"
             id="path5503"
             inkscape:connector-curvature="0" />
        </g>
        <g
           id="g5505"
           transform="translate(41.1664,85.2794)">
          <path
             d="m 0,0 c -0.243,0.01 -0.602,0.01 -1.057,0.01 -0.465,0 -0.815,0 -1.067,-0.01 l -0.233,-0.009 0,0.271 c 0.456,0.039 0.63,0.272 0.669,0.718 0.029,0.291 0.039,0.465 0.039,1.426 l 0,1.629 c 0,0.252 -0.01,0.513 -0.01,0.795 0,0.514 -0.019,0.747 -0.097,0.95 -0.087,0.253 -0.271,0.369 -0.601,0.408 l 0,0.272 0.233,-0.01 c 0.252,-0.01 0.602,-0.01 1.067,-0.01 0.455,0 0.814,0 1.057,0.01 l 0.232,0.01 0,-0.272 C -0.185,6.159 -0.398,5.897 -0.437,5.461 -0.466,5.18 -0.466,4.908 -0.466,4.035 l 0,-1.629 c 0,-1.271 0.01,-1.484 0.107,-1.737 0.087,-0.252 0.262,-0.378 0.591,-0.407 l 0,-0.271 L 0,0 Z"
             style="fill:#333399;fill-opacity:1;fill-rule:nonzero;stroke:none"
             id="path5507"
             inkscape:connector-curvature="0" />
        </g>
        <g
           id="g5509"
           transform="translate(45.6546,91.1954)">
          <path
             d="m 0,0 c -1.184,0 -2.027,-0.989 -2.027,-2.376 0,-1.687 0.999,-3.016 2.269,-3.016 1.194,0 2.037,1.009 2.037,2.415 C 2.279,-1.309 1.28,0 0,0 m 4.578,-7.671 c -0.757,0 -1.562,0.233 -2.328,0.66 -0.437,0.242 -1.048,0.659 -1.494,1.027 -0.33,-0.048 -0.456,-0.058 -0.765,-0.058 -1.96,0 -3.26,1.281 -3.26,3.21 0,2.066 1.407,3.492 3.462,3.492 1.998,0 3.328,-1.28 3.328,-3.201 0,-1.367 -0.699,-2.58 -1.804,-3.142 0.349,-0.175 0.698,-0.368 1.037,-0.572 0.989,-0.601 1.668,-0.853 2.309,-0.853 0.397,0 0.727,0.087 1.115,0.28 L 6.304,-7.167 C 5.828,-7.497 5.237,-7.671 4.578,-7.671"
             style="fill:#333399;fill-opacity:1;fill-rule:nonzero;stroke:none"
             id="path5511"
             inkscape:connector-curvature="0" />
        </g>
        <g
           id="g5513"
           transform="translate(55.8954,91.254)">
          <path
             d="m 0,0 c -0.106,-0.146 -0.155,-0.34 -0.175,-0.728 -0.019,-0.417 -0.029,-0.736 -0.029,-1.338 0,-0.223 0.01,-0.892 0.01,-1.561 0,-0.679 -0.106,-1.086 -0.388,-1.494 -0.446,-0.65 -1.183,-0.979 -2.153,-0.979 -0.612,0 -1.077,0.116 -1.513,0.407 -0.679,0.437 -0.94,1.009 -0.94,2.037 0,1.048 0.019,1.502 0.019,1.843 0,0.494 0.028,1.008 -0.059,1.493 -0.058,0.349 -0.242,0.494 -0.649,0.533 l 0,0.272 0.223,-0.009 c 0.252,-0.011 0.611,-0.011 1.076,-0.011 0.466,0 0.825,0 1.077,0.011 l 0.223,0.009 0,-0.272 c -0.301,-0.039 -0.447,-0.116 -0.543,-0.281 -0.087,-0.145 -0.126,-0.339 -0.136,-0.766 -0.02,-0.612 -0.029,-1.212 -0.029,-1.823 0,-1.668 0.039,-1.989 0.34,-2.338 0.232,-0.271 0.629,-0.455 1.095,-0.455 0.65,0 1.28,0.329 1.475,0.979 0.125,0.417 0.145,0.718 0.145,1.814 l 0,0.96 c 0,1.105 -0.029,1.445 -0.135,1.61 -0.107,0.174 -0.253,0.271 -0.505,0.3 l 0,0.272 c 0.388,-0.02 0.524,-0.02 1.008,-0.02 0.495,0 0.631,0 1.019,0.02 l 0,-0.272 C 0.243,0.184 0.106,0.126 0,0"
             style="fill:#333399;fill-opacity:1;fill-rule:nonzero;stroke:none"
             id="path5515"
             inkscape:connector-curvature="0" />
        </g>
        <g
           id="g5517"
           transform="translate(61.8109,85.4156)">
          <path
             d="m 0,0 c -0.087,-0.146 -0.184,-0.175 -0.718,-0.175 -0.329,0 -0.65,0.02 -0.98,0.029 -0.464,0.01 -0.93,0.029 -1.396,0.029 -0.465,0 -0.931,-0.009 -1.397,-0.029 l 0,0.271 c 0.436,0.04 0.631,0.292 0.67,0.719 0.029,0.291 0.029,0.601 0.029,1.105 l 0,2.745 c 0,0.514 -0.029,0.747 -0.107,0.95 -0.088,0.252 -0.262,0.369 -0.592,0.408 l 0,0.272 4.54,0 c 0,-0.282 -0.01,-0.573 -0.01,-0.854 0,-0.233 -0.01,-0.456 0.01,-0.689 l -0.349,0 c -0.069,0.747 -0.389,0.95 -1.543,0.95 -0.214,0 -0.494,-0.009 -0.727,-0.019 C -2.589,5.334 -2.599,5.208 -2.599,4.646 l 0,-1.125 c 0.145,-0.01 0.262,-0.01 0.437,-0.01 1.008,0 1.318,0.145 1.376,0.669 l 0.349,0 C -0.456,4.025 -0.456,3.705 -0.456,3.22 c 0,-0.495 0.01,-0.786 0.019,-0.941 l -0.349,0 c -0.029,0.553 -0.291,0.689 -1.289,0.689 -0.176,0 -0.349,-0.01 -0.524,-0.01 0,-0.611 0.01,-1.222 0.01,-1.833 0,-0.408 0.068,-0.543 0.3,-0.602 0.146,-0.039 0.368,-0.048 0.669,-0.048 1.048,0 1.416,0.233 1.64,1.028 L 0.398,1.426 C 0.261,0.747 0.107,0.184 0,0"
             style="fill:#333399;fill-opacity:1;fill-rule:nonzero;stroke:none"
             id="path5519"
             inkscape:connector-curvature="0" />
        </g>
        <g
           id="g5521"
           transform="translate(70.7835,91.2105)">
          <path
             d="m 0,0 c -0.011,0.845 -0.504,1.174 -1.832,1.174 -0.27,0 -0.527,-0.012 -0.821,-0.035 -0.023,-0.81 -0.023,-1.374 -0.023,-2.654 0.282,-0.011 0.422,-0.023 0.622,-0.023 1.092,0 1.42,0.188 1.479,0.822 l 0.423,0 c 0,-0.329 -0.024,-0.67 -0.024,-0.998 0,-0.434 0.024,-0.88 0.024,-1.315 l -0.423,0 c -0.082,0.705 -0.352,0.845 -1.585,0.845 -0.211,0 -0.292,0 -0.516,-0.011 l 0,-1.316 c 0,-0.258 0,-0.54 0.011,-0.844 0.024,-0.646 0.072,-1.21 0.833,-1.257 l 0,-0.328 -0.281,0.011 c -0.294,0.012 -0.728,0.012 -1.28,0.012 -0.563,0 -0.986,0 -1.291,-0.012 l -0.281,-0.011 0,0.328 c 0.528,0.047 0.762,0.352 0.809,0.869 0.035,0.352 0.035,0.563 0.035,1.726 l 0,2.935 c 0,0.623 -0.035,0.903 -0.128,1.15 -0.106,0.306 -0.317,0.447 -0.716,0.494 l 0,0.328 5.4,0 C 0.411,1.667 0.411,1.292 0.411,0.798 0.411,0.329 0.411,0.258 0.435,0 L 0,0 Z"
             style="fill:#333399;fill-opacity:1;fill-rule:nonzero;stroke:none"
             id="path5523"
             inkscape:connector-curvature="0" />
        </g>
        <g
           id="g5525"
           transform="translate(74.7826,91.2637)">
          <path
             d="m 0,0 c -0.193,0 -0.368,-0.029 -0.581,-0.078 0,-0.572 -0.009,-1.609 -0.009,-2.415 0.107,-0.019 0.299,-0.029 0.426,-0.029 0.795,0 1.329,0.495 1.329,1.251 C 1.165,-0.533 0.67,0 0,0 m 2.494,-6.072 c -0.359,0 -0.563,0.049 -0.767,0.185 -0.32,0.214 -0.66,0.795 -0.854,1.125 -0.329,0.572 -0.698,1.183 -1.047,1.697 -0.058,-0.009 -0.107,-0.009 -0.145,-0.009 -0.097,0 -0.174,0.009 -0.271,0.009 l 0,-0.514 c 0,-0.262 0.009,-0.524 0.009,-0.785 0.01,-0.524 0.019,-0.747 0.098,-0.951 0.095,-0.252 0.27,-0.378 0.591,-0.408 l 0,-0.271 -0.224,0.01 c -0.252,0.009 -0.601,0 -1.057,0 -0.446,0 -0.795,0.009 -1.047,0 l -0.233,-0.01 0,0.271 c 0.242,0.02 0.359,0.068 0.476,0.195 0.106,0.126 0.174,0.3 0.193,0.524 0.03,0.291 0.039,0.464 0.039,1.425 l 0,1.63 c 0,1.182 -0.039,1.474 -0.107,1.745 -0.068,0.262 -0.271,0.369 -0.601,0.408 l 0,0.272 c 0.195,-0.02 0.388,-0.01 0.582,-0.01 0.504,0 0.659,0 1.261,0.029 0.524,0.019 0.825,0.028 1.056,0.028 0.66,0 1.058,-0.097 1.387,-0.329 0.37,-0.262 0.612,-0.766 0.612,-1.271 0,-0.795 -0.524,-1.445 -1.417,-1.775 0.37,-0.465 0.66,-0.931 1,-1.464 0.31,-0.494 0.621,-0.922 0.863,-1.164 0.136,-0.145 0.223,-0.193 0.407,-0.243 l 0,-0.271 C 3.046,-6.052 2.793,-6.072 2.494,-6.072"
             style="fill:#333399;fill-opacity:1;fill-rule:nonzero;stroke:none"
             id="path5527"
             inkscape:connector-curvature="0" />
        </g>
        <g
           id="g5529"
           transform="translate(81.1327,90.0318)">
          <path
             d="m 0,0 c -0.252,-0.659 -0.601,-1.513 -0.746,-1.988 l 1.434,0 L 0,0 Z m 3.142,-4.752 c -0.243,0.009 -0.591,0.009 -1.037,0.009 -0.456,0 -0.805,0 -1.047,-0.009 l -0.224,-0.01 0,0.271 c 0.31,0.02 0.496,0.185 0.496,0.457 0,0.097 -0.03,0.232 -0.128,0.523 -0.116,0.359 -0.193,0.602 -0.309,0.931 l -1.863,0 -0.194,-0.563 c -0.146,-0.435 -0.222,-0.756 -0.222,-0.92 0,-0.282 0.126,-0.408 0.435,-0.428 l 0,-0.271 c -0.367,0.01 -0.504,0.019 -0.969,0.019 -0.456,0 -0.592,-0.009 -0.961,-0.019 l 0,0.271 c 0.146,0.02 0.195,0.039 0.301,0.137 0.184,0.165 0.369,0.503 0.66,1.241 L -1,-0.766 c 0.254,0.63 0.632,1.648 0.895,2.474 l 0.658,0 C 0.64,1.406 0.844,0.931 0.98,0.582 L 2.347,-2.919 C 2.58,-3.511 2.744,-3.86 2.872,-4.083 3.006,-4.315 3.142,-4.432 3.375,-4.491 l 0,-0.271 -0.233,0.01 z"
             style="fill:#333399;fill-opacity:1;fill-rule:nonzero;stroke:none"
             id="path5531"
             inkscape:connector-curvature="0" />
        </g>
        <g
           id="g5533"
           transform="translate(91.1786,91.1763)">
          <path
             d="m 0,0 c -0.107,-0.174 -0.126,-0.339 -0.146,-0.844 -0.029,-0.872 -0.039,-2.231 -0.039,-2.88 l 0,-1.484 c 0,-0.223 0.03,-0.563 0.03,-0.698 l -0.659,0 c -0.63,0.824 -1.94,2.425 -1.94,2.425 -0.155,0.193 -1.368,1.687 -1.979,2.434 0,-0.204 -0.01,-0.078 -0.01,-0.708 l 0,-0.631 c 0,-0.727 0.01,-1.445 0.039,-2.173 0.02,-0.406 0.058,-0.61 0.156,-0.794 0.097,-0.194 0.242,-0.272 0.524,-0.282 l 0,-0.271 c -0.341,0.019 -0.69,0.019 -1.029,0.019 -0.349,0 -0.689,0 -1.038,-0.019 l 0,0.271 c 0.641,0.019 0.659,0.553 0.678,1.057 0.011,0.408 0.02,0.747 0.02,1.368 l 0,2.046 c 0,0.805 -0.039,0.999 -0.184,1.212 -0.096,0.156 -0.223,0.214 -0.514,0.243 l 0,0.272 c 0.32,-0.02 0.437,-0.02 0.844,-0.02 0.398,0 0.514,0 0.835,0.02 0.116,-0.214 0.3,-0.408 0.969,-1.223 0.95,-1.153 1.804,-2.133 2.609,-3.141 l 0,2.114 c 0,0.97 -0.02,1.212 -0.068,1.463 -0.068,0.311 -0.253,0.467 -0.611,0.515 l 0,0.272 c 0.397,-0.02 0.534,-0.02 1.028,-0.02 0.494,0 0.63,0 1.028,0.02 l 0,-0.272 C 0.281,0.281 0.136,0.233 0,0"
             style="fill:#333399;fill-opacity:1;fill-rule:nonzero;stroke:none"
             id="path5535"
             inkscape:connector-curvature="0" />
        </g>
        <g
           id="g5537"
           transform="translate(97.9471,85.5025)">
          <path
             d="m 0,0 c -0.631,-0.252 -1.184,-0.349 -1.95,-0.349 l -0.088,-0.388 c 0.05,0.01 0.146,0 0.185,0 0.368,0 0.611,-0.262 0.611,-0.581 0,-0.525 -0.417,-0.893 -1.077,-0.893 -0.193,0 -0.368,0.039 -0.581,0.126 l 0.136,0.378 c 0.125,-0.048 0.242,-0.077 0.348,-0.077 0.272,0 0.457,0.136 0.457,0.378 0,0.194 -0.097,0.31 -0.242,0.31 -0.079,0 -0.147,-0.029 -0.215,-0.077 l -0.212,0.058 0.192,0.786 c -0.852,0.077 -1.473,0.358 -1.997,0.901 -0.601,0.612 -0.921,1.446 -0.921,2.425 0,2.095 1.349,3.356 3.569,3.356 0.669,0 1.319,-0.097 1.881,-0.282 C 0.077,5.848 0.077,5.625 0.077,5.412 c 0,-0.164 0.01,-0.514 0.019,-0.737 l -0.378,0 c -0.155,0.689 -0.708,1.057 -1.59,1.057 -1.367,0 -2.202,-0.912 -2.202,-2.424 0,-1.746 0.979,-3.017 2.328,-3.017 0.814,0 1.368,0.408 1.591,1.184 L 0.213,1.397 C 0.126,1.067 0.038,0.514 0,0"
             style="fill:#333399;fill-opacity:1;fill-rule:nonzero;stroke:none"
             id="path5539"
             inkscape:connector-curvature="0" />
        </g>
        <g
           id="g5541"
           transform="translate(101.5331,90.0318)">
          <path
             d="m 0,0 c -0.252,-0.659 -0.602,-1.513 -0.746,-1.988 l 1.435,0 L 0,0 Z m 3.143,-4.752 c -0.243,0.009 -0.592,0.009 -1.038,0.009 -0.457,0 -0.805,0 -1.047,-0.009 l -0.224,-0.01 0,0.271 c 0.31,0.02 0.496,0.185 0.496,0.457 0,0.097 -0.03,0.232 -0.128,0.523 -0.116,0.359 -0.193,0.602 -0.309,0.931 l -1.863,0 -0.194,-0.563 c -0.145,-0.435 -0.223,-0.756 -0.223,-0.92 0,-0.282 0.127,-0.408 0.436,-0.428 l 0,-0.271 c -0.367,0.01 -0.503,0.019 -0.968,0.019 -0.457,0 -0.593,-0.009 -0.961,-0.019 l 0,0.271 c 0.146,0.02 0.193,0.039 0.301,0.137 0.184,0.165 0.368,0.503 0.66,1.241 L -1,-0.766 c 0.254,0.63 0.632,1.648 0.894,2.474 l 0.66,0 C 0.641,1.406 0.844,0.931 0.979,0.582 L 2.347,-2.919 C 2.58,-3.511 2.745,-3.86 2.872,-4.083 3.007,-4.315 3.143,-4.432 3.376,-4.491 l 0,-0.271 -0.233,0.01 z"
             style="fill:#333399;fill-opacity:1;fill-rule:nonzero;stroke:none"
             id="path5543"
             inkscape:connector-curvature="0" />
        </g>
        <g
           id="g5545"
           transform="translate(107.846,85.2794)">
          <path
             d="m 0,0 c -0.243,0.01 -0.602,0.01 -1.059,0.01 -0.464,0 -0.814,0 -1.066,-0.01 l -0.232,-0.009 0,0.271 c 0.456,0.039 0.629,0.272 0.669,0.718 0.028,0.291 0.039,0.465 0.039,1.426 l 0,1.629 c 0,0.252 -0.011,0.513 -0.011,0.795 0,0.514 -0.019,0.747 -0.096,0.95 -0.088,0.253 -0.271,0.369 -0.601,0.408 l 0,0.272 0.232,-0.01 c 0.252,-0.01 0.602,-0.01 1.066,-0.01 0.457,0 0.816,0 1.059,0.01 l 0.232,0.01 0,-0.272 C -0.186,6.159 -0.398,5.897 -0.438,5.461 -0.467,5.18 -0.467,4.908 -0.467,4.035 l 0,-1.629 c 0,-1.271 0.009,-1.484 0.107,-1.737 0.088,-0.252 0.262,-0.378 0.592,-0.407 l 0,-0.271 L 0,0 Z"
             style="fill:#333399;fill-opacity:1;fill-rule:nonzero;stroke:none"
             id="path5547"
             inkscape:connector-curvature="0" />
        </g>
        <g
           id="g5549"
           transform="translate(110.8592,85.1539)">
          <path
             d="m 0,0 c -0.562,0 -0.97,0.077 -1.629,0.33 -0.029,0.368 -0.097,0.931 -0.175,1.396 l 0.369,0.059 c 0.232,-0.786 0.747,-1.193 1.493,-1.193 0.689,0 1.154,0.358 1.154,0.901 0,0.437 -0.3,0.738 -0.736,1.008 l -1.019,0.651 c -0.698,0.446 -1.105,0.911 -1.105,1.765 0,1.086 0.824,1.785 2.104,1.785 0.622,0 1.135,-0.117 1.591,-0.35 -0.01,-0.232 -0.01,-0.31 -0.01,-0.611 0,-0.349 0,-0.446 0.01,-0.718 l -0.369,0 C 1.542,5.722 1.106,6.11 0.437,6.11 c -0.601,0 -1.038,-0.378 -1.038,-0.912 0,-0.466 0.321,-0.776 0.833,-1.105 L 1.057,3.559 C 1.843,3.045 2.289,2.55 2.289,1.775 2.289,0.718 1.358,0 0,0"
             style="fill:#333399;fill-opacity:1;fill-rule:nonzero;stroke:none"
             id="path5551"
             inkscape:connector-curvature="0" />
        </g>
        <g
           id="g5553"
           transform="translate(118.6576,85.4156)">
          <path
             d="m 0,0 c -0.088,-0.146 -0.185,-0.175 -0.718,-0.175 -0.329,0 -0.65,0.02 -0.979,0.029 -0.466,0.01 -0.932,0.029 -1.397,0.029 -0.466,0 -0.931,-0.009 -1.397,-0.029 l 0,0.271 c 0.436,0.04 0.631,0.292 0.67,0.719 0.029,0.291 0.029,0.601 0.029,1.105 l 0,2.745 c 0,0.514 -0.029,0.747 -0.106,0.95 -0.089,0.252 -0.264,0.369 -0.593,0.408 l 0,0.272 4.539,0 c 0,-0.282 -0.01,-0.573 -0.01,-0.854 0,-0.233 -0.01,-0.456 0.01,-0.689 l -0.349,0 c -0.068,0.747 -0.388,0.95 -1.543,0.95 -0.213,0 -0.494,-0.009 -0.727,-0.019 C -2.59,5.334 -2.6,5.208 -2.6,4.646 l 0,-1.125 c 0.146,-0.01 0.262,-0.01 0.437,-0.01 1.009,0 1.319,0.145 1.377,0.669 l 0.349,0 c -0.02,-0.155 -0.02,-0.475 -0.02,-0.96 0,-0.495 0.01,-0.786 0.02,-0.941 l -0.349,0 c -0.029,0.553 -0.291,0.689 -1.29,0.689 -0.174,0 -0.349,-0.01 -0.524,-0.01 0,-0.611 0.01,-1.222 0.01,-1.833 0,-0.408 0.068,-0.543 0.3,-0.602 0.146,-0.039 0.369,-0.048 0.67,-0.048 1.047,0 1.416,0.233 1.639,1.028 L 0.397,1.426 C 0.261,0.747 0.106,0.184 0,0"
             style="fill:#333399;fill-opacity:1;fill-rule:nonzero;stroke:none"
             id="path5555"
             inkscape:connector-curvature="0" />
        </g>
        <g
           id="g5557"
           transform="translate(4.1556,101.8697)">
          <path
             d="m 0,0 c -0.085,-0.113 -0.228,-0.15 -0.567,-0.15 -0.462,0 -0.916,0.028 -1.379,0.037 -0.396,0.009 -0.699,0.019 -0.906,0.019 -0.284,0 -0.973,-0.01 -1.171,-0.019 l -0.133,-0.009 0.038,0.198 c 0.284,0.028 0.454,0.113 0.586,0.293 0.151,0.189 0.245,0.453 0.378,0.982 0.123,0.52 0.179,0.831 0.377,1.803 L -2.626,3.9 c 0.151,0.756 0.208,1.2 0.208,1.436 0,0.416 -0.151,0.585 -0.557,0.632 l 0.038,0.208 c 0.057,-0.009 0.104,-0.009 0.132,-0.009 0.349,0 0.689,-0.009 1.039,-0.009 0.547,0 0.906,0.009 1.067,0.009 0.029,0 0.085,0 0.151,0.009 L -0.586,5.968 C -0.878,5.95 -1.039,5.874 -1.181,5.685 -1.417,5.383 -1.549,4.978 -1.899,3.154 L -2.021,2.522 C -2.173,1.748 -2.229,1.483 -2.276,1.134 -2.295,1.021 -2.305,0.898 -2.305,0.841 c 0,-0.368 0.189,-0.482 0.793,-0.482 1.068,0 1.465,0.218 1.813,0.992 L 0.557,1.256 C 0.33,0.633 0.113,0.152 0,0"
             style="fill:#333399;fill-opacity:1;fill-rule:nonzero;stroke:none"
             id="path5559"
             inkscape:connector-curvature="0" />
        </g>
        <g
           id="g5561"
           transform="translate(5.9295,101.6436)">
          <path
             d="m 0,0 c -0.189,0 -0.312,0.104 -0.312,0.274 0,0.084 0.028,0.236 0.076,0.444 0.123,0.5 0.293,1.18 0.387,1.539 C 0.283,2.748 0.34,3.088 0.34,3.22 0.34,3.343 0.283,3.399 0.179,3.399 0.094,3.399 0.01,3.371 -0.189,3.314 L -0.255,3.296 -0.284,3.56 c 0.519,0.198 1.03,0.321 1.285,0.321 0.142,0 0.198,-0.047 0.198,-0.161 0,-0.113 -0.047,-0.415 -0.217,-1.076 L 0.84,2.087 C 0.604,1.17 0.547,0.85 0.547,0.699 0.547,0.557 0.623,0.472 0.765,0.472 0.85,0.472 1.02,0.51 1.284,0.604 L 1.303,0.34 C 0.803,0.142 0.264,0 0,0 m 1.029,4.825 c -0.292,0 -0.482,0.18 -0.482,0.454 0,0.34 0.246,0.576 0.586,0.576 0.284,0 0.463,-0.17 0.463,-0.445 0,-0.34 -0.237,-0.585 -0.567,-0.585"
             style="fill:#333399;fill-opacity:1;fill-rule:nonzero;stroke:none"
             id="path5563"
             inkscape:connector-curvature="0" />
        </g>
        <g
           id="g5565"
           transform="translate(11.1214,105.1187)">
          <path
             d="m 0,0 c -0.17,0 -0.378,-0.067 -0.643,-0.208 -0.274,-0.142 -0.472,-0.293 -0.576,-0.435 -0.122,-0.169 -0.226,-0.462 -0.368,-1.085 -0.142,-0.586 -0.208,-0.954 -0.208,-1.086 0,-0.18 0.208,-0.283 0.586,-0.283 0.387,0 0.718,0.179 0.963,0.528 0.378,0.538 0.661,1.398 0.661,2.012 C 0.415,-0.198 0.274,0 0,0 m 0.01,-3.031 c -0.369,-0.322 -0.804,-0.453 -1.474,-0.453 -0.737,0 -1.181,0.122 -1.181,0.311 0,0.076 0.01,0.17 0.104,0.567 l 0.492,2.143 c 0.159,0.69 0.283,1.237 0.453,2.012 0.095,0.453 0.132,0.699 0.132,0.821 0,0.113 -0.057,0.179 -0.161,0.179 -0.065,0 -0.273,-0.046 -0.415,-0.094 l -0.009,0.274 0.113,0.038 c 0.51,0.17 0.935,0.264 1.133,0.264 0.123,0 0.198,-0.056 0.198,-0.16 0,-0.104 -0.047,-0.34 -0.207,-1.039 L -1.095,0.585 C -1.19,0.179 -1.219,0.029 -1.247,-0.104 c 0.595,0.349 1.114,0.51 1.587,0.51 0.576,0 0.859,-0.293 0.859,-0.888 0,-0.878 -0.501,-1.954 -1.189,-2.549"
             style="fill:#333399;fill-opacity:1;fill-rule:nonzero;stroke:none"
             id="path5567"
             inkscape:connector-curvature="0" />
        </g>
        <g
           id="g5569"
           transform="translate(15.3519,105.1475)">
          <path
             d="m 0,0 c -0.454,0 -0.936,-0.624 -1.171,-1.54 l 0.094,0 c 0.878,0 1.539,0.463 1.539,1.067 C 0.462,-0.208 0.254,0 0,0 m -0.973,-1.889 c -0.067,0 -0.151,0 -0.274,0.009 -0.028,-0.17 -0.037,-0.312 -0.037,-0.453 0,-0.481 0.169,-0.736 0.499,-0.736 0.303,0 0.68,0.16 1.238,0.509 l 0.104,-0.321 c -0.699,-0.434 -1.228,-0.632 -1.709,-0.632 -0.586,0 -0.907,0.349 -0.907,0.981 0,1.559 1.058,2.909 2.275,2.909 0.596,0 0.945,-0.273 0.945,-0.746 0,-0.868 -0.925,-1.52 -2.134,-1.52"
             style="fill:#333399;fill-opacity:1;fill-rule:nonzero;stroke:none"
             id="path5571"
             inkscape:connector-curvature="0" />
        </g>
        <g
           id="g5573"
           transform="translate(20.2997,104.3067)">
          <path
             d="m 0,0 -0.312,0.028 c 0.019,0.114 0.029,0.246 0.029,0.368 0,0.17 -0.152,0.293 -0.387,0.293 -0.142,0 -0.284,-0.085 -0.406,-0.227 -0.359,-0.405 -0.501,-1.047 -0.709,-2.096 L -1.964,-2.55 c -0.359,-0.018 -0.453,-0.028 -0.822,-0.075 0.094,0.358 0.161,0.642 0.236,0.963 l 0.208,0.878 c 0.142,0.595 0.208,0.963 0.208,1.161 0,0.237 -0.057,0.34 -0.17,0.34 -0.057,0 -0.141,-0.018 -0.237,-0.047 L -2.776,0.595 -2.805,0.878 c 0.463,0.188 0.992,0.34 1.228,0.34 0.094,0 0.151,-0.038 0.17,-0.133 0.029,-0.113 0.048,-0.244 0.056,-0.405 0.426,0.349 0.803,0.548 1.068,0.548 0.179,0 0.406,-0.096 0.623,-0.256 C 0.188,0.633 0.076,0.32 0,0"
             style="fill:#333399;fill-opacity:1;fill-rule:nonzero;stroke:none"
             id="path5575"
             inkscape:connector-curvature="0" />
        </g>
        <g
           id="g5577"
           transform="translate(23.5003,104.9483)">
          <path
             d="m 0,0 -0.784,0.019 -0.397,-1.936 c -0.104,-0.5 -0.112,-0.642 -0.112,-0.717 0,-0.132 0.065,-0.208 0.189,-0.208 0.065,0 0.207,0.038 0.434,0.104 l 0.093,0.028 0.029,-0.274 c -0.491,-0.198 -1.001,-0.33 -1.274,-0.33 -0.199,0 -0.321,0.094 -0.321,0.273 0,0.162 0.037,0.397 0.113,0.69 0.085,0.33 0.151,0.604 0.227,0.973 l 0.292,1.397 -0.501,-0.009 0.067,0.302 c 0.642,0.113 0.859,0.623 1.038,1.171 L -0.454,1.578 -0.69,0.463 0.094,0.473 0,0 Z"
             style="fill:#333399;fill-opacity:1;fill-rule:nonzero;stroke:none"
             id="path5579"
             inkscape:connector-curvature="0" />
        </g>
        <g
           id="g5581"
           transform="translate(26.3231,105.1475)">
          <path
             d="m 0,0 c -0.453,0 -0.935,-0.624 -1.171,-1.54 l 0.095,0 c 0.878,0 1.539,0.463 1.539,1.067 C 0.463,-0.208 0.255,0 0,0 m -0.972,-1.889 c -0.066,0 -0.151,0 -0.274,0.009 -0.028,-0.17 -0.038,-0.312 -0.038,-0.453 0,-0.481 0.17,-0.736 0.501,-0.736 0.302,0 0.679,0.16 1.237,0.509 l 0.103,-0.321 c -0.699,-0.434 -1.226,-0.632 -1.709,-0.632 -0.585,0 -0.906,0.349 -0.906,0.981 0,1.559 1.058,2.909 2.275,2.909 0.595,0 0.945,-0.273 0.945,-0.746 0,-0.868 -0.926,-1.52 -2.134,-1.52 M 0.076,0.962 -0.227,1.208 0.925,2.511 1.775,2.303 0.076,0.962 Z"
             style="fill:#333399;fill-opacity:1;fill-rule:nonzero;stroke:none"
             id="path5583"
             inkscape:connector-curvature="0" />
        </g>
        <g
           id="g5585"
           transform="translate(44.4183,106.6676)">
          <path
             d="m 0,0 -0.274,0 c 0.01,0.104 0.018,0.141 0.018,0.208 0,0.519 -0.339,0.698 -1.284,0.698 -0.311,0 -0.613,0 -0.925,-0.028 -0.198,-0.784 -0.33,-1.464 -0.491,-2.304 l 0.35,0 c 0.605,0 0.858,0.009 1.077,0.047 0.349,0.066 0.556,0.274 0.66,0.652 l 0.255,0 c -0.132,-0.558 -0.293,-1.351 -0.359,-1.832 l -0.255,0 c 0.01,0.066 0.02,0.122 0.02,0.161 0,0.405 -0.255,0.537 -1.03,0.537 -0.463,0 -0.633,-0.009 -0.803,-0.018 -0.046,-0.236 0,-0.029 -0.217,-1.115 -0.103,-0.528 -0.142,-0.86 -0.142,-1.029 0,-0.33 0.171,-0.415 0.803,-0.415 1.19,0 1.558,0.188 1.927,1 l 0.235,-0.094 C -0.643,-4.155 -0.869,-4.656 -1,-4.816 -1.095,-4.92 -1.218,-4.948 -1.614,-4.948 c -0.331,0 -0.671,0.009 -1.001,0.019 -0.435,0.009 -0.879,0.018 -1.313,0.018 -0.444,0 -0.879,-0.009 -1.322,-0.009 l 0.037,0.198 c 0.284,0.029 0.454,0.114 0.586,0.293 0.151,0.189 0.246,0.453 0.377,0.982 0.123,0.529 0.162,0.746 0.378,1.803 l 0.151,0.746 c 0.152,0.737 0.208,1.2 0.208,1.436 0,0.416 -0.151,0.585 -0.557,0.632 l 0.038,0.208 4.296,0 C 0.161,0.954 0.066,0.443 0,0 m -1.794,2.011 -0.302,0.245 1.152,1.303 0.859,-0.207 -1.709,-1.341 z"
             style="fill:#333399;fill-opacity:1;fill-rule:nonzero;stroke:none"
             id="path5587"
             inkscape:connector-curvature="0" />
        </g>
        <g
           id="g5589"
           transform="translate(47.4212,101.3414)">
          <path
             d="m 0,0 c -0.321,0.123 -0.708,0.255 -1.105,0.369 -0.651,-0.161 -1.105,-0.643 -1.105,-1.19 0,-0.511 0.435,-0.85 1.114,-0.85 0.822,0 1.577,0.557 1.577,1.161 C 0.481,-0.283 0.34,-0.132 0,0 m -0.142,3.825 c -0.51,0 -0.925,-0.539 -0.925,-1.181 0,-0.444 0.255,-0.746 0.622,-0.746 0.501,0 0.907,0.519 0.907,1.162 0,0.472 -0.235,0.765 -0.604,0.765 M 1.662,3.617 1.02,3.626 C 1.133,3.427 1.171,3.276 1.171,3.06 1.171,2.191 0.443,1.521 -0.5,1.521 c -0.18,0 -0.312,0.019 -0.511,0.075 -0.236,-0.141 -0.311,-0.208 -0.311,-0.293 0,-0.104 0.103,-0.151 0.519,-0.283 l 0.756,-0.236 c 0.755,-0.237 1.124,-0.463 1.124,-1.011 0,-1.001 -0.992,-1.785 -2.258,-1.785 -1.038,0 -1.671,0.492 -1.671,1.294 0,0.737 0.472,1.087 1.247,1.284 -0.473,0.171 -0.577,0.246 -0.577,0.407 0,0.207 0.274,0.463 0.841,0.774 -0.293,0.208 -0.434,0.482 -0.434,0.859 0,0.897 0.717,1.577 1.662,1.577 0.245,0 0.425,-0.028 0.632,-0.103 l 1.247,0 -0.104,-0.463 z"
             style="fill:#333399;fill-opacity:1;fill-rule:nonzero;stroke:none"
             id="path5591"
             inkscape:connector-curvature="0" />
        </g>
        <g
           id="g5593"
           transform="translate(52.1966,105.1285)">
          <path
             d="m 0,0 c -0.377,0 -0.755,-0.284 -1.077,-0.812 -0.358,-0.576 -0.613,-1.341 -0.613,-1.842 0,-0.292 0.142,-0.453 0.378,-0.453 0.349,0 0.962,0.312 1.199,0.547 0.132,0.133 0.208,0.322 0.302,0.68 0.151,0.576 0.293,1.115 0.378,1.738 C 0.359,-0.047 0.161,0 0,0 m 0.434,-3.494 c -0.17,0 -0.226,0.104 -0.311,0.566 -0.699,-0.397 -1.209,-0.575 -1.709,-0.575 -0.567,0 -0.897,0.292 -0.897,0.811 0,0.501 0.245,1.209 0.623,1.794 0.51,0.794 1.142,1.294 2.106,1.294 0.424,0 0.812,-0.076 1.218,-0.179 L 1.417,0.065 C 1.076,-1.02 0.832,-2.219 0.832,-2.625 c 0,-0.256 0.056,-0.397 0.169,-0.397 0.075,0 0.273,0.056 0.51,0.141 L 1.54,-3.173 C 1.058,-3.353 0.595,-3.494 0.434,-3.494"
             style="fill:#333399;fill-opacity:1;fill-rule:nonzero;stroke:none"
             id="path5595"
             inkscape:connector-curvature="0" />
        </g>
        <g
           id="g5597"
           transform="translate(56.8143,107.1866)">
          <path
             d="m 0,0 c -0.312,-1.255 -0.624,-2.653 -0.925,-3.985 -0.095,-0.434 -0.141,-0.718 -0.141,-0.859 0,-0.142 0.065,-0.208 0.206,-0.208 0.095,0 0.266,0.038 0.52,0.113 l 0.019,-0.264 c -0.481,-0.189 -1.067,-0.349 -1.322,-0.349 -0.18,0 -0.283,0.104 -0.283,0.283 0,0.132 0.029,0.302 0.17,0.896 0.292,1.248 0.613,2.579 0.868,3.769 0.114,0.547 0.17,0.821 0.17,0.906 0,0.113 -0.056,0.17 -0.16,0.17 -0.095,0 -0.265,-0.037 -0.416,-0.095 l -0.018,0.284 c 0.481,0.17 1.01,0.302 1.274,0.302 0.133,0 0.198,-0.056 0.198,-0.16 C 0.16,0.708 0.123,0.491 0,0"
             style="fill:#333399;fill-opacity:1;fill-rule:nonzero;stroke:none"
             id="path5599"
             inkscape:connector-curvature="0" />
        </g>
        <g
           id="g5601"
           transform="translate(58.1258,101.6436)">
          <path
             d="m 0,0 c -0.189,0 -0.312,0.104 -0.312,0.274 0,0.084 0.029,0.236 0.076,0.444 0.123,0.5 0.293,1.18 0.387,1.539 C 0.284,2.748 0.34,3.088 0.34,3.22 0.34,3.343 0.284,3.399 0.18,3.399 0.095,3.399 0.009,3.371 -0.189,3.314 L -0.255,3.296 -0.283,3.56 C 0.236,3.758 0.746,3.881 1,3.881 1.142,3.881 1.199,3.834 1.199,3.72 1.199,3.607 1.152,3.305 0.982,2.644 L 0.84,2.087 C 0.604,1.17 0.548,0.85 0.548,0.699 c 0,-0.142 0.076,-0.227 0.217,-0.227 0.085,0 0.255,0.038 0.52,0.132 L 1.303,0.34 C 0.802,0.142 0.265,0 0,0 m 1.029,4.825 c -0.293,0 -0.481,0.18 -0.481,0.454 0,0.34 0.245,0.576 0.586,0.576 0.283,0 0.462,-0.17 0.462,-0.445 0,-0.34 -0.236,-0.585 -0.567,-0.585"
             style="fill:#333399;fill-opacity:1;fill-rule:nonzero;stroke:none"
             id="path5603"
             inkscape:connector-curvature="0" />
        </g>
        <g
           id="g5605"
           transform="translate(62.8734,104.9483)">
          <path
             d="m 0,0 -0.784,0.019 -0.397,-1.936 c -0.104,-0.5 -0.113,-0.642 -0.113,-0.717 0,-0.132 0.066,-0.208 0.189,-0.208 0.066,0 0.208,0.038 0.435,0.104 l 0.094,0.028 0.029,-0.274 c -0.492,-0.198 -1.002,-0.33 -1.276,-0.33 -0.198,0 -0.321,0.094 -0.321,0.273 0,0.162 0.038,0.397 0.113,0.69 0.086,0.33 0.152,0.604 0.228,0.973 l 0.291,1.397 -0.5,-0.009 0.067,0.302 c 0.642,0.113 0.859,0.623 1.038,1.171 L -0.454,1.578 -0.689,0.463 0.094,0.473 0,0 Z"
             style="fill:#333399;fill-opacity:1;fill-rule:nonzero;stroke:none"
             id="path5607"
             inkscape:connector-curvature="0" />
        </g>
        <g
           id="g5609"
           transform="translate(65.6966,105.1475)">
          <path
             d="m 0,0 c -0.454,0 -0.935,-0.624 -1.171,-1.54 l 0.094,0 c 0.879,0 1.54,0.463 1.54,1.067 C 0.463,-0.208 0.254,0 0,0 m -0.974,-1.889 c -0.065,0 -0.151,0 -0.273,0.009 -0.027,-0.17 -0.037,-0.312 -0.037,-0.453 0,-0.481 0.169,-0.736 0.5,-0.736 0.302,0 0.68,0.16 1.237,0.509 l 0.104,-0.321 c -0.699,-0.434 -1.227,-0.632 -1.709,-0.632 -0.586,0 -0.906,0.349 -0.906,0.981 0,1.559 1.057,2.909 2.275,2.909 0.595,0 0.944,-0.273 0.944,-0.746 0,-0.868 -0.925,-1.52 -2.135,-1.52 M 0.076,0.962 -0.228,1.208 0.925,2.511 1.774,2.303 0.076,0.962 Z"
             style="fill:#333399;fill-opacity:1;fill-rule:nonzero;stroke:none"
             id="path5611"
             inkscape:connector-curvature="0" />
        </g>
        <g
           id="g5613"
           transform="translate(83.662,106.6768)">
          <path
             d="m 0,0 -0.273,0 c 0.01,0.094 0.019,0.17 0.019,0.217 0,0.189 -0.066,0.34 -0.18,0.453 -0.179,0.17 -0.51,0.236 -1.228,0.236 -0.197,0 -0.463,-0.009 -0.699,-0.019 -0.169,-0.774 -0.32,-1.52 -0.491,-2.323 0.181,0 0.36,-0.009 0.539,-0.009 1.048,0 1.257,0.094 1.454,0.709 l 0.255,0 c -0.152,-0.615 -0.274,-1.219 -0.359,-1.842 l -0.264,0 c 0.009,0.066 0.019,0.122 0.019,0.161 0,0.16 -0.066,0.312 -0.18,0.396 -0.161,0.123 -0.349,0.151 -0.916,0.151 -0.301,0 -0.386,-0.009 -0.633,-0.019 L -3.06,-2.521 c -0.178,-0.907 -0.245,-1.332 -0.245,-1.596 0,-0.387 0.17,-0.567 0.557,-0.614 l -0.038,-0.198 -0.151,0.009 c -0.075,0 -0.49,0.009 -0.849,0.009 -0.378,0 -1.077,0 -1.2,-0.009 l -0.16,-0.009 0.037,0.198 c 0.284,0.028 0.454,0.113 0.586,0.293 0.151,0.189 0.254,0.453 0.378,0.981 0.133,0.539 0.18,0.822 0.377,1.804 l 0.151,0.746 c 0.152,0.746 0.209,1.199 0.209,1.436 0,0.416 -0.152,0.585 -0.557,0.632 l 0.038,0.208 4.193,0 C 0.171,0.945 0.075,0.453 0,0"
             style="fill:#333399;fill-opacity:1;fill-rule:nonzero;stroke:none"
             id="path5615"
             inkscape:connector-curvature="0" />
        </g>
        <g
           id="g5617"
           transform="translate(86.8802,104.3067)">
          <path
             d="m 0,0 -0.312,0.028 c 0.018,0.114 0.028,0.246 0.028,0.368 0,0.17 -0.152,0.293 -0.387,0.293 -0.141,0 -0.283,-0.085 -0.407,-0.227 -0.358,-0.405 -0.5,-1.047 -0.708,-2.096 L -1.965,-2.55 c -0.358,-0.018 -0.452,-0.028 -0.821,-0.075 0.094,0.358 0.16,0.642 0.235,0.963 l 0.209,0.878 c 0.142,0.595 0.207,0.963 0.207,1.161 0,0.237 -0.056,0.34 -0.169,0.34 -0.057,0 -0.143,-0.018 -0.238,-0.047 L -2.777,0.595 -2.805,0.878 c 0.463,0.188 0.991,0.34 1.227,0.34 0.095,0 0.152,-0.038 0.171,-0.133 0.027,-0.113 0.046,-0.244 0.056,-0.405 0.425,0.349 0.802,0.548 1.067,0.548 0.18,0 0.406,-0.096 0.623,-0.256 C 0.188,0.633 0.075,0.32 0,0"
             style="fill:#333399;fill-opacity:1;fill-rule:nonzero;stroke:none"
             id="path5619"
             inkscape:connector-curvature="0" />
        </g>
        <g
           id="g5621"
           transform="translate(90.1712,105.1285)">
          <path
             d="m 0,0 c -0.379,0 -0.756,-0.284 -1.078,-0.812 -0.358,-0.576 -0.613,-1.341 -0.613,-1.842 0,-0.292 0.142,-0.453 0.378,-0.453 0.349,0 0.963,0.312 1.199,0.547 0.132,0.133 0.208,0.322 0.302,0.68 0.151,0.576 0.292,1.115 0.377,1.738 C 0.357,-0.047 0.16,0 0,0 m 0.434,-3.494 c -0.169,0 -0.227,0.104 -0.311,0.566 -0.699,-0.397 -1.21,-0.575 -1.71,-0.575 -0.566,0 -0.897,0.292 -0.897,0.811 0,0.501 0.245,1.209 0.623,1.794 0.51,0.794 1.143,1.294 2.106,1.294 0.425,0 0.812,-0.076 1.218,-0.179 L 1.416,0.065 C 1.076,-1.02 0.83,-2.219 0.83,-2.625 c 0,-0.256 0.056,-0.397 0.17,-0.397 0.076,0 0.274,0.056 0.51,0.141 L 1.539,-3.173 C 1.057,-3.353 0.594,-3.494 0.434,-3.494"
             style="fill:#333399;fill-opacity:1;fill-rule:nonzero;stroke:none"
             id="path5623"
             inkscape:connector-curvature="0" />
        </g>
        <g
           id="g5625"
           transform="translate(95.1097,104.9483)">
          <path
             d="m 0,0 -0.784,0.019 -0.397,-1.936 c -0.103,-0.5 -0.112,-0.642 -0.112,-0.717 0,-0.132 0.064,-0.208 0.188,-0.208 0.066,0 0.207,0.038 0.434,0.104 l 0.095,0.028 0.028,-0.274 c -0.491,-0.198 -1.002,-0.33 -1.276,-0.33 -0.197,0 -0.32,0.094 -0.32,0.273 0,0.162 0.038,0.397 0.114,0.69 0.085,0.33 0.151,0.604 0.226,0.973 l 0.292,1.397 -0.5,-0.009 0.067,0.302 c 0.642,0.113 0.858,0.623 1.038,1.171 L -0.454,1.578 -0.689,0.463 0.094,0.473 0,0 Z"
             style="fill:#333399;fill-opacity:1;fill-rule:nonzero;stroke:none"
             id="path5627"
             inkscape:connector-curvature="0" />
        </g>
        <g
           id="g5629"
           transform="translate(97.9325,105.1475)">
          <path
             d="m 0,0 c -0.453,0 -0.935,-0.624 -1.171,-1.54 l 0.094,0 c 0.878,0 1.539,0.463 1.539,1.067 C 0.462,-0.208 0.256,0 0,0 m -0.973,-1.889 c -0.066,0 -0.151,0 -0.273,0.009 -0.028,-0.17 -0.038,-0.312 -0.038,-0.453 0,-0.481 0.17,-0.736 0.501,-0.736 0.301,0 0.679,0.16 1.236,0.509 l 0.103,-0.321 c -0.698,-0.434 -1.226,-0.632 -1.708,-0.632 -0.586,0 -0.906,0.349 -0.906,0.981 0,1.559 1.057,2.909 2.276,2.909 0.594,0 0.944,-0.273 0.944,-0.746 0,-0.868 -0.927,-1.52 -2.135,-1.52"
             style="fill:#333399;fill-opacity:1;fill-rule:nonzero;stroke:none"
             id="path5631"
             inkscape:connector-curvature="0" />
        </g>
        <g
           id="g5633"
           transform="translate(102.8802,104.3067)">
          <path
             d="m 0,0 -0.311,0.028 c 0.019,0.114 0.029,0.246 0.029,0.368 0,0.17 -0.152,0.293 -0.387,0.293 -0.143,0 -0.284,-0.085 -0.407,-0.227 -0.358,-0.405 -0.501,-1.047 -0.708,-2.096 l -0.18,-0.916 c -0.359,-0.018 -0.453,-0.028 -0.821,-0.075 0.094,0.358 0.16,0.642 0.236,0.963 l 0.207,0.878 c 0.142,0.595 0.209,0.963 0.209,1.161 0,0.237 -0.058,0.34 -0.171,0.34 -0.057,0 -0.141,-0.018 -0.236,-0.047 L -2.776,0.595 -2.804,0.878 c 0.462,0.188 0.992,0.34 1.227,0.34 0.095,0 0.152,-0.038 0.171,-0.133 0.028,-0.113 0.047,-0.244 0.056,-0.405 0.425,0.349 0.803,0.548 1.068,0.548 0.179,0 0.406,-0.096 0.622,-0.256 C 0.189,0.633 0.076,0.32 0,0"
             style="fill:#333399;fill-opacity:1;fill-rule:nonzero;stroke:none"
             id="path5635"
             inkscape:connector-curvature="0" />
        </g>
        <g
           id="g5637"
           transform="translate(106.6468,101.6344)">
          <path
             d="m 0,0 c -0.189,0 -0.303,0.113 -0.303,0.283 0,0.113 0.038,0.321 0.152,0.793 l 0.094,0.397 c 0.283,1.18 0.349,1.577 0.349,1.737 0,0.142 -0.066,0.217 -0.198,0.217 -0.161,0 -0.425,-0.094 -0.709,-0.264 C -0.916,2.993 -1.144,2.795 -1.257,2.625 -1.342,2.483 -1.407,2.238 -1.521,1.737 -1.672,1.048 -1.767,0.576 -1.842,0.132 -2.21,0.104 -2.305,0.094 -2.673,0.047 c 0.189,0.708 0.331,1.294 0.471,1.945 0.143,0.643 0.2,0.945 0.2,1.114 0,0.218 -0.067,0.321 -0.208,0.321 -0.076,0 -0.236,-0.037 -0.463,-0.113 l -0.019,0.265 c 0.454,0.179 0.945,0.311 1.171,0.311 0.208,0 0.273,-0.123 0.273,-0.566 l 0,-0.075 C -0.53,3.654 0.207,3.89 0.717,3.89 1.028,3.89 1.151,3.814 1.151,3.626 1.151,3.427 1.095,3.116 0.896,2.351 0.783,1.917 0.679,1.454 0.641,1.247 0.585,0.972 0.557,0.802 0.557,0.699 c 0,-0.142 0.075,-0.218 0.207,-0.218 0.085,0 0.264,0.038 0.492,0.123 L 1.284,0.33 C 0.783,0.151 0.216,0 0,0"
             style="fill:#333399;fill-opacity:1;fill-rule:nonzero;stroke:none"
             id="path5639"
             inkscape:connector-curvature="0" />
        </g>
        <g
           id="g5641"
           transform="translate(109.5912,101.6436)">
          <path
             d="m 0,0 c -0.188,0 -0.311,0.104 -0.311,0.274 0,0.084 0.028,0.236 0.076,0.444 0.122,0.5 0.292,1.18 0.386,1.539 C 0.284,2.748 0.34,3.088 0.34,3.22 0.34,3.343 0.284,3.399 0.18,3.399 0.095,3.399 0.01,3.371 -0.188,3.314 L -0.255,3.296 -0.283,3.56 c 0.52,0.198 1.029,0.321 1.284,0.321 0.142,0 0.198,-0.047 0.198,-0.161 0,-0.113 -0.047,-0.415 -0.217,-1.076 L 0.841,2.087 C 0.604,1.17 0.548,0.85 0.548,0.699 c 0,-0.142 0.076,-0.227 0.218,-0.227 0.084,0 0.255,0.038 0.519,0.132 L 1.304,0.34 C 0.803,0.142 0.265,0 0,0 m 1.03,4.825 c -0.293,0 -0.482,0.18 -0.482,0.454 0,0.34 0.246,0.576 0.586,0.576 0.283,0 0.462,-0.17 0.462,-0.445 C 1.596,5.07 1.36,4.825 1.03,4.825"
             style="fill:#333399;fill-opacity:1;fill-rule:nonzero;stroke:none"
             id="path5643"
             inkscape:connector-curvature="0" />
        </g>
        <g
           id="g5645"
           transform="translate(114.3397,104.9483)">
          <path
             d="m 0,0 -0.785,0.019 -0.396,-1.936 c -0.104,-0.5 -0.113,-0.642 -0.113,-0.717 0,-0.132 0.065,-0.208 0.188,-0.208 0.066,0 0.209,0.038 0.435,0.104 l 0.093,0.028 0.029,-0.274 c -0.491,-0.198 -1,-0.33 -1.275,-0.33 -0.197,0 -0.319,0.094 -0.319,0.273 0,0.162 0.037,0.397 0.112,0.69 0.084,0.33 0.151,0.604 0.226,0.973 l 0.294,1.397 -0.501,-0.009 0.065,0.302 c 0.642,0.113 0.86,0.623 1.04,1.171 L -0.455,1.578 -0.69,0.463 0.093,0.473 0,0 Z"
             style="fill:#333399;fill-opacity:1;fill-rule:nonzero;stroke:none"
             id="path5647"
             inkscape:connector-curvature="0" />
        </g>
        <g
           id="g5649"
           transform="translate(117.1615,105.1475)">
          <path
             d="m 0,0 c -0.453,0 -0.934,-0.624 -1.17,-1.54 l 0.094,0 c 0.879,0 1.54,0.463 1.54,1.067 C 0.464,-0.208 0.255,0 0,0 m -0.971,-1.889 c -0.067,0 -0.153,0 -0.275,0.009 -0.028,-0.17 -0.038,-0.312 -0.038,-0.453 0,-0.481 0.17,-0.736 0.501,-0.736 0.302,0 0.68,0.16 1.237,0.509 l 0.104,-0.321 c -0.698,-0.434 -1.227,-0.632 -1.71,-0.632 -0.584,0 -0.906,0.349 -0.906,0.981 0,1.559 1.058,2.909 2.275,2.909 0.595,0 0.946,-0.273 0.946,-0.746 0,-0.868 -0.927,-1.52 -2.134,-1.52 M 0.077,0.962 -0.226,1.208 0.926,2.511 1.775,2.303 0.077,0.962 Z"
             style="fill:#333399;fill-opacity:1;fill-rule:nonzero;stroke:none"
             id="path5651"
             inkscape:connector-curvature="0" />
        </g>
        <g
           id="g5653"
           transform="translate(72.9622,103.3927)">
          <path
             d="M 0,0 C 0.632,0 1.146,0.513 1.146,1.146 1.146,1.779 0.632,2.292 0,2.292 -0.632,2.292 -1.146,1.779 -1.146,1.146 -1.146,0.513 -0.632,0 0,0"
             style="fill:#333399;fill-opacity:1;fill-rule:nonzero;stroke:none"
             id="path5655"
             inkscape:connector-curvature="0" />
        </g>
        <g
           id="g5657"
           transform="translate(33.6151,103.3927)">
          <path
             d="M 0,0 C 0.632,0 1.145,0.513 1.145,1.146 1.145,1.779 0.632,2.292 0,2.292 -0.633,2.292 -1.147,1.779 -1.147,1.146 -1.147,0.513 -0.633,0 0,0"
             style="fill:#333399;fill-opacity:1;fill-rule:nonzero;stroke:none"
             id="path5659"
             inkscape:connector-curvature="0" />
        </g>
        <g
           id="g5661"
           transform="translate(0.6146,97.4708)">
          <path
             d="M 0,0 117.774,0"
             style="fill:none;stroke:#231f20;stroke-width:0.32600001;stroke-linecap:butt;stroke-linejoin:miter;stroke-miterlimit:4;stroke-dasharray:none;stroke-opacity:1"
             id="path5663"
             inkscape:connector-curvature="0" />
        </g>
      </g>
    </g>
    <g
       id="g5665"
       transform="matrix(0.48622485,0,0,-0.48622485,5.9736321,1064.861)">
      <g
         id="g5667"
         clip-path="url(#clipPath5669)">
        <g
           id="g5675"
           transform="translate(35.8421,128.4893)">
          <path
             style="fill:#333399;fill-opacity:1;fill-rule:nonzero;stroke:none"
             d="m 74.191406,0.51757812 c 0.695947,0.3479735 1.75058,1.17808648 2.185547,1.87499998 0.173987,0.2609801 0.433752,0.7828859 0.259766,1.1308594 -0.173987,0.4349669 -0.260346,1.1316873 -0.695313,1.3066406 -0.52196,0.2609801 -1.219171,0.2608215 -1.828125,0.1738281 -0.347973,0 -0.694995,-0.086835 -1.042969,-0.1738281 1.304901,0.5219603 2.521678,1.1317022 3.392579,2.3496094 0.08699,0.1739867 0.434263,0.2617187 0.783203,0.2617187 0.08796,0 0.08789,0.1727723 0.08789,0.2597657 -0.174953,0.1739867 -0.347725,0.2634239 -0.259765,0.5234375 l 0.259765,0 c 0.434967,-0.1739868 0.347111,-1.0451499 0.957032,-0.7832032 0.434,0.2609802 0.609623,0.8687541 0.349609,1.3046876 -0.34894,0.3479734 -0.698902,0.6101136 -1.046875,0.8710937 -0.08603,0.1739867 -0.08603,0.4353885 0,0.6093745 0.261947,0.347974 0.347587,0.695982 0.435547,1.044922 0.26098,0.608954 0.349381,1.304143 0.611328,1.914063 0.34604,1.3049 0.694415,2.611115 0.607422,3.916015 0,0.696914 -0.347884,1.30504 -0.08594,2.001954 0.173021,0.695947 0.609058,1.217218 0.957032,1.826172 0.347973,0.52196 0.695064,0.871604 0.955078,1.394531 0.522927,0.869933 1.480855,1.739302 1.044922,2.785156 -0.26098,0.607987 -1.218185,0.520201 -1.826172,0.869141 -0.52196,0.434966 -0.08715,1.132426 0.173828,1.568359 0.434,0.78294 -0.520939,1.303473 -1.130859,1.564453 0.174953,0.26098 0.521415,0.17367 0.609374,0.347656 0.08699,0.434967 0.520746,0.696859 0.259766,1.13086 -0.34894,0.522927 -1.391101,0.783486 -0.86914,1.568359 0.347973,0.607987 0.12186,1.285777 -0.08789,1.914063 -0.261947,0.783907 -0.956486,1.132654 -1.566406,1.30664 -0.521961,0.173987 -1.130384,0.172931 -1.652344,0.08594 -0.173987,-0.08699 -0.350437,-0.173828 -0.525391,-0.173828 -1.478887,-0.173987 -2.958612,-0.609375 -4.4375,-0.609375 -0.435933,0.08699 -0.86979,0.175622 -1.216797,0.349609 -1.566847,1.13188 -2.523948,2.784557 -3.046875,4.525391 l 49.677737,0 0,-39.03906288 c -13.75075,0 -28.538312,0 -42.289065,0 z M 39.556641,0.7890625 C 23.412981,0.77737277 3.4661255,0.828125 0.56054688,0.828125 l 0,38.640625 26.99023412,0 c 0.695947,-1.391894 2.436321,-1.219171 3.742188,-1.828125 0.434967,-0.174953 0.957611,0.08699 1.392578,0 0.26098,0 0.522223,-1.59e-4 0.783203,0.173828 -0.956927,0.52196 -1.827332,1.132337 -2.697266,1.654297 1.478888,0.174953 2.871709,0.261947 4.351563,0 0.695947,-0.17302 1.391944,-0.695982 2.087891,-1.044922 -0.608954,0.173987 -1.130384,0.436216 -1.652344,0.785156 -0.08699,0 -0.34961,0.08706 -0.34961,-0.08789 0.08699,-0.173987 0.349451,-0.26156 0.523438,-0.435547 0.08699,0 0.173828,-6.9e-5 0.173828,0.08789 2.784755,-2.175801 6.613296,-1.653276 9.833984,-2.785157 l 0.783204,-0.523437 c 0.434966,-0.173987 0.783713,-0.609147 1.30664,-0.871094 0.695947,-0.52196 1.216569,-1.1291 1.478516,-2 0,-0.08699 -0.08789,-0.173828 -0.08789,-0.173828 -1.130914,1.217907 -2.435264,2.17418 -3.828125,2.871094 -1.826861,0.956927 -3.82932,0.783941 -5.74414,1.044922 0.08699,-0.173987 0.262526,-0.173829 0.435546,-0.173829 0,-0.26098 0.17367,-0.34945 0.347657,-0.523437 l 0.261718,0 c 0.08699,0 0.0878,-0.173828 0.173829,-0.173828 0.174953,0 0.435616,-0.08594 0.347656,-0.08594 -0.260014,-0.34894 -0.783783,0.26098 -1.21875,0 0.173986,-0.173986 0.08773,-0.434491 0.261718,-0.521484 l 0.347657,0 c 0,-0.174953 0.173828,-0.34961 0.173828,-0.34961 1.3049,-0.78294 2.52428,-1.39291 3.742187,-2.08789 -0.26098,0 -0.434332,0.259924 -0.695312,0.08594 0.173987,0 -1.59e-4,-0.261718 0.173828,-0.261718 0.956927,-0.26098 1.740339,-0.782886 2.697266,-1.13086 -0.347007,0 -0.609058,0.260014 -0.957032,0 0.173987,-0.08699 0.262458,-0.261719 0.523438,-0.261719 l 0,-0.259765 c 0,-0.08699 0.0878,-0.08789 0.173828,-0.08789 -0.08603,0 -0.173828,-0.08594 -0.173828,-0.08594 0.08796,-0.17302 0.347498,-0.08773 0.521484,-0.261719 -0.08699,0 -0.261718,6.9e-5 -0.261718,-0.08789 0.26098,-0.347973 0.696859,-0.435457 1.130859,-0.521484 -0.08699,-0.173987 -0.347656,1.59e-4 -0.347656,-0.173828 0,-0.08699 0.08879,-0.08789 0.175781,-0.08789 l -0.175781,0 c -0.173987,-0.08699 -0.08594,-0.259696 -0.08594,-0.347656 0.52196,-0.608954 0.522223,-1.391944 0.783203,-2.087891 -0.08796,0 -0.173828,-8.97e-4 -0.173828,-0.08789 -0.8709,0.956927 -2.262492,1.305357 -3.568359,1.654297 l -0.435547,0 c -0.435934,0.17302 -1.044515,0.173089 -1.478516,-0.08789 -0.34894,-0.173987 -0.52312,-0.434332 -0.871094,-0.695313 -0.695946,-0.434966 -1.393827,-0.783941 -2.177734,-1.044921 -2.175801,-0.696914 -4.437391,-1.044025 -6.699219,-0.957032 0.956927,-0.52196 2.012601,-0.56855 3.044922,-0.871093 1.478888,-0.435934 2.873573,-0.957101 4.439453,-0.869141 -0.26098,-0.08796 -0.610113,0 -0.871093,0 -1.217908,-0.08796 -2.437287,0.259538 -3.742188,0.521484 -0.8709,0.173987 -1.65449,0.523279 -2.525391,0.697266 -0.520993,0.173987 -0.781671,0.694415 -1.390624,0.607422 l 0,-0.259766 c 0.8709,-1.04392 1.914746,-2.087821 3.30664,-2.175781 1.566847,-0.26098 3.046434,-1.59e-4 4.613281,0.173828 1.130914,0.08699 2.175727,0.348395 3.306641,0.609375 0.434967,0 0.52312,0.695223 0.871094,0.78125 0.52196,0.174953 1.044446,6.69e-4 1.566406,0.349609 0,-0.173986 -0.08699,-0.348464 0,-0.521484 0.34894,-0.34894 0.783872,0.0861 1.132812,-0.08789 0.694981,-0.435934 -0.610044,-1.218205 -0.958984,-1.828126 0,-0.08699 0.08789,-0.173828 0.08789,-0.173828 0.695947,0.608954 1.217957,1.306234 2.08789,1.740235 0.435934,0.173986 1.478675,0.436022 1.304688,-0.08594 -0.434967,-0.957893 -1.306006,-1.740428 -2.001953,-2.611328 l 0,-0.347656 c -0.173987,0 -0.172773,-0.08684 -0.259766,-0.173828 l 0,-0.34961 c -0.347973,-0.17302 -0.260593,-0.521256 -0.435547,-0.783203 -0.26098,-0.434 -0.08773,-1.043479 -0.261719,-1.566406 C 45.740076,17.885256 45.6534,17.449695 45.566406,16.927734 45.305426,15.44788 44.956223,14.142861 44.783203,12.75 44.60825,11.096159 45.740497,9.7904008 46.523438,8.3105469 47.132391,7.2656598 47.830024,6.2213376 48.960938,5.5253906 49.221918,4.4805036 49.919287,3.6111347 50.615234,2.7402344 51.398175,1.7833073 52.615269,1.3490987 53.660156,0.82617188 49.896001,0.80442353 44.93786,0.79295908 39.556641,0.7890625 Z"
             transform="matrix(1.0345616,0,0,-1.0345616,-36.876662,25.61626)"
             id="path5677"
             inkscape:connector-curvature="0" />
        </g>
        <g
           id="g5679"
           transform="translate(30.7997,124.168)">
          <path
             d="m 0,0 c -0.276,-0.069 -0.54,-0.271 -0.45,-0.451 0.27,-0.36 0.811,0.091 1.26,0.091 -0.54,-0.181 -1.17,-0.091 -1.62,-0.541 0.36,-0.27 0.72,-0.09 1.08,-0.09 0,-0.18 0.18,-0.18 0.271,-0.27 -0.451,-0.18 -0.811,-0.541 -0.901,-0.81 -0.18,-0.45 -0.631,-0.631 -0.9,-0.991 l 0,-0.27 c -0.9,-0.811 -1.891,-1.351 -2.611,-2.341 0.089,0 0.089,-0.09 0.089,-0.18 -0.179,-0.271 -0.54,-0.36 -0.63,-0.63 0,-0.09 0,-0.181 0.09,-0.181 1.081,0.361 1.891,1.171 2.882,1.531 0.72,0.18 1.26,0.631 1.89,0.811 0.451,0.09 0.991,0.27 1.442,0.36 0,-0.09 0,-0.181 0.088,-0.181 l 0.722,0 c -0.09,-0.179 -0.451,-0.089 -0.361,-0.179 0.271,-0.27 0.81,-0.18 1.171,0 0.27,0.179 0.54,0.179 0.9,0.179 0.09,0 0.09,0.181 0.09,0.271 0.27,-0.09 0.451,-0.09 0.721,-0.09 2.16,0.45 4.232,0.9 6.212,1.891 -2.34,1.8 -5.312,2.431 -8.103,3.241 0.271,0 0.54,-0.27 0.811,0 -0.451,0.361 -0.992,0.18 -1.441,0.45 0.09,0 0.27,-0.089 0.36,0.09 -0.721,0.361 -1.441,0.361 -2.161,0.54 0.45,0.09 0.72,0.451 0.72,0.901 0,0.09 -0.18,0.09 -0.27,0.09 C 0.27,2.701 -0.45,1.71 -0.9,0.54 -0.27,0.18 0.45,0.45 1.081,0.36 0.81,0.089 0.361,0.089 0,0"
             style="fill:#ffffff;fill-opacity:1;fill-rule:nonzero;stroke:none"
             id="path5681"
             inkscape:connector-curvature="0" />
        </g>
        <g
           id="g5683"
           transform="translate(27.1087,127.6793)">
          <path
             d="m 0,0 c -0.92,-0.974 -1.891,-1.891 -3.062,-2.521 -0.81,-1.621 -1.711,-3.062 -2.882,-4.593 0,-0.089 0.091,-0.179 0.091,-0.179 2.161,2.43 4.141,4.502 6.933,6.212 0.18,0.091 -0.27,-0.27 0.09,-0.18 1.17,0.271 1.53,1.441 2.071,2.342 0.72,1.169 1.981,1.62 2.881,2.61 0,-0.089 0,-0.179 -0.09,-0.27 0.09,-0.089 0.18,-0.089 0.271,-0.089 0.36,0.27 0.809,0.18 1.08,0.54 -0.72,0.27 -1.621,0.36 -2.341,0.09 C 3.151,3.062 1.531,1.621 0,0"
             style="fill:#ffffff;fill-opacity:1;fill-rule:nonzero;stroke:none"
             id="path5685"
             inkscape:connector-curvature="0" />
        </g>
        <g
           id="g5687"
           transform="translate(28.4583,125.9683)">
          <path
             d="m 0,0 c 0.081,0.161 0.181,0.18 0.271,0.36 0,0.09 0,0.18 -0.09,0.18 -0.36,-0.09 -0.631,-0.45 -0.721,-0.81 0,-0.09 0.09,-0.09 0.18,-0.09 0.181,0.09 0.271,0.18 0.36,0.36"
             style="fill:#ffffff;fill-opacity:1;fill-rule:nonzero;stroke:none"
             id="path5689"
             inkscape:connector-curvature="0" />
        </g>
        <g
           id="g5691"
           transform="translate(35.6624,119.1256)">
          <path
             d="m 0,0 c -0.36,-0.181 -0.991,-0.181 -1.081,-0.63 -0.09,-0.181 0.27,-0.091 0.45,-0.091 0.631,0.27 1.351,0 1.891,0.54 C 1.081,0 0.81,-0.09 0.63,0.18 0.45,0.27 0.18,0.09 0,0"
             style="fill:#ffffff;fill-opacity:1;fill-rule:nonzero;stroke:none"
             id="path5693"
             inkscape:connector-curvature="0" />
        </g>
        <g
           id="g5695"
           transform="translate(45.4764,114.2628)">
          <path
             d="m 0,0 c 0.556,0.124 1.081,0.451 1.621,0.631 l 0,-0.18 c 1.351,0.539 2.341,1.711 3.691,2.161 0.091,0 0.27,-0.181 0.451,-0.091 0.81,0.721 1.711,1.531 2.881,1.352 0,-0.091 0,-0.181 0.09,-0.181 0.09,0 0.18,0 0.18,0.09 -0.36,-0.27 -0.72,-0.54 -1.081,-0.81 -0.089,-0.091 0,-0.18 0.091,-0.18 0.45,0.18 0.72,0.54 1.17,0.72 C 9.004,3.422 9.004,3.242 8.914,3.152 7.203,1.891 5.943,0.451 4.592,-1.08 l -2.791,0 c 0,0.09 0,0.18 -0.09,0.18 -3.151,-0.27 -6.213,-0.18 -9.364,-0.18 1.8,0.27 3.601,0.81 5.402,0.99 0.72,0 1.44,-0.09 2.251,0.09"
             style="fill:#333399;fill-opacity:1;fill-rule:nonzero;stroke:none"
             id="path5697"
             inkscape:connector-curvature="0" />
        </g>
        <g
           id="g5699"
           transform="translate(80.9525,118.8555)" />
        <g
           id="g5703"
           transform="translate(77.5311,136.5933)">
          <path
             d="m 0,0 c -0.532,0.133 -0.99,0 -1.531,0 -0.719,-0.18 -1.35,-0.27 -1.981,-0.54 0.541,0.36 1.08,0.72 1.711,0.9 0.45,0.09 0.901,0.361 1.35,0.361 0.541,0.09 1.082,0.27 1.532,0.09 0.45,-0.181 1.17,-0.181 1.26,-0.451 0.18,-0.54 -0.27,-1.08 -0.81,-1.441 -0.09,-0.18 0.27,-0.27 0.27,-0.449 -0.091,-0.181 -0.36,-0.271 -0.54,-0.271 -0.18,-0.09 -0.36,-0.36 -0.541,-0.541 0.181,0 0,-0.269 0.181,-0.269 -0.361,-0.451 0.18,-1.35 -0.361,-1.531 -0.629,-0.18 -1.35,-0.18 -2.071,0 0.36,0.09 0.811,-0.09 1.08,0.27 l 0,0.36 c 0,0.09 -0.089,0.09 -0.179,0.09 -0.09,-0.09 -0.18,-0.09 -0.18,-0.09 0,0.181 -0.18,0.361 -0.271,0.361 -0.54,-0.09 -0.99,0.18 -1.351,0.54 0.271,0.09 0.542,0.18 0.811,0.09 0.27,0 0.181,0.45 0.45,0.63 l 0.271,0 c 0.54,0.721 1.62,0.9 1.801,1.621 C 0.901,-0.09 0.36,-0.09 0,0"
             style="fill:#333399;fill-opacity:1;fill-rule:nonzero;stroke:none"
             id="path5705"
             inkscape:connector-curvature="0" />
        </g>
      </g>
    </g>
    <g
       id="g5707"
       transform="matrix(0.48622485,0,0,-0.48622485,5.9736321,1064.861)">
      <g
         id="g5709"
         clip-path="url(#clipPath5711)">
        <g
           id="g5715"
           transform="translate(106.1639,20.1133)">
          <path
             d="m 0,0 c -0.507,0.073 -1.048,0.218 -1.554,0.219 -3.071,0.002 -4.626,-1.442 -4.63,-5.524 l -0.006,-6.539 -7.515,0.006 0.019,18.931 6.828,-0.006 -0.004,-3.829 0.072,0 c 1.051,2.961 2.895,4.368 5.821,4.366 0.325,0 0.651,-0.073 0.975,-0.109 L 0,0 Z m -17.354,-11.836 -6.972,0.006 0.003,2.782 c -1.882,-2.599 -3.725,-3.321 -6.832,-3.319 -4.119,0.004 -6.79,2.534 -6.784,7.954 l 0.011,11.524 7.514,-0.006 -0.009,-10.223 c -0.003,-2.602 0.899,-3.433 2.707,-3.434 2.167,-0.003 2.854,1.622 2.857,4.549 l 0.01,9.104 7.514,-0.006 -0.019,-18.931 z m -24.045,14.615 -3.614,0.003 -0.007,-6.864 c -10e-4,-1.734 0.251,-2.349 2.347,-2.35 l 1.192,-10e-4 -0.006,-5.383 c -9.862,-0.534 -11.055,0.153 -11.048,6.692 l 0.008,7.912 -2.674,0.003 0.005,4.334 2.781,-0.001 0.007,5.888 7.406,-0.006 -0.006,-5.889 3.612,-0.002 -0.003,-4.336 z m -16.597,-14.582 -7.516,0.005 0.027,26.012 7.514,-0.006 -0.025,-26.011 z m -11.525,0.01 -6.973,0.005 0.003,2.782 c -1.881,-2.6 -3.725,-3.322 -6.832,-3.319 -4.118,0.004 -6.789,2.534 -6.784,7.953 l 0.012,11.525 7.514,-0.006 -0.01,-10.224 c -0.002,-2.601 0.9,-3.432 2.706,-3.434 2.168,-0.002 2.857,1.623 2.86,4.55 l 0.008,9.105 7.515,-0.007 -0.019,-18.93 z m 71.107,9.227 c 0.006,6.213 4.67,10.184 10.74,10.18 0.194,-10e-4 0.376,-0.018 0.565,-0.026 l 0,38.403 -118.987,0 0,-31.059 c 7.904,-0.029 12.322,-3.966 12.999,-10.63 l -8.092,0.007 c -0.25,2.709 -1.947,4.264 -4.62,4.266 -0.098,0 -0.191,-0.01 -0.287,-0.015 l 0,-14.622 c 0.194,-0.016 0.388,-0.031 0.597,-0.031 2.747,-0.002 4.049,1.911 4.376,4.404 l 8.201,-0.006 c -0.766,-6.72 -5.575,-10.763 -12.438,-10.757 -0.252,10e-4 -0.491,0.02 -0.736,0.03 l 0,-7.691 118.987,0 0,7.723 c -0.183,-0.005 -0.367,-0.012 -0.549,-0.011 -6.07,0.005 -10.763,3.476 -10.756,9.835"
             style="fill:#333399;fill-opacity:1;fill-rule:nonzero;stroke:none"
             id="path5717"
             inkscape:connector-curvature="0" />
        </g>
        <g
           id="g5719"
           transform="translate(118.7743,23.1382)">
          <path
             d="m 0,0 c -2.24,0.002 -3.505,-1.262 -3.508,-3.285 l 3.789,-0.003 0,3.272 C 0.188,-0.007 0.095,0 0,0"
             style="fill:#333399;fill-opacity:1;fill-rule:nonzero;stroke:none"
             id="path5721"
             inkscape:connector-curvature="0" />
        </g>
        <g
           id="g5723"
           transform="translate(118.9798,12.2999)">
          <path
             d="m 0,0 c 0.025,0 0.05,0.004 0.075,0.004 l 0,3.717 -3.792,0.003 C -3.719,1.484 -1.987,0.001 0,0"
             style="fill:#333399;fill-opacity:1;fill-rule:nonzero;stroke:none"
             id="path5725"
             inkscape:connector-curvature="0" />
        </g>
        <g
           id="g5727"
           transform="translate(119.055,12.3043)">
          <path
             d="M 0,0 0,-4.581"
             style="fill:#ffffff;fill-opacity:1;fill-rule:nonzero;stroke:none"
             id="path5729"
             inkscape:connector-curvature="0" />
        </g>
        <g
           id="g5731"
           transform="translate(119.055,19.8506)">
          <path
             d="M 0,0 0,-3.83"
             style="fill:#ffffff;fill-opacity:1;fill-rule:nonzero;stroke:none"
             id="path5733"
             inkscape:connector-curvature="0" />
        </g>
        <g
           id="g5735"
           transform="translate(119.055,27.7017)">
          <path
             d="M 0,0 0,-4.579"
             style="fill:#ffffff;fill-opacity:1;fill-rule:nonzero;stroke:none"
             id="path5737"
             inkscape:connector-curvature="0" />
        </g>
        <g
           id="g5739"
           transform="translate(15.8646,50.3755)">
          <path
             d="m 0,0 0,5.82 0.84,0 1.909,-5.133 0.016,0 1.875,5.133 0.833,0 0,-5.82 -0.55,0 0,5.19 -0.016,0 L 2.999,0 2.481,0 0.565,5.19 0.549,5.19 0.549,0 0,0 Z"
             style="fill:#ffffff;fill-opacity:1;fill-rule:nonzero;stroke:none"
             id="path5741"
             inkscape:connector-curvature="0" />
        </g>
        <g
           id="g5743"
           transform="translate(15.8646,50.3755)">
          <path
             d="m 0,0 0,5.82 0.84,0 1.909,-5.133 0.016,0 1.875,5.133 0.833,0 0,-5.82 -0.55,0 0,5.19 -0.016,0 L 2.999,0 2.481,0 0.565,5.19 0.549,5.19 0.549,0 0,0 Z"
             style="fill:none;stroke:#ffffff;stroke-width:0.028;stroke-linecap:butt;stroke-linejoin:miter;stroke-miterlimit:4;stroke-dasharray:none;stroke-opacity:1"
             id="path5745"
             inkscape:connector-curvature="0" />
        </g>
        <path
           d="m 23.108,54.563 -0.485,0 0,-4.187 0.485,0 0,4.187 z m 0.024,1.633 -0.533,0 0,-0.719 0.533,0 0,0.719 z"
           style="fill:#ffffff;fill-opacity:1;fill-rule:nonzero;stroke:#ffffff;stroke-width:0.028;stroke-linecap:butt;stroke-linejoin:miter;stroke-miterlimit:4;stroke-dasharray:none;stroke-opacity:1"
           id="path5747"
           inkscape:connector-curvature="0" />
        <g
           id="g5749"
           transform="translate(24.8294,50.3755)">
          <path
             d="m 0,0 -0.485,0 0,4.187 0.485,0 0,-0.582 C 0.388,4.018 0.768,4.301 1.35,4.301 1.859,4.301 2.328,4.139 2.627,3.702 2.83,3.403 2.838,3.088 2.838,2.74 l 0,-2.74 -0.485,0 0,2.732 C 2.353,3.484 2.045,3.864 1.269,3.864 0.671,3.864 0.259,3.476 0.105,3.047 0.008,2.781 0,2.546 0,2.255 L 0,0 Z"
             style="fill:#ffffff;fill-opacity:1;fill-rule:nonzero;stroke:none"
             id="path5751"
             inkscape:connector-curvature="0" />
        </g>
        <g
           id="g5753"
           transform="translate(24.8294,50.3755)">
          <path
             d="m 0,0 -0.485,0 0,4.187 0.485,0 0,-0.582 C 0.388,4.018 0.768,4.301 1.35,4.301 1.859,4.301 2.328,4.139 2.627,3.702 2.83,3.403 2.838,3.088 2.838,2.74 l 0,-2.74 -0.485,0 0,2.732 C 2.353,3.484 2.045,3.864 1.269,3.864 0.671,3.864 0.259,3.476 0.105,3.047 0.008,2.781 0,2.546 0,2.255 L 0,0 Z"
             style="fill:none;stroke:#ffffff;stroke-width:0.028;stroke-linecap:butt;stroke-linejoin:miter;stroke-miterlimit:4;stroke-dasharray:none;stroke-opacity:1"
             id="path5755"
             inkscape:connector-curvature="0" />
        </g>
        <path
           d="m 28.888,56.196 0.534,0 0,-0.719 -0.534,0 0,0.719 z m 0.024,-1.633 0.485,0 0,-4.187 -0.485,0 0,4.187 z"
           style="fill:#ffffff;fill-opacity:1;fill-rule:nonzero;stroke:#ffffff;stroke-width:0.028;stroke-linecap:butt;stroke-linejoin:miter;stroke-miterlimit:4;stroke-dasharray:none;stroke-opacity:1"
           id="path5757"
           inkscape:connector-curvature="0" />
        <g
           id="g5759"
           transform="translate(30.9168,51.6851)">
          <path
             d="m 0,0 c 0.153,-0.719 0.525,-0.986 1.253,-0.986 0.703,0 1.035,0.371 1.035,0.776 0,1.212 -2.684,0.356 -2.684,2.004 0,0.696 0.542,1.197 1.471,1.197 0.905,0 1.496,-0.372 1.617,-1.318 l -0.493,0 C 2.11,2.32 1.673,2.555 1.067,2.555 c -0.614,0 -0.946,-0.291 -0.946,-0.72 0,-1.14 2.684,-0.429 2.684,-2.037 0,-0.8 -0.719,-1.221 -1.705,-1.221 -0.987,0 -1.553,0.631 -1.593,1.423 L 0,0 Z"
             style="fill:#ffffff;fill-opacity:1;fill-rule:nonzero;stroke:none"
             id="path5761"
             inkscape:connector-curvature="0" />
        </g>
        <g
           id="g5763"
           transform="translate(30.9168,51.6851)">
          <path
             d="m 0,0 c 0.153,-0.719 0.525,-0.986 1.253,-0.986 0.703,0 1.035,0.371 1.035,0.776 0,1.212 -2.684,0.356 -2.684,2.004 0,0.696 0.542,1.197 1.471,1.197 0.905,0 1.496,-0.372 1.617,-1.318 l -0.493,0 C 2.11,2.32 1.673,2.555 1.067,2.555 c -0.614,0 -0.946,-0.291 -0.946,-0.72 0,-1.14 2.684,-0.429 2.684,-2.037 0,-0.8 -0.719,-1.221 -1.705,-1.221 -0.987,0 -1.553,0.631 -1.593,1.423 L 0,0 Z"
             style="fill:none;stroke:#ffffff;stroke-width:0.028;stroke-linecap:butt;stroke-linejoin:miter;stroke-miterlimit:4;stroke-dasharray:none;stroke-opacity:1"
             id="path5765"
             inkscape:connector-curvature="0" />
        </g>
        <g
           id="g5767"
           transform="translate(36.1473,50.3594)">
          <path
             d="m 0,0 c -0.113,-0.024 -0.323,-0.097 -0.558,-0.097 -0.477,0 -0.744,0.21 -0.744,0.832 l 0,3.064 -0.59,0 0,0.405 0.59,0 0,1.164 0.486,0 0,-1.164 0.784,0 0,-0.405 -0.784,0 0,-2.869 c 0,-0.413 0.016,-0.591 0.42,-0.591 0.129,0 0.267,0.025 0.396,0.057 L 0,0 Z"
             style="fill:#ffffff;fill-opacity:1;fill-rule:nonzero;stroke:none"
             id="path5769"
             inkscape:connector-curvature="0" />
        </g>
        <g
           id="g5771"
           transform="translate(36.1473,50.3594)">
          <path
             d="m 0,0 c -0.113,-0.024 -0.323,-0.097 -0.558,-0.097 -0.477,0 -0.744,0.21 -0.744,0.832 l 0,3.064 -0.59,0 0,0.405 0.59,0 0,1.164 0.486,0 0,-1.164 0.784,0 0,-0.405 -0.784,0 0,-2.869 c 0,-0.413 0.016,-0.591 0.42,-0.591 0.129,0 0.267,0.025 0.396,0.057 L 0,0 Z"
             style="fill:none;stroke:#ffffff;stroke-width:0.028;stroke-linecap:butt;stroke-linejoin:miter;stroke-miterlimit:4;stroke-dasharray:none;stroke-opacity:1"
             id="path5773"
             inkscape:connector-curvature="0" />
        </g>
        <g
           id="g5775"
           transform="translate(40.4725,52.356)">
          <path
             d="m 0,0 c 0.008,1.504 -0.696,2.32 -1.844,2.32 -1.196,0 -1.924,-1.002 -1.924,-2.223 0,-1.237 0.582,-2.191 1.924,-2.191 1.068,0 1.569,0.607 1.811,1.399 l -0.541,0 C -0.72,-1.31 -1.213,-1.657 -1.844,-1.657 -2.773,-1.657 -3.258,-0.905 -3.25,0 L 0,0 Z m -1.747,2.66 0.413,0 -0.897,1.123 -0.631,0 1.115,-1.123 z M -3.25,0.404 c 0.097,0.793 0.549,1.48 1.406,1.48 0.873,0 1.326,-0.663 1.326,-1.48 l -2.732,0 z"
             style="fill:#ffffff;fill-opacity:1;fill-rule:nonzero;stroke:none"
             id="path5777"
             inkscape:connector-curvature="0" />
        </g>
        <g
           id="g5779"
           transform="translate(40.4725,52.356)">
          <path
             d="m 0,0 c 0.008,1.504 -0.696,2.32 -1.844,2.32 -1.196,0 -1.924,-1.002 -1.924,-2.223 0,-1.237 0.582,-2.191 1.924,-2.191 1.068,0 1.569,0.607 1.811,1.399 l -0.541,0 C -0.72,-1.31 -1.213,-1.657 -1.844,-1.657 -2.773,-1.657 -3.258,-0.905 -3.25,0 L 0,0 Z m -1.747,2.66 0.413,0 -0.897,1.123 -0.631,0 1.115,-1.123 z M -3.25,0.404 c 0.097,0.793 0.549,1.48 1.406,1.48 0.873,0 1.326,-0.663 1.326,-1.48 l -2.732,0 z"
             style="fill:none;stroke:#ffffff;stroke-width:0.028;stroke-linecap:butt;stroke-linejoin:miter;stroke-miterlimit:4;stroke-dasharray:none;stroke-opacity:1"
             id="path5781"
             inkscape:connector-curvature="0" />
        </g>
        <g
           id="g5783"
           transform="translate(41.9276,50.3755)">
          <path
             d="m 0,0 -0.485,0 0,4.187 0.485,0 0,-0.784 0.016,0 c 0.267,0.671 0.663,0.898 1.366,0.898 l 0,-0.526 C 0.291,3.799 0,2.991 0,2.053 L 0,0 Z"
             style="fill:#ffffff;fill-opacity:1;fill-rule:nonzero;stroke:none"
             id="path5785"
             inkscape:connector-curvature="0" />
        </g>
        <g
           id="g5787"
           transform="translate(41.9276,50.3755)">
          <path
             d="m 0,0 -0.485,0 0,4.187 0.485,0 0,-0.784 0.016,0 c 0.267,0.671 0.663,0.898 1.366,0.898 l 0,-0.526 C 0.291,3.799 0,2.991 0,2.053 L 0,0 Z"
             style="fill:none;stroke:#ffffff;stroke-width:0.028;stroke-linecap:butt;stroke-linejoin:miter;stroke-miterlimit:4;stroke-dasharray:none;stroke-opacity:1"
             id="path5789"
             inkscape:connector-curvature="0" />
        </g>
        <g
           id="g5791"
           transform="translate(47.659,52.356)">
          <path
             d="m 0,0 c 0.008,1.504 -0.695,2.32 -1.843,2.32 -1.197,0 -1.924,-1.002 -1.924,-2.223 0,-1.237 0.582,-2.191 1.924,-2.191 1.067,0 1.568,0.607 1.811,1.399 l -0.542,0 c -0.145,-0.615 -0.638,-0.962 -1.269,-0.962 -0.93,0 -1.415,0.752 -1.407,1.657 L 0,0 Z m -3.25,0.404 c 0.097,0.793 0.55,1.48 1.407,1.48 0.873,0 1.325,-0.663 1.325,-1.48 l -2.732,0 z"
             style="fill:#ffffff;fill-opacity:1;fill-rule:nonzero;stroke:none"
             id="path5793"
             inkscape:connector-curvature="0" />
        </g>
        <g
           id="g5795"
           transform="translate(47.659,52.356)">
          <path
             d="m 0,0 c 0.008,1.504 -0.695,2.32 -1.843,2.32 -1.197,0 -1.924,-1.002 -1.924,-2.223 0,-1.237 0.582,-2.191 1.924,-2.191 1.067,0 1.568,0.607 1.811,1.399 l -0.542,0 c -0.145,-0.615 -0.638,-0.962 -1.269,-0.962 -0.93,0 -1.415,0.752 -1.407,1.657 L 0,0 Z m -3.25,0.404 c 0.097,0.793 0.55,1.48 1.407,1.48 0.873,0 1.325,-0.663 1.325,-1.48 l -2.732,0 z"
             style="fill:none;stroke:#ffffff;stroke-width:0.028;stroke-linecap:butt;stroke-linejoin:miter;stroke-miterlimit:4;stroke-dasharray:none;stroke-opacity:1"
             id="path5797"
             inkscape:connector-curvature="0" />
        </g>
      </g>
    </g>
  </g>
</svg>
