<?xml version="1.0" encoding="UTF-8" standalone="no"?>
<!-- Created with Inkscape (http://www.inkscape.org/) -->

<svg
   xmlns:dc="http://purl.org/dc/elements/1.1/"
   xmlns:cc="http://creativecommons.org/ns#"
   xmlns:rdf="http://www.w3.org/1999/02/22-rdf-syntax-ns#"
   xmlns:svg="http://www.w3.org/2000/svg"
   xmlns="http://www.w3.org/2000/svg"
   xmlns:sodipodi="http://sodipodi.sourceforge.net/DTD/sodipodi-0.dtd"
   xmlns:inkscape="http://www.inkscape.org/namespaces/inkscape"
   width="224.93118"
   height="102.41486"
   viewBox="0 0 224.93117 102.41486"
   id="svg4629"
   version="1.1"
   inkscape:version="0.91 r13725"
   sodipodi:docname="provence-alpes-cote-azur.svg">
  <defs
     id="defs4631">
    <clipPath
       id="clipPath5477"
       clipPathUnits="userSpaceOnUse">
      <path
         inkscape:connector-curvature="0"
         id="path5479"
         d="m 0,153.071 119.055,0 L 119.055,0 0,0 0,153.071 Z" />
    </clipPath>
    <clipPath
       id="clipPath5669"
       clipPathUnits="userSpaceOnUse">
      <path
         inkscape:connector-curvature="0"
         id="path5671"
         d="m 0,113.507 119.055,0 0,39.564 -119.055,0 0,-39.564 z" />
    </clipPath>
    <clipPath
       id="clipPath5711"
       clipPathUnits="userSpaceOnUse">
      <path
         inkscape:connector-curvature="0"
         id="path5713"
         d="m 0,153.071 119.055,0 L 119.055,0 0,0 0,153.071 Z" />
    </clipPath>
  </defs>
  <sodipodi:namedview
     id="base"
     pagecolor="#ffffff"
     bordercolor="#666666"
     borderopacity="1.0"
     inkscape:pageopacity="0.0"
     inkscape:pageshadow="2"
     inkscape:zoom="1.0076756"
     inkscape:cx="173.63171"
     inkscape:cy="-31.261315"
     inkscape:document-units="px"
     inkscape:current-layer="layer1"
     showgrid="false"
     units="px"
     borderlayer="true"
     inkscape:showpageshadow="false"
     inkscape:window-width="1920"
     inkscape:window-height="1031"
     inkscape:window-x="0"
     inkscape:window-y="27"
     inkscape:window-maximized="1"
     fit-margin-top="1"
     fit-margin-left="1"
     fit-margin-bottom="1"
     fit-margin-right="1" />
  <metadata
     id="metadata4634">
    <rdf:RDF>
      <cc:Work
         rdf:about="">
        <dc:format>image/svg+xml</dc:format>
        <dc:type
           rdf:resource="http://purl.org/dc/dcmitype/StillImage" />
        <dc:title></dc:title>
      </cc:Work>
    </rdf:RDF>
  </metadata>
  <g
     inkscape:label="Layer 1"
     inkscape:groupmode="layer"
     id="layer1"
     transform="translate(-42.013377,-1013.0593)">
    <path
       style="fill:#333399"
       d="m 89.087193,1114.0851 c -0.193076,-0.2138 -0.351041,-0.4301 -0.351041,-0.4807 0,-0.1365 -1.275291,-1.1851 -1.762254,-1.449 -0.541,-0.2933 -1.992739,-0.8851 -2.17109,-0.8851 -0.07527,0 -0.345789,-0.071 -0.601243,-0.1584 -0.255454,-0.087 -0.70473,-0.1909 -0.998357,-0.2306 -0.293637,-0.04 -0.948855,-0.1404 -1.456039,-0.2236 -1.224666,-0.2008 -4.090986,-0.3488 -8.008222,-0.4137 -4.422377,-0.073 -7.051563,-0.1991 -7.911149,-0.3786 -1.297427,-0.2711 -2.561108,-0.5557 -3.057678,-0.689 -0.266942,-0.071 -0.681911,-0.1792 -0.922161,-0.2392 -0.240245,-0.06 -0.567854,-0.1525 -0.728021,-0.2055 -0.160161,-0.053 -0.575136,-0.1824 -0.922156,-0.2878 -1.204631,-0.3659 -1.508976,-0.4656 -2.329664,-0.7633 -0.453796,-0.1647 -0.999816,-0.3577 -1.213368,-0.4289 -0.434256,-0.1449 -1.63021,-0.6643 -2.841155,-1.2338 -0.441503,-0.2077 -0.822369,-0.3775 -0.846439,-0.3775 -0.06555,0 -2.179082,-1.1554 -2.597641,-1.4201 -1.567441,-0.9911 -2.465206,-1.6567 -3.509735,-2.6023 -1.710358,-1.5482 -2.699528,-2.9745 -3.487082,-5.0281 l -0.307616,-0.8022 -0.02586,-40.2523 -0.02586,-40.2524 0.235747,-0.274 0.23572,-0.274 45.924584,-0.024 c 49.809897,-0.026 46.515947,-0.06 46.646917,0.4792 0.03,0.1237 0.0425,18.3306 0.0277,40.4602 l -0.0268,40.2351 -0.22578,0.6309 c -0.35917,1.0036 -1.04668,2.3212 -1.59552,3.0577 -0.83708,1.1233 -2.40292,2.6031 -3.77161,3.5643 -1.5054,1.0573 -3.79676,2.3363 -5.52152,3.0822 -0.40041,0.1732 -1.00909,0.4472 -1.35264,0.6092 -0.34353,0.1618 -0.82403,0.3512 -1.06775,0.4207 -0.24373,0.069 -0.74892,0.2428 -1.12264,0.3852 -0.37372,0.1423 -1.07262,0.3852 -1.55311,0.5397 -0.4805,0.1545 -1.13571,0.3682 -1.45604,0.475 -0.32033,0.1066 -0.68287,0.1939 -0.80564,0.1939 -0.12278,-10e-5 -0.34118,0.06 -0.48536,0.1352 -0.3911,0.2019 -3.76973,0.9245 -5.0185,1.0734 -0.26694,0.032 -2.64756,0.1017 -5.29029,0.1551 -5.33674,0.1081 -8.920732,0.293 -9.949597,0.5135 -0.373718,0.079 -0.919736,0.1895 -1.213372,0.2435 -1.149457,0.2111 -1.839132,0.4369 -2.900494,0.9499 -1.120433,0.5415 -1.422681,0.7898 -2.69693,2.2157 -0.16894,0.189 -0.371331,0.3436 -0.449797,0.3436 -0.07839,0 -0.300591,-0.1747 -0.493658,-0.3885 z m 0.918207,-1.7092 c 0.95889,-1.0328 2.898774,-2.0103 4.846125,-2.442 1.950338,-0.4323 2.483124,-0.5106 4.103534,-0.6036 0.919631,-0.053 1.868641,-0.1208 2.108891,-0.1511 0.24025,-0.03 2.68639,-0.098 5.43588,-0.1495 2.74949,-0.052 5.26115,-0.1315 5.58149,-0.1766 1.41142,-0.199 2.45792,-0.396 2.85147,-0.5369 0.23362,-0.084 0.53299,-0.152 0.66528,-0.152 0.1323,0 0.61821,-0.1126 1.07983,-0.2501 0.46161,-0.1375 1.14507,-0.3405 1.51878,-0.4511 5.83051,-1.7257 10.87953,-4.3093 13.64686,-6.9835 1.34912,-1.3037 2.20318,-2.5618 2.78956,-4.1093 l 0.25749,-0.6795 0.0268,-17.5806 c 0.0224,-14.7643 0.006,-17.5983 -0.10576,-17.6907 -0.0977,-0.08 -5.95774,-0.1164 -22.3032,-0.1345 l -22.170636,-0.024 -0.02457,-21.9641 -0.02457,-21.9641 -0.238499,-0.1086 c -0.190939,-0.087 -0.28775,-0.076 -0.485609,0.054 l -0.247111,0.1619 0,47.7936 c 0,26.2865 -0.02327,47.8582 -0.05365,47.9372 -0.0606,0.158 0.190618,0.4597 0.382911,0.4597 0.06694,0 0.227629,-0.1139 0.357083,-0.2534 z m 6.830209,-11.1475 c -0.176007,-0.2686 -0.116666,-0.5893 0.133735,-0.723 0.08982,-0.047 0.556435,-0.075 1.036922,-0.061 0.979787,0.028 1.283234,-0.046 1.606667,-0.3899 0.293533,-0.3125 0.570667,-0.2994 1.144827,0.053 0.48764,0.3001 0.73938,0.3521 0.97704,0.2016 0.10179,-0.065 0.0451,-0.1121 -0.22057,-0.1854 -0.19664,-0.054 -0.57013,-0.2768 -0.82992,-0.4943 -0.25982,-0.2175 -0.513,-0.3955 -0.56261,-0.3955 -0.0496,0 -0.261474,0.1524 -0.470723,0.3385 -0.473272,0.421 -1.075201,0.6323 -1.802191,0.6323 -0.672363,0 -1.013073,-0.2427 -1.108694,-0.7897 -0.05852,-0.3346 -0.03715,-0.3717 0.408115,-0.7115 0.258362,-0.1971 0.504735,-0.4205 0.547415,-0.4964 0.10531,-0.1872 0.64097,-0.1784 0.713941,0.011 0.03169,0.083 0.237717,0.2427 0.458035,0.3563 0.340138,0.1754 0.562939,0.2059 1.476332,0.2016 0.98425,-0.01 1.10946,-0.026 1.47216,-0.2553 0.21801,-0.1377 0.42448,-0.2957 0.4588,-0.3514 0.0874,-0.1414 0.60752,-0.1263 0.70136,0.021 0.0427,0.067 0.23051,0.2306 0.41737,0.3641 0.31744,0.2267 0.41675,0.2427 1.51405,0.2427 1.27478,0 1.58019,-0.096 1.39599,-0.4407 -0.15499,-0.2896 -0.10879,-0.7732 0.0991,-1.0374 0.10678,-0.1358 0.19414,-0.3524 0.19414,-0.4814 0,-0.1292 0.0842,-0.3962 0.18709,-0.5937 0.10289,-0.1974 0.32341,-0.6525 0.49004,-1.0114 0.16663,-0.3587 0.34453,-0.6781 0.39532,-0.7094 0.0508,-0.031 0.0924,-0.1325 0.0924,-0.2243 0,-0.2384 1.43402,-1.7542 2.08134,-2.2 0.49979,-0.3441 0.55796,-0.3625 0.70048,-0.22 0.10071,0.1008 0.13354,0.2352 0.0933,0.382 -0.0546,0.199 -0.6801,0.7894 -1.41821,1.3387 -0.23858,0.1775 -0.23935,0.1827 -0.0579,0.3833 0.10124,0.1119 0.27889,0.2035 0.39478,0.2035 0.26026,0 0.60466,-0.3568 0.64857,-0.672 0.0449,-0.322 0.27547,-0.3837 0.27547,-0.073 0,0.2841 0.47847,0.5195 0.66883,0.3291 0.2542,-0.2542 0.0417,-0.6513 -0.34851,-0.6513 -0.28916,0 -0.30323,-0.3408 -0.0233,-0.5674 0.27428,-0.2222 0.33248,-1.3964 0.0718,-1.4497 -0.0908,-0.018 -0.26249,0.079 -0.38151,0.2151 -0.11902,0.137 -0.26124,0.249 -0.31601,0.249 -0.0548,0 -0.34176,0.1695 -0.63773,0.3768 -0.29594,0.2073 -0.62407,0.3933 -0.72914,0.4132 -0.10561,0.02 -0.32267,0.2597 -0.48536,0.5355 -0.16184,0.2745 -0.51048,0.8202 -0.77474,1.2127 -0.73074,1.0852 -1.36155,2.4744 -1.72515,3.7989 -0.13968,0.5088 -0.34754,0.5918 -1.31212,0.5238 -0.68967,-0.048 -0.85874,-0.096 -1.12241,-0.3162 -0.17071,-0.1423 -0.3664,-0.3626 -0.43484,-0.4896 -0.15999,-0.2971 -0.26205,-0.2908 -0.58374,0.035 -0.63156,0.6397 -0.86893,0.734 -1.96426,0.7811 -0.991403,0.042 -1.031391,0.036 -1.324446,-0.2103 -0.166179,-0.1398 -0.349869,-0.2542 -0.408141,-0.2542 -0.05826,0 -0.216274,-0.1669 -0.351137,-0.3706 -0.264839,-0.4002 -0.264578,-0.5824 0.0035,-1.5223 0.07579,-0.267 0.230277,-0.813 0.343332,-1.2134 0.329969,-1.169 1.104935,-2.8901 1.593812,-3.5396 0.16218,-0.2155 0.37188,-0.5118 0.46601,-0.6587 0.2218,-0.3459 0.41606,-0.338 0.60347,0.024 0.25251,0.4883 0.55799,0.3461 0.68198,-0.3173 0.0682,-0.3655 0.0682,-0.3657 -0.19362,-0.2662 -0.14409,0.054 -0.3059,0.072 -0.35961,0.039 -0.15367,-0.095 0.007,-0.7313 0.27266,-1.0816 0.1954,-0.2574 0.30649,-0.3156 0.60423,-0.3156 0.20064,0 0.4435,-0.057 0.5397,-0.1278 0.16418,-0.1201 0.16486,-0.1379 0.0109,-0.2919 -0.22037,-0.2203 -0.52621,-0.3783 -0.86955,-0.4489 -0.38704,-0.08 -0.41335,-0.2439 -0.0874,-0.5461 0.41649,-0.3862 0.79137,-0.2873 2.01247,0.5306 0.97507,0.6531 1.35597,0.8 1.56703,0.6048 0.0507,-0.047 0.25059,-0.136 0.44415,-0.1978 0.19355,-0.061 0.71773,-0.3558 1.16483,-0.6533 0.65237,-0.4341 0.88618,-0.539 1.18396,-0.5307 0.30123,0.01 0.36501,-0.022 0.33897,-0.1564 -0.021,-0.1091 -0.17455,-0.1946 -0.4456,-0.2482 -0.27721,-0.054 -0.46611,-0.1622 -0.57321,-0.3255 -0.15056,-0.2299 -0.14764,-0.2687 0.0503,-0.6762 0.11552,-0.2377 0.20999,-0.5188 0.20999,-0.6248 0,-0.2704 0.82208,-1.8024 1.24722,-2.3243 l 0.35445,-0.4352 -0.011,-1.4198 c -0.0132,-1.7171 -0.0718,-2.0935 -0.33915,-2.1783 -0.10875,-0.034 -0.42393,-0.2445 -0.70039,-0.4666 -0.27645,-0.2221 -0.69922,-0.5307 -0.93946,-0.686 -0.24025,-0.1551 -0.55515,-0.3626 -0.69981,-0.461 -0.37207,-0.2531 -0.71906,-0.2288 -0.91077,0.063 -0.22346,0.3411 -0.51304,0.3069 -1.22479,-0.1446 -0.33583,-0.2131 -0.67899,-0.3878 -0.76258,-0.3883 -0.0836,-7e-4 -0.41121,-0.2403 -0.72802,-0.5327 -0.60839,-0.5615 -0.86492,-0.6551 -0.9615,-0.3507 -0.17198,0.5419 -0.65542,0.4452 -0.96117,-0.1919 -0.2474,-0.5156 -0.5987,-0.6417 -0.69696,-0.2501 -0.10623,0.4233 -0.0169,0.5839 0.37649,0.677 0.24944,0.059 0.39766,0.1602 0.45487,0.3106 0.12254,0.3223 0.45363,0.3982 0.7109,0.1631 0.31678,-0.2897 0.60002,-0.3447 0.79108,-0.1536 0.23132,0.2312 0.95235,0.7118 1.07139,0.7138 0.0546,8e-4 0.25733,0.1321 0.45056,0.2914 0.62895,0.5184 1.10627,0.6109 1.51073,0.2929 0.38174,-0.3003 0.74264,-0.2465 1.29994,0.194 0.27018,0.2136 0.52952,0.3882 0.57634,0.3882 0.0468,0 0.2341,0.1421 0.41617,0.3156 0.1821,0.1735 0.44432,0.4092 0.58272,0.5239 l 0.25161,0.2083 -0.19175,0.5683 c -0.10545,0.3125 -0.25612,0.8083 -0.33478,1.1019 -0.11488,0.4288 -0.21035,0.5772 -0.48479,0.7532 -0.31285,0.2008 -0.34175,0.2586 -0.34175,0.6843 0,0.7507 -0.28891,0.8907 -0.83991,0.4068 -0.58135,-0.5104 -0.7132,-0.3846 -0.7132,0.6806 0,0.8758 -0.12499,1.0117 -0.86806,0.9442 -0.53595,-0.048 -0.84673,-0.188 -1.8128,-0.8118 -0.37164,-0.2401 -0.51201,-0.3969 -0.55711,-0.6224 -0.0482,-0.2408 -0.1028,-0.2951 -0.27195,-0.2703 -0.11643,0.017 -0.28513,0.1623 -0.37488,0.3224 -0.0897,0.1602 -0.33347,0.4721 -0.54165,0.6931 -0.51531,0.5472 -1.41986,1.6522 -1.56411,1.9107 -0.0649,0.1162 -0.11946,0.2955 -0.12134,0.3984 -0.0035,0.1028 -0.145416,0.3054 -0.318939,0.4502 l -0.315472,0.2633 -0.03108,2.0915 c -0.03134,2.1143 -0.08256,2.4007 -0.394068,2.2082 -0.181129,-0.1119 -0.381349,-1.1464 -0.45228,-2.3368 -0.03343,-0.5606 -0.141756,-1.3031 -0.24079,-1.6502 -0.367606,-1.2879 -0.406101,-1.659 -0.352464,-3.3974 0.02882,-0.9343 0.04393,-1.8079 0.0336,-1.9414 -0.01034,-0.1335 -0.01068,-0.9195 0,-1.7465 0.0178,-1.4883 0.0204,-1.5059 0.26694,-1.7023 0.316288,-0.2523 0.33372,-0.5187 0.03039,-0.4667 -0.431765,0.073 -0.471788,-0.047 -0.477128,-1.4472 -0.006,-1.4065 0.1312,-2.0093 0.616653,-2.7225 0.475894,-0.6992 0.564232,-0.8401 0.564232,-0.9 0,-0.034 0.136218,-0.2348 0.302692,-0.445 0.425643,-0.5374 1.156774,-0.8936 1.850494,-0.9014 0.48296,-0.01 0.58879,0.029 0.85092,0.2803 0.16465,0.1576 0.34232,0.4525 0.39487,0.6552 0.0525,0.2028 0.14091,0.5435 0.19641,0.7572 0.0575,0.2214 0.19886,0.4528 0.3286,0.5378 0.21437,0.1404 0.27067,0.1261 0.95921,-0.2429 0.82474,-0.4422 0.9311,-0.4614 1.22702,-0.2218 0.1682,0.1363 0.22488,0.3212 0.28212,0.9204 0.0618,0.6467 0.11114,0.7914 0.35841,1.0505 0.2683,0.2812 0.31865,0.2967 0.7805,0.2394 0.33499,-0.041 0.63147,-0.013 0.92216,0.088 0.64972,0.2262 0.92397,0.196 1.16369,-0.1282 0.11395,-0.1542 0.30443,-0.3323 0.42328,-0.3959 0.11886,-0.063 0.29644,-0.2542 0.39464,-0.4237 0.0982,-0.1693 0.37861,-0.5072 0.62311,-0.751 0.32247,-0.3214 0.49125,-0.5959 0.61446,-0.9988 0.23171,-0.7578 0.21492,-1.0619 -0.0779,-1.4098 -0.34032,-0.4045 -1.21053,-0.8853 -1.60212,-0.8853 -0.2,0 -0.40961,-0.083 -0.55415,-0.2184 -0.16423,-0.1543 -0.35338,-0.2192 -0.64426,-0.2211 -0.55663,-0.01 -0.97293,-0.3413 -1.12134,-0.9096 -0.0841,-0.3223 -0.084,-0.4532 0,-0.5339 0.0826,-0.079 0.14149,-0.056 0.22345,0.085 0.0612,0.1056 0.25264,0.3387 0.42545,0.5181 l 0.31418,0.3261 0.75358,-0.069 c 1.27651,-0.1179 1.45408,-0.2854 0.66826,-0.6298 -0.3386,-0.1484 -0.4787,-0.1596 -0.91242,-0.072 -0.28179,0.056 -0.54388,0.071 -0.58242,0.033 -0.0385,-0.038 -0.0656,-0.27 -0.0603,-0.5145 0.009,-0.3966 0.0575,-0.4894 0.45542,-0.8654 0.40381,-0.3816 0.49156,-0.4212 0.93219,-0.4212 0.48324,0 0.98092,-0.1539 0.98092,-0.3034 0,-0.042 -0.0827,-0.1223 -0.18393,-0.1765 -0.24081,-0.1288 -0.39849,-0.5983 -0.39849,-1.1865 0,-0.452 0.0104,-0.4702 0.23565,-0.4137 0.19462,0.048 0.26349,0.01 0.39562,-0.2501 0.12926,-0.2501 0.20052,-0.2969 0.37104,-0.2441 0.11608,0.036 0.32026,0.078 0.45373,0.092 0.95128,0.1031 1.36445,0.2024 1.73889,0.4181 0.35796,0.2063 0.45946,0.2275 0.61697,0.1293 0.15746,-0.098 0.22386,-0.085 0.40289,0.084 0.11791,0.1108 0.26339,0.2015 0.32331,0.2015 0.0599,0 0.12261,0.1419 0.13933,0.3154 0.0281,0.2919 0.0542,0.3136 0.34979,0.2903 0.29979,-0.023 0.31248,-0.012 0.20698,0.1848 -0.0618,0.1156 -0.20917,0.4982 -0.32747,0.8503 -0.18783,0.5591 -0.25503,0.6535 -0.53034,0.7449 l -0.31525,0.1043 0.24182,0.2875 c 0.34877,0.4144 0.47312,1.1817 0.54094,3.3379 0.0553,1.7564 0.0763,1.9219 0.29051,2.2971 0.2502,0.4381 2.26187,2.3621 2.46969,2.3621 0.0698,0 0.39649,-0.1305 0.7258,-0.2899 0.58279,-0.2824 0.60762,-0.2859 0.93054,-0.132 0.18248,0.087 0.40101,0.1317 0.48565,0.099 0.28559,-0.1096 0.53373,-0.6708 0.6017,-1.3606 0.10848,-1.1008 0.52203,-1.3026 1.42439,-0.695 0.27748,0.1869 0.58361,0.3398 0.68029,0.3398 0.3294,0 0.62239,-0.4463 0.69095,-1.0524 0.054,-0.4776 0.1173,-0.6171 0.40666,-0.8971 0.32847,-0.3179 0.37161,-0.3312 1.0405,-0.321 0.56666,0.01 0.78279,0.059 1.14986,0.2702 0.50023,0.2872 0.7107,0.539 1.34762,1.612 0.65974,1.1115 0.75314,1.428 0.82808,2.8068 0.0781,1.4378 0.0193,1.65 -0.43849,1.5828 -0.25277,-0.037 -0.2964,-0.012 -0.2964,0.167 0,0.1159 0.14065,0.3391 0.31255,0.4962 l 0.31255,0.2854 -0.003,3.5191 c -0.003,3.4958 -0.004,3.5252 -0.25758,4.4411 -0.1442,0.5218 -0.29781,1.4281 -0.35372,2.0871 -0.0925,1.09 -0.29709,1.9704 -0.52549,2.261 -0.24454,0.3111 -0.3112,-0.1216 -0.34174,-2.2174 l -0.0311,-2.1311 -0.32059,-0.2445 c -0.21205,-0.1618 -0.33829,-0.3536 -0.37287,-0.5667 -0.0541,-0.3333 -0.76154,-1.3677 -0.99732,-1.4582 -0.0737,-0.029 -0.19862,-0.2064 -0.27779,-0.3959 -0.0829,-0.1984 -0.24695,-0.3838 -0.38671,-0.4369 -0.13349,-0.05 -0.30745,-0.2175 -0.38657,-0.3704 -0.31017,-0.5998 -0.65298,-0.6249 -0.83897,-0.061 -0.0772,0.2338 -0.18555,0.3501 -0.36872,0.3956 -0.14266,0.035 -0.37952,0.1447 -0.52633,0.2427 -0.14683,0.098 -0.38708,0.2584 -0.53389,0.3566 -0.14681,0.098 -0.51457,0.2038 -0.81723,0.2348 -0.802,0.082 -0.89451,-0.015 -0.95428,-1.0109 -0.057,-0.9475 -0.173,-1.0415 -0.70715,-0.5725 -0.18575,0.163 -0.40946,0.2965 -0.49717,0.2965 -0.19775,0 -0.34879,-0.378 -0.34879,-0.8729 0,-0.296 -0.0561,-0.4168 -0.26695,-0.574 -0.1468,-0.1095 -0.36064,-0.2925 -0.47517,-0.4068 -0.20723,-0.2066 -0.20856,-0.2066 -0.27065,-0.01 -0.0761,0.2395 -0.32796,0.3504 -0.49026,0.2157 -0.0671,-0.055 -0.14337,-0.4481 -0.17405,-0.8955 -0.0475,-0.693 -0.0296,-0.8315 0.13837,-1.0673 0.10613,-0.1492 0.2636,-0.271 0.34996,-0.271 0.0864,0 0.24718,-0.081 0.3574,-0.1812 0.11022,-0.099 0.58981,-0.4754 1.06574,-0.8351 0.77585,-0.5865 0.90006,-0.6485 1.20113,-0.5997 0.18469,0.029 0.41027,0.122 0.50128,0.2042 0.21858,0.1979 0.584,0.1899 0.88088,-0.019 0.28116,-0.198 0.70097,-0.4359 1.12383,-0.6367 0.16578,-0.079 0.46348,-0.3054 0.66159,-0.5035 0.31482,-0.3148 0.40097,-0.3524 0.68418,-0.2994 0.1782,0.034 0.34867,0.1252 0.37886,0.2039 0.0799,0.208 0.52117,0.1808 0.59015,-0.036 0.0562,-0.1773 0.432,-0.4031 0.67058,-0.4031 0.0675,0 0.24874,0.1314 0.40259,0.292 0.26957,0.2814 0.30198,0.2897 0.8918,0.2293 l 0.61205,-0.062 0.002,0.329 c 7.2e-4,0.1808 0.0446,0.3944 0.0971,0.4745 0.085,0.1294 0.10621,0.1294 0.19118,0 0.13919,-0.2121 0.12118,-0.3333 -0.0892,-0.6007 -0.10324,-0.1313 -0.20152,-0.4317 -0.2184,-0.6676 -0.0408,-0.5682 -0.28726,-0.631 -0.57332,-0.1462 -0.11628,0.1971 -0.28135,0.3467 -0.38251,0.3467 -0.21743,0 -0.53178,-0.4252 -0.62183,-0.8413 -0.13265,-0.6128 -0.45431,-0.4471 -0.74436,0.3836 -0.0858,0.2458 -0.20319,0.3861 -0.35476,0.4241 -0.27038,0.068 -0.33013,0.018 -0.46871,-0.3859 -0.14858,-0.4338 -0.38415,-0.4429 -0.63112,-0.024 -0.1125,0.1906 -0.26775,0.3467 -0.34498,0.3467 -0.0773,0 -0.24963,0.1091 -0.38311,0.2426 -0.13347,0.1335 -0.29973,0.2427 -0.36947,0.2427 -0.0698,0 -0.42608,0.1965 -0.79185,0.4368 -0.85765,0.5634 -0.91103,0.5634 -1.38243,0 -0.16784,-0.1997 -0.53203,-0.1054 -1.0777,0.279 -0.23485,0.1654 -0.60613,0.4267 -0.82509,0.5806 -0.21895,0.1539 -0.5303,0.3941 -0.6919,0.5338 -0.28467,0.2463 -0.78976,0.5272 -1.13797,0.6332 -0.11842,0.036 -0.16986,0.1519 -0.16986,0.3822 0,0.1818 -0.0643,0.5129 -0.14302,0.7359 -0.0787,0.2229 -0.16829,0.6544 -0.19919,0.9588 -0.0309,0.3042 -0.0782,0.628 -0.10504,0.7194 -0.0602,0.2045 0.049,0.4154 0.48522,0.9374 0.18564,0.2223 0.45893,0.6545 0.60729,0.9606 0.14838,0.3062 0.41335,0.7585 0.58881,1.0051 0.40129,0.564 0.41524,0.7754 0.0493,0.7475 -0.14836,-0.011 -0.32308,0.012 -0.38828,0.053 -0.12882,0.079 -0.16403,0.3523 -0.0458,0.3543 0.04,8e-4 0.26936,0.1846 0.5096,0.4089 0.61972,0.5783 2.1776,1.6021 2.54967,1.6757 0.17264,0.034 0.42952,0.1062 0.57086,0.1606 0.29228,0.1121 0.5763,-0.01 1.33587,-0.5506 0.60857,-0.4372 1.53741,-0.9193 1.77137,-0.9193 0.25427,0 0.77472,0.5803 0.74012,0.8251 -0.0236,0.1671 -0.0901,0.1903 -0.4768,0.1663 -0.44156,-0.028 -1.15227,0.263 -1.15227,0.4709 0,0.1413 0.35717,0.285 0.7084,0.285 0.37787,0 0.74742,0.3073 0.946,0.7867 0.11361,0.2743 0.10312,0.3148 -0.14044,0.5406 -0.37594,0.3486 -0.31351,0.6896 0.17351,0.948 0.39687,0.2106 0.93158,1.0513 1.32879,2.0894 0.10287,0.2688 0.27959,0.718 0.39269,0.9984 0.11312,0.2803 0.28429,0.7935 0.38038,1.1406 0.0961,0.347 0.22193,0.7835 0.27967,0.97 0.2509,0.8105 0.0565,1.5105 -0.49692,1.7889 -0.11432,0.057 -0.22587,0.1592 -0.24789,0.226 -0.058,0.1757 0.35874,0.152 0.42641,-0.024 0.0979,-0.2551 0.49626,-0.1578 1.05033,0.2566 0.52379,0.3917 0.53788,0.4146 0.53788,0.8751 0,0.4292 -0.0291,0.4905 -0.31547,0.6651 -0.36516,0.2226 -0.70609,0.2383 -1.74479,0.08 -0.66419,-0.1011 -0.794,-0.1567 -1.1368,-0.486 -0.21285,-0.2045 -0.44328,-0.3719 -0.51209,-0.3719 -0.14994,0 -0.70258,0.6682 -0.6205,0.7503 0.0316,0.031 0.13756,-0.015 0.23552,-0.1037 0.098,-0.089 0.25917,-0.1612 0.35823,-0.1612 0.22989,0 0.96609,0.3544 1.11906,0.5387 0.0895,0.1078 0.37488,0.1408 1.22122,0.1408 0.97499,0 1.12716,0.023 1.29855,0.1941 0.23364,0.2336 0.24274,0.3728 0.0431,0.6579 l -0.15112,0.2158 -14.94093,0 -14.940943,0 -0.1559,-0.238 z m 12.035141,-1.1602 c 0.56713,-0.3906 0.69363,-0.4168 0.93885,-0.195 0.0936,0.085 0.24757,0.1392 0.34202,0.1211 0.13903,-0.027 0.0988,-0.1023 -0.21117,-0.396 -0.43216,-0.4095 -0.55985,-0.4415 -0.74145,-0.1861 -0.32983,0.464 -1.86185,0.8796 -2.53286,0.6872 -0.17084,-0.049 -0.42315,-0.089 -0.56067,-0.089 -0.14,0 -0.47754,-0.1697 -0.76691,-0.3856 l -0.51683,-0.3856 -0.44714,0.3684 c -0.31049,0.2558 -0.61764,0.4054 -1.00524,0.4897 -0.30701,0.067 -0.55815,0.1617 -0.55815,0.2113 0,0.049 0.23895,0.09 0.53103,0.09 0.43875,0 0.60617,-0.053 0.96332,-0.3047 l 0.43228,-0.3047 0.41187,0.1648 c 0.2265,0.091 0.52402,0.253 0.66114,0.3608 0.22714,0.1788 0.3518,0.192 1.40119,0.1494 1.13104,-0.046 1.16108,-0.054 1.65872,-0.396 z m 2.91051,0.2342 c -0.12097,-0.121 -0.88808,-0.2595 -1.18591,-0.2142 -0.1816,0.028 -0.20235,0.061 -0.10945,0.1723 0.0779,0.094 0.31938,0.1381 0.75308,0.1381 0.42187,0 0.60584,-0.033 0.54228,-0.096 z m 1.31929,-0.049 c 0.10354,-0.1247 0.0717,-0.1455 -0.22286,-0.1455 -0.39629,0 -0.65077,0.079 -0.65077,0.2044 0,0.1475 0.74402,0.097 0.87363,-0.059 z m 2.46678,0.087 c 0.23131,-0.089 0.083,-0.2324 -0.23992,-0.2324 -0.31067,0 -0.3894,0.1526 -0.11561,0.2241 0.0934,0.024 0.17721,0.049 0.1862,0.055 0.009,0.01 0.0851,-0.015 0.16933,-0.047 z m 2.05266,-0.089 c 0.17783,-0.139 0.16974,-0.1458 -0.14386,-0.1213 -0.18273,0.014 -0.35018,0.08 -0.37209,0.1473 -0.0557,0.1697 0.2878,0.1524 0.51595,-0.026 z m 2.95489,0.047 c 0,-0.1184 -0.41139,-0.2875 -0.71007,-0.292 -0.11665,0 -0.38564,-0.1765 -0.59776,-0.3882 -0.42484,-0.4243 -0.67129,-0.4832 -0.82428,-0.1974 -0.14717,0.275 -0.13163,0.2969 0.21499,0.304 0.19967,0.01 0.47583,0.1264 0.7523,0.3333 0.4322,0.3234 1.16482,0.4746 1.16482,0.2403 z m 1.93422,-0.037 c 0.14641,-0.1765 0.0274,-0.2469 -0.30887,-0.1826 -0.28091,0.054 -0.34872,0.173 -0.14504,0.2553 0.21526,0.087 0.33778,0.067 0.45391,-0.073 z m -8.70893,-0.4152 c 0.15746,-0.1425 0.22575,-0.1476 0.52452,-0.04 0.18893,0.068 0.36141,0.1063 0.38332,0.085 0.0218,-0.022 -0.10909,-0.1842 -0.29108,-0.3605 l -0.33088,-0.3207 -0.34715,0.3371 c -0.19094,0.1855 -0.34715,0.3655 -0.34715,0.4002 0,0.119 0.22757,0.062 0.40842,-0.1008 z m -2.98957,-1.1879 c 0.27361,-0.227 0.0594,-0.3067 -0.65419,-0.2433 -1.13509,0.1008 -2.51125,-0.2403 -2.64292,-0.6551 -0.0881,-0.2776 -0.38467,-0.2074 -0.6624,0.1566 -0.13981,0.1834 -0.25419,0.3581 -0.25419,0.3883 0,0.1131 0.27189,0.049 0.38827,-0.091 0.19324,-0.2329 0.43051,-0.1726 0.98523,0.2503 l 0.51936,0.3959 1.08429,-0.037 c 0.69692,-0.024 1.13866,-0.084 1.23655,-0.1644 z m 4.84187,-0.018 c 0.22479,-0.1128 0.49604,-0.2832 0.60283,-0.3786 0.10678,-0.095 0.2815,-0.1893 0.38827,-0.2085 0.2817,-0.05 0.30662,-0.4287 0.0377,-0.5726 -0.19111,-0.1022 -0.24631,-0.081 -0.46697,0.174 -0.13765,0.1594 -0.42016,0.3907 -0.62781,0.5139 -0.33424,0.1984 -0.49309,0.2226 -1.38427,0.2113 -0.90424,-0.011 -1.05192,-0.039 -1.45098,-0.2732 -0.24436,-0.1432 -0.46697,-0.3195 -0.49471,-0.3917 -0.044,-0.1148 -0.515,-0.1979 -0.515,-0.091 0,0.022 -0.0265,0.1098 -0.059,0.1942 -0.0409,0.1066 -0.003,0.1536 0.12401,0.1536 0.1006,0 0.29092,0.076 0.42292,0.1682 0.55641,0.3902 0.95554,0.5469 1.55044,0.609 1.15756,0.1207 1.44889,0.1038 1.87245,-0.1087 z m 4.84274,-0.1465 c 0.24981,-0.125 0.48172,-0.2716 0.51534,-0.3261 0.0787,-0.1271 0.50517,-0.1287 0.58345,0 0.0329,0.054 0.29088,0.2061 0.57322,0.3398 0.4359,0.2062 0.65302,0.2428 1.43855,0.2428 0.65556,0 0.95668,-0.037 1.0333,-0.1302 0.1751,-0.211 0.0109,-0.2675 -0.58287,-0.2003 -0.30683,0.034 -0.80028,0.033 -1.09654,-0.01 -0.49192,-0.061 -0.58829,-0.1169 -1.11016,-0.6388 l -0.57146,-0.5715 -0.34423,0.36 c -0.69897,0.7309 -0.75904,0.7645 -1.49562,0.8364 -0.43076,0.042 -0.77174,0.029 -0.8868,-0.031 -0.25664,-0.1373 -0.55248,-0.6644 -0.6255,-1.1143 -0.0333,-0.2055 -0.12434,-0.4448 -0.20219,-0.5317 -0.0779,-0.087 -0.1734,-0.3325 -0.21236,-0.546 -0.0389,-0.2136 -0.15184,-0.4925 -0.25089,-0.6198 -0.099,-0.1274 -0.18007,-0.2892 -0.18007,-0.3597 0,-0.1652 -0.45777,-0.8414 -0.63812,-0.9425 -0.0762,-0.042 -0.13843,-0.1446 -0.13843,-0.2263 0,-0.082 -0.15035,-0.3322 -0.3341,-0.5566 -0.18376,-0.2242 -0.37878,-0.5251 -0.43337,-0.6688 -0.0549,-0.1443 -0.24178,-0.327 -0.41818,-0.4087 -0.17541,-0.082 -0.55917,-0.3228 -0.8528,-0.5365 -0.29364,-0.2138 -0.59941,-0.39 -0.67949,-0.3915 -0.17032,0 -0.81536,-0.5809 -0.96878,-0.8675 -0.0582,-0.1088 -0.1698,-0.1978 -0.24801,-0.1978 -0.20162,0 -0.20134,1.3408 0,1.6073 0.10072,0.1332 0.14342,0.148 0.14562,0.05 0.004,-0.1985 0.29624,-0.4931 0.48842,-0.4931 0.0902,0 0.24311,0.087 0.33974,0.1942 0.0966,0.1067 0.24937,0.1941 0.33942,0.1941 0.39105,0 2.52414,2.1079 2.52414,2.4943 0,0.091 0.673,1.0819 0.77889,1.1472 0.0521,0.032 0.0947,0.1871 0.0947,0.3441 0,0.1571 0.0874,0.3729 0.19413,0.4796 0.10678,0.1068 0.19442,0.3143 0.19475,0.4611 0,0.1469 0.0658,0.3921 0.1456,0.5449 0.19909,0.3818 0.18794,0.4267 -0.15783,0.637 l -0.30283,0.1843 0.38935,0.2458 c 0.64339,0.4061 2.14139,0.4071 2.95165,0 z m -8.77077,-2.8406 c 0.0254,-0.2655 -0.0264,-0.3815 -0.26857,-0.6028 -0.16497,-0.1507 -0.32654,-0.4068 -0.35901,-0.5692 -0.067,-0.3347 -0.27014,-0.3867 -0.41963,-0.1074 -0.16101,0.3008 -0.11783,0.5386 0.14219,0.783 0.13347,0.1253 0.24267,0.2887 0.24267,0.363 0,0.2797 0.20661,0.5224 0.41911,0.4922 0.16228,-0.022 0.21919,-0.1071 0.24324,-0.3588 z m 1.02843,-0.4583 c 0.22292,-0.086 0.18885,-0.3079 -0.0998,-0.6509 l -0.2533,-0.301 0.26532,-0.2116 0.26532,-0.2115 -0.17856,-0.3023 c -0.0982,-0.1663 -0.25789,-0.3023 -0.35487,-0.3023 -0.25361,0 -0.3698,0.3801 -0.21115,0.6908 0.11799,0.2312 0.10816,0.2743 -0.10876,0.478 -0.14161,0.1331 -0.23846,0.333 -0.23846,0.4922 0,0.2298 0.0452,0.2737 0.31549,0.3072 0.1735,0.022 0.34466,0.046 0.38032,0.054 0.0357,0.01 0.13396,-0.01 0.21842,-0.043 z m 1.02716,-1.0183 c 0,-0.1183 -0.45049,-0.2177 -0.59161,-0.1304 -0.0864,0.054 -0.0739,0.1041 0.0475,0.193 0.17191,0.1257 0.54406,0.083 0.54406,-0.062 z m 0.8702,-0.08 c 0.0554,-0.1033 0.10048,-0.2094 0.10048,-0.2358 0,-0.1051 -0.31348,-0.353 -0.44614,-0.353 -0.16088,0 -0.36327,0.4536 -0.28887,0.6476 0.0756,0.1971 0.5196,0.1558 0.63453,-0.059 z m -0.77312,-0.7326 c 0,-0.079 -0.10931,-0.1712 -0.2429,-0.2047 -0.1336,-0.034 -0.37752,-0.231 -0.54204,-0.4388 -0.33358,-0.4211 -0.47697,-0.4751 -0.47697,-0.1796 0,0.1089 0.18564,0.3705 0.41254,0.5812 0.41706,0.3875 0.84937,0.5105 0.84937,0.2419 z m 8.18337,-0.5731 c 0.1973,-0.1808 0.35872,-0.3719 0.35872,-0.4246 0,-0.053 -0.1365,-0.1235 -0.30334,-0.1569 -0.32887,-0.065 -0.31995,0.01 -0.11188,-0.91 0.0355,-0.1563 0.005,-0.2184 -0.10613,-0.2184 -0.0856,0 -0.26327,-0.1638 -0.39476,-0.364 -0.13146,-0.2001 -0.31767,-0.4578 -0.41375,-0.5724 -0.2314,-0.276 -0.92561,-0.6168 -1.2565,-0.6168 -0.35446,0 -1.08004,0.3505 -1.45662,0.7035 l -0.30581,0.2867 -0.2038,-0.2038 c -0.35586,-0.356 -0.21252,-0.796 0.33358,-1.0242 0.18492,-0.078 0.33624,-0.1995 0.33624,-0.2716 0,-0.1756 -0.19761,-0.3638 -0.38343,-0.3654 -0.40004,0 -1.58862,-0.7496 -2.50222,-1.5711 -0.30818,-0.2771 -0.494,-0.3691 -0.74619,-0.3691 -0.32715,0 -0.33443,0.01 -0.28267,0.3275 0.0663,0.4086 -0.0693,0.5022 -0.44593,0.3075 -0.38224,-0.1976 -0.42903,-0.1894 -0.36281,0.064 0.0714,0.2727 -0.0895,0.4661 -0.38783,0.4661 -0.3426,0 -0.36406,0.1971 -0.0825,0.7575 0.21735,0.4328 0.30468,0.5134 0.65861,0.6088 0.38808,0.1045 1.06562,0.078 1.64721,-0.061 0.37141,-0.09 0.35514,0.1575 -0.0317,0.483 -0.26362,0.2219 -0.38466,0.2513 -1.03204,0.2513 -0.57225,0 -0.80483,-0.044 -1.05854,-0.2009 -0.17884,-0.1105 -0.36964,-0.1736 -0.42401,-0.14 -0.41491,0.2566 0.55504,1.3331 1.5028,1.6682 0.73841,0.261 1.60165,0.3762 1.60165,0.2138 0,-0.063 0.17614,-0.3491 0.39143,-0.6343 0.31871,-0.4222 0.44492,-0.5186 0.67947,-0.5186 0.19927,0 0.28807,0.048 0.28807,0.1553 0,0.085 0.0705,0.3038 0.15666,0.4854 0.19809,0.4174 0.47663,0.4397 0.55566,0.045 0.04,-0.1998 0.21706,-0.4037 0.59041,-0.6794 0.87242,-0.6445 1.42908,-0.5085 2.36292,0.5773 0.37607,0.4372 0.44744,1.0683 0.17761,1.5707 -0.36262,0.6752 0.0484,0.8851 0.6515,0.3327 z m -18.80195,0 c 0.087,-0.2267 -0.13768,-0.5264 -0.41921,-0.5593 -0.22116,-0.025 -0.27562,-0.093 -0.34114,-0.419 -0.1248,-0.6217 -0.19326,-0.719 -0.27315,-0.3883 -0.13046,0.5401 -0.0945,0.6783 0.28373,1.092 0.38537,0.4217 0.65539,0.5205 0.74977,0.2746 z m 5.30631,-0.8308 c 0.0741,-0.1057 0.30584,-0.2623 0.51512,-0.3481 0.42235,-0.173 1.2426,-0.9183 1.45518,-1.3221 0.14436,-0.2742 0.0978,-0.5652 -0.0901,-0.5629 -0.061,8e-4 -0.30752,0.07 -0.54776,0.1551 -0.7375,0.2591 -1.7862,0.023 -2.04457,-0.4591 -0.15068,-0.2815 0.003,-0.4104 0.33638,-0.2834 0.33791,0.1285 1.16699,0.1286 1.62924,0 0.40126,-0.1114 0.69749,-0.5088 0.79355,-1.0643 0.0877,-0.507 -0.0426,-0.6538 -0.44925,-0.5068 -0.44773,0.1619 -0.53335,0.1503 -0.60697,-0.082 -0.0578,-0.1819 -0.11262,-0.194 -0.60175,-0.1329 -0.44219,0.055 -0.60095,0.1299 -0.88965,0.4185 -0.33377,0.3336 -1.0434,0.738 -1.73427,0.9885 -0.50167,0.1818 -0.41672,0.4367 0.24267,0.7283 0.92264,0.4079 1.33551,0.9808 1.14324,1.5867 -0.0947,0.2984 -0.17938,0.2539 -0.52123,-0.2737 -0.19187,-0.2961 -0.4183,-0.5145 -0.59875,-0.5774 -0.40002,-0.1394 -0.36883,0.01 0.0981,0.4599 0.21355,0.2072 0.38828,0.4247 0.38828,0.4831 0,0.058 -0.1092,0.1777 -0.24268,0.2651 -0.49938,0.3272 -0.1311,0.6636 0.55722,0.5089 0.2735,-0.061 0.44163,-0.046 0.63538,0.059 0.34498,0.1872 0.37408,0.1851 0.53267,-0.041 z m 14.10002,-0.2837 c -0.0917,-0.2887 -0.24566,-0.1563 -0.24566,0.2113 0,0.281 0.0129,0.2934 0.15558,0.1507 0.0998,-0.1 0.13211,-0.2295 0.0901,-0.362 z m -19.36832,-0.155 c 0,-0.4848 -0.14657,-0.5745 -0.29608,-0.1814 -0.11597,0.3052 -0.0365,0.6182 0.15702,0.6182 0.10011,0 0.13906,-0.1224 0.13906,-0.4368 z m 19.02559,-0.9221 c 0,-0.094 -0.0678,-0.2267 -0.15052,-0.2953 -0.0974,-0.08 -0.14021,-0.2479 -0.12133,-0.473 0.0243,-0.2904 0.0654,-0.3467 0.24758,-0.3403 0.24416,0.01 0.29274,-0.1041 0.08,-0.1857 -0.20606,-0.079 -0.80485,0.1119 -0.86815,0.2769 -0.0762,0.1985 0.0238,0.4217 0.24138,0.5381 0.10049,0.054 0.18273,0.2018 0.18273,0.3291 0,0.3912 0.0994,0.5602 0.25399,0.4319 0.0739,-0.061 0.13428,-0.188 0.13428,-0.2817 z m -18.63731,-0.01 c 0,-0.05 -0.0437,-0.091 -0.0971,-0.091 -0.0534,0 -0.0971,0.069 -0.0971,0.1513 0,0.084 0.0437,0.1244 0.0971,0.091 0.0534,-0.033 0.0971,-0.1011 0.0971,-0.1514 z m -0.55814,-0.5107 c 0.45953,-0.4973 0.33291,-0.6992 -0.37204,-0.5936 -0.51628,0.077 -0.63632,0.2646 -0.34421,0.5369 0.11367,0.1058 0.20918,0.3109 0.21233,0.4556 0.005,0.2439 0.0142,0.2496 0.12133,0.076 0.0636,-0.1027 0.23575,-0.3167 0.38259,-0.4755 z m 1.09759,0.088 c 0.10354,-0.076 0.16651,-0.158 0.13988,-0.1828 -0.0787,-0.073 -0.48519,0.1112 -0.48519,0.2202 0,0.1387 0.12277,0.1253 0.34531,-0.037 z m 0.66599,-0.3096 c 0.2455,-0.094 0.18185,-0.3293 -0.0891,-0.3293 -0.13347,0 -0.24267,0.018 -0.24267,0.041 0,0.021 -0.0265,0.1097 -0.0589,0.1941 -0.0621,0.1618 0.1081,0.203 0.39073,0.095 z m -6.030588,-12.6705 c 0.08927,-0.6655 0.441245,-0.8988 0.983469,-0.6519 0.280819,0.128 0.541329,-0.016 0.541329,-0.3005 0,-0.1283 -0.0648,-0.1558 -0.28845,-0.1231 -0.238441,0.034 -0.308851,0 -0.406018,-0.2157 -0.0894,-0.1962 -0.176597,-0.2511 -0.363881,-0.229 -0.204883,0.024 -0.271984,0.1147 -0.399216,0.5382 -0.08413,0.28 -0.205525,0.5619 -0.269849,0.6261 -0.06424,0.064 -0.11691,0.2816 -0.11691,0.4827 0,0.4997 0.248726,0.401 0.319526,-0.1268 z m 11.789908,-9.281 c 0.053,-0.1594 -0.25107,-0.2732 -0.38153,-0.1427 -0.0559,0.055 -0.0706,0.1514 -0.0329,0.2125 0.0857,0.1387 0.36044,0.092 0.41448,-0.07 z m 2.408,-0.469 c -0.22069,-0.1614 -0.48252,-0.1841 -0.38965,-0.033 0.0765,0.1236 0.46066,0.2809 0.52954,0.2165 0.0267,-0.025 -0.0364,-0.1071 -0.13989,-0.1828 z m -0.53945,-0.3161 c 0,-0.1027 -0.43975,-0.3069 -0.6607,-0.3069 -0.0914,0 -0.22079,-0.087 -0.28746,-0.1942 -0.0977,-0.1565 -0.21996,-0.1922 -0.63005,-0.1843 -0.56947,0.01 -1.0425,0.1156 -0.89608,0.1985 0.0528,0.029 0.44555,0.1126 0.87265,0.1835 0.4271,0.07 0.83427,0.1865 0.90481,0.2569 0.14058,0.1402 0.69683,0.1772 0.69683,0.046 z m -27.975369,42.6753 c 0.09027,-0.09 0.116484,-10.6155 0.116484,-46.7804 0,-42.2923 -0.01424,-46.6782 -0.152531,-46.8166 -0.129681,-0.1296 -0.481399,-0.1525 -2.346289,-0.1525 -1.905079,0 -2.21713,0.022 -2.371276,0.1608 -0.171492,0.155 -0.177509,1.728 -0.177509,46.426 0,40.2783 0.01806,46.2913 0.14088,46.4664 0.121824,0.1739 0.282733,0.2104 1.189098,0.2688 0.576525,0.037 1.332147,0.1283 1.679169,0.2024 0.680386,0.1452 1.538906,0.3117 1.703574,0.3302 0.05608,0.01 0.154336,-0.041 0.2184,-0.1051 z m -10.273362,-0.9448 c 0.0689,-0.1287 0.100498,-14.7051 0.100498,-46.3187 0,-42.7891 -0.01161,-46.1437 -0.160645,-46.3084 -0.146835,-0.1623 -0.35408,-0.1776 -2.407325,-0.1776 -1.617983,0 -2.279252,0.033 -2.363147,0.1165 -0.09027,0.09 -0.116488,10.5299 -0.116488,46.3944 0,43.9716 0.0085,46.2826 0.169872,46.3767 0.101695,0.059 1.074071,0.1001 2.423308,0.1018 2.130214,0 2.258965,-0.01 2.353927,-0.1847 z m -10.339559,-0.7747 c 0.03007,-0.049 0.05523,-20.721 0.05558,-45.938 0,-43.0938 -0.0094,-45.8566 -0.164792,-45.9706 -0.211093,-0.1548 -4.411988,-0.1734 -4.697016,-0.021 -0.185241,0.099 -0.187764,0.7121 -0.187764,45.3194 0,36.208 0.02423,45.2392 0.12211,45.3204 0.225366,0.1871 0.964381,0.4302 2.702314,0.8893 0.405584,0.1072 0.886079,0.2592 1.067759,0.3382 0.371003,0.1609 1.018127,0.1974 1.101775,0.061 z m -10.332383,-3.7211 c 1.93e-4,-0.066 0,-19.9042 0,-44.0833 3.6e-5,-32.4642 -0.0285,-43.9964 -0.109334,-44.0938 -0.08619,-0.1038 -0.571316,-0.1318 -2.287951,-0.1318 -1.316104,0 -2.25288,0.04 -2.36629,0.1006 -0.185214,0.099 -0.187764,0.6829 -0.187764,42.7407 l 0,42.6405 0.266935,0.2493 c 0.300661,0.2807 2.769779,1.9205 2.900396,1.9262 0.04645,0 0.368411,0.1751 0.715437,0.3846 0.635218,0.3835 1.067438,0.4915 1.068115,0.267 z m 60.315083,-45.7995 c 0.14067,-0.1106 0.25577,-0.2635 0.25577,-0.3398 0,-0.1578 -0.24907,-0.1882 -0.33974,-0.041 -0.033,0.053 -0.22823,0.097 -0.43382,0.097 -0.28853,0 -0.48105,-0.086 -0.84364,-0.376 -1.0218,-0.8177 -1.40132,-1.4991 -1.58622,-2.8478 -0.22458,-1.6382 0.14261,-2.8203 1.62171,-5.2213 1.07246,-1.7408 1.33964,-2.1569 1.65451,-2.5768 0.40447,-0.5393 0.40696,-0.7697 0.01,-0.9081 -0.46104,-0.1608 -0.60672,-0.1353 -1.26926,0.2213 -0.55398,0.2981 -1.02904,0.4968 -2.45343,1.0259 -0.26694,0.099 -0.88427,0.2314 -1.37185,0.2939 -1.9827,0.2539 -3.8421,-0.3666 -5.78543,-1.931 -0.61141,-0.4921 -2.17367,-2.0784 -3.05454,-3.1014 -0.2583,-0.3 -0.337412,-0.3311 -0.95613,-0.3753 -0.584809,-0.041 -0.706762,-0.022 -0.917175,0.1553 -0.20628,0.1728 -0.22083,0.218 -0.09707,0.3009 0.08004,0.053 0.349678,0.098 0.599142,0.099 0.794126,0 1.538263,0.7576 1.955943,1.9844 0.2432,0.7144 0.21491,1.0702 -0.10409,1.3093 -0.44215,0.3316 -0.50961,0.3994 -0.50961,0.5123 0,0.1828 0.80163,0.8674 1.23757,1.0569 0.29444,0.1279 0.49444,0.3122 0.69889,0.6438 0.70822,1.1487 0.80992,1.2381 1.72735,1.518 0.75268,0.2298 1.00839,0.2593 2.23558,0.2583 1.13461,-8e-4 1.48574,-0.036 1.93802,-0.1955 0.30378,-0.1067 0.65976,-0.194 0.79105,-0.194 l 0.23868,0 -0.23533,0.257 c -0.23723,0.2592 -2.29418,1.296 -2.5711,1.296 -0.082,0 -0.27273,0.064 -0.42377,0.1421 -0.15103,0.079 -0.57989,0.1592 -0.95299,0.1804 -0.72405,0.041 -0.89825,0.1 -0.89825,0.3012 0,0.1057 1.24075,0.6402 1.48238,0.6387 0.11364,0 0.87003,0.4998 1.08941,0.7209 0.34437,0.347 0.6315,0.8346 0.6315,1.0724 0,0.7161 0.41636,0.9468 0.7919,0.4388 0.26758,-0.362 0.37151,-0.3623 0.99207,-0.01 0.55349,0.3193 0.98742,0.81 1.08862,1.2312 0.0962,0.4002 0.7518,1.4959 1.07447,1.7956 0.7676,0.713 2.13417,0.9987 2.68909,0.5622 z m 6.45225,-4.3014 c 0.0191,-0.099 -0.0496,-0.2954 -0.15298,-0.4357 -0.10328,-0.1403 -0.21863,-0.4494 -0.25635,-0.687 -0.0376,-0.2376 -0.11308,-0.4856 -0.16747,-0.5512 -0.14729,-0.1774 -0.37014,-2.0294 -0.4365,-3.6275 -0.0481,-1.1586 -0.0216,-1.6544 0.14975,-2.8038 0.11449,-0.7678 0.27187,-1.5484 0.34971,-1.7347 0.18501,-0.4429 0.18358,-0.9576 -0.003,-1.0292 -0.0987,-0.037 -0.27384,0.1353 -0.55387,0.5477 -0.67582,0.9952 -3.21753,3.4883 -4.66484,4.5754 -0.56067,0.4212 -0.46183,0.7357 0.23117,0.7357 0.59815,0 1.33436,0.5848 1.34415,1.0679 0.008,0.3623 0.22596,0.7279 0.43523,0.7279 0.11681,0 0.25985,-0.1428 0.38894,-0.3883 0.17486,-0.3326 0.24729,-0.3864 0.50493,-0.3752 0.40017,0.017 0.87954,0.3835 1.12185,0.8569 0.27131,0.5299 0.75365,1.7254 0.75407,1.8689 7.1e-4,0.1927 0.29809,1.0293 0.45213,1.2712 0.16423,0.2579 0.4517,0.247 0.50294,-0.019 z m -5.28801,-6.7471 c 2.9238,-2.5861 4.16175,-4.0281 5.1555,-6.0052 0.46698,-0.9291 0.5508,-1.1392 1.05506,-2.6444 0.49702,-1.4835 0.61714,-1.9615 0.80152,-3.1888 0.36669,-2.4408 -0.2837,-5.0284 -1.82621,-7.2656 -0.49916,-0.7239 -0.92,-1.1136 -1.33795,-1.2385 -0.13347,-0.04 -0.34449,-0.137 -0.46892,-0.2156 -0.27761,-0.1752 -0.50177,-0.1037 -0.50177,0.1601 0,0.1235 -0.0635,0.1968 -0.16987,0.1963 -0.25637,0 -1.16747,-0.5539 -1.28955,-0.782 -0.091,-0.17 -0.18355,-0.1957 -0.61008,-0.1699 -0.48652,0.029 -0.50185,0.023 -0.47237,-0.2121 0.11333,-0.9024 0.0719,-1.1558 -0.24018,-1.4678 -0.36926,-0.3693 -0.61538,-0.3262 -0.61538,0.1077 0,0.5931 -0.84213,1.6031 -1.42032,1.7035 -0.2065,0.035 -0.56262,0.126 -0.79139,0.2005 -0.4846,0.158 -0.8589,0.1747 -0.94084,0.042 -0.0592,-0.096 0.10425,-0.2902 0.53271,-0.6344 0.13291,-0.1068 0.34542,-0.4485 0.47225,-0.7594 0.22594,-0.5538 0.22747,-0.578 0.0759,-1.1922 -0.20945,-0.8487 -0.39908,-1.2204 -0.91653,-1.7959 -0.89019,-0.99 -2.07539,-1.5975 -3.39932,-1.742 -0.97499,-0.1064 -1.62826,-0.2377 -2.26715,-0.4553 -0.42073,-0.1433 -0.49198,-0.1419 -1.01922,0.022 -0.88996,0.2768 -1.74424,0.9438 -1.96821,1.5365 -0.16874,0.4467 -0.12635,1.0787 0.0909,1.3549 0.25516,0.3244 0.24597,0.5966 -0.0242,0.7194 -0.12014,0.054 -0.42708,0.193 -0.68207,0.3077 -0.53427,0.24 -1.10504,0.2691 -1.38829,0.07 -0.10803,-0.075 -0.36893,-0.1688 -0.57973,-0.207 -0.21084,-0.037 -0.462572,-0.1102 -0.559409,-0.1603 -0.208702,-0.1079 -0.454867,0.056 -0.454867,0.3029 0,0.1773 0.598751,0.7923 0.943086,0.9687 0.25911,0.1327 1.45368,0.3438 2.84261,0.5021 0.96846,0.1104 1.29433,0.199 2.0097,0.547 0.75222,0.366 0.9449,0.8713 0.31754,0.833 -1.19635,-0.073 -3.45725,-0.032 -3.88523,0.07 -0.49955,0.12 -0.69074,0.3129 -0.49952,0.5041 0.0626,0.062 0.73223,0.1153 1.68732,0.133 1.62808,0.029 2.19135,0.14 3.40827,0.6652 0.20277,0.088 0.81431,0.2256 1.35897,0.3069 1.28547,0.1918 2.08629,0.4767 2.96231,1.054 2.16292,1.425 3.176,3.0065 3.88985,6.0719 0.28,1.2024 0.43989,3.7156 0.30914,4.859 -0.25457,2.2261 -1.41572,4.1123 -3.40704,5.534 -0.53255,0.3802 -0.94383,0.7308 -0.91397,0.7791 0.12456,0.2016 0.61101,0.052 1.84249,-0.5673 1.54463,-0.7764 1.76444,-0.8946 2.08047,-1.1172 0.31278,-0.2202 0.50385,-0.2134 0.70817,0.025 0.0914,0.1068 0.25539,0.1942 0.36435,0.1942 0.3461,0 0.31582,0.2529 -0.14016,1.1706 -0.55048,1.1077 -0.57382,1.281 -0.11828,0.8782 z m -5.53505,-23.1669 c -0.6822,-0.99 -1.50354,-1.5961 -2.16249,-1.5961 -0.21801,0 -0.90526,0.1329 -1.52715,0.2955 -1.65484,0.4326 -1.83266,0.2695 -0.46855,-0.4298 0.87469,-0.4486 1.79358,-0.6811 2.40466,-0.6088 0.40718,0.048 0.5649,0.141 1.18696,0.6977 0.5017,0.449 0.76548,0.7681 0.87741,1.0611 0.26167,0.6852 0.0429,1.0935 -0.31084,0.5804 z m -3.07823,-0.093 c -0.0868,-0.087 -0.15781,-0.1954 -0.15781,-0.2412 0,-0.046 0.071,-0.1541 0.15781,-0.2409 0.19552,-0.1955 0.61166,-0.1563 0.75406,0.072 0.24164,0.3859 -0.41902,0.7459 -0.75406,0.4109 z m 5.81835,20.3604 c 0.36175,-0.2493 1.39164,-2.1837 1.64312,-3.086 0.19052,-0.6837 0.31742,-2.9949 0.16946,-3.0863 -0.12449,-0.078 -0.53726,0.4629 -0.68648,0.8978 -0.0623,0.1814 -0.30953,0.6901 -0.54957,1.1305 -0.51937,0.9527 -1.17941,1.5963 -2.17201,2.118 -0.90794,0.4771 -0.90362,0.7133 0.0161,0.8794 0.26833,0.048 0.39298,0.1311 0.45888,0.3044 0.11813,0.3108 0.6851,0.9017 0.87144,0.9083 0.08,0 0.19217,-0.027 0.24906,-0.066 z m 11.10847,-4.1724 c 0.30865,-0.8262 0.72279,-1.1892 1.35676,-1.1892 0.45456,0 0.49013,-0.2588 0.0864,-0.629 -0.34823,-0.3191 -0.99075,-1.2438 -1.53569,-2.2103 -0.21363,-0.3789 -0.37505,-0.5581 -0.50262,-0.5581 -0.23263,0 -0.26035,0.072 -0.47722,1.2409 -0.19812,1.0679 -0.48262,2.1302 -0.71325,2.663 -0.2701,0.624 -0.22225,0.7554 0.2752,0.7554 0.32042,0 0.50147,0.061 0.70376,0.2396 0.42606,0.3749 0.57087,0.3188 0.80666,-0.3123 z m -12.23292,-5.7502 c 0.4449,-0.3168 0.58417,-0.8243 0.58417,-2.1284 0,-1.3439 0.034,-1.286 -1.33215,-2.2652 -0.71218,-0.5105 -1.94374,-1.0436 -2.41107,-1.0436 -0.24558,0 -0.27361,0.289 -0.0642,0.6632 0.29222,0.5225 0.60423,1.5113 0.60423,1.9151 0,0.2013 -0.0807,0.4542 -0.18871,0.5917 -0.36559,0.4646 0.10085,0.7199 0.59929,0.328 0.47389,-0.3729 0.548,-0.9092 0.30557,-2.2117 -0.0721,-0.3879 0.025,-0.3971 0.41659,-0.039 0.53759,0.4911 1.08816,2.7318 0.90838,3.697 -0.13191,0.7082 0.0536,0.8666 0.57799,0.4932 z m 11.50447,-7.3621 c 0.36816,-0.1228 0.49284,-0.2148 0.51638,-0.3805 0.0383,-0.27 -0.19193,-0.2883 -0.76092,-0.06 -0.40472,0.1619 -0.62626,0.1488 -1.45418,-0.086 -0.42095,-0.1192 -0.59572,-0.2116 -1.38099,-0.7299 -0.53844,-0.3554 -3.32686,-3.1943 -3.32686,-3.3871 0,-0.129 0.14206,-0.191 0.63095,-0.2758 0.34702,-0.059 0.88205,-0.2314 1.18895,-0.3807 0.56094,-0.2729 1.14072,-0.8175 1.14072,-1.0716 0,-0.2397 -0.20478,-0.2736 -0.47032,-0.079 -0.75937,0.56 -2.46561,0.7323 -3.70888,0.3745 -0.34416,-0.099 -0.88782,-0.2561 -1.20815,-0.3492 -0.72043,-0.2093 -0.78833,-0.3966 -0.22267,-0.6146 0.6311,-0.2431 1.57818,-1.2476 1.37131,-1.4545 -0.0628,-0.062 -0.52759,0.1587 -0.90596,0.4316 -0.43832,0.3163 -1.61634,0.5715 -2.63748,0.5715 -0.51845,0 -0.96907,-0.042 -1.00138,-0.095 -0.0324,-0.052 -0.013,-0.1808 0.0431,-0.2853 0.14311,-0.2675 -0.0409,-0.3555 -0.33726,-0.1613 -0.12971,0.085 -0.48582,0.2195 -0.79133,0.2991 -0.94148,0.2454 -0.9382,0.3852 0.0165,0.7009 0.32033,0.106 0.91003,0.4038 1.31043,0.6617 1.6983,1.094 2.37498,2.2282 2.31273,3.8768 l -0.0315,0.8366 0.24267,-0.06 c 0.36304,-0.089 0.9599,-0.7156 1.02799,-1.0784 0.0325,-0.173 0.006,-0.4744 -0.0582,-0.6696 -0.15184,-0.46 -0.0281,-0.6014 0.35373,-0.4039 0.3404,0.176 1.34499,1.2148 1.42896,1.4775 0.0847,0.2649 1.01244,1.0447 1.17081,0.984 0.0787,-0.029 0.11168,-0.1434 0.0838,-0.2887 -0.0866,-0.4526 0.16903,-0.3907 0.72127,0.1748 0.86229,0.8833 2.68474,1.666 3.91066,1.6797 0.18686,0 0.55815,-0.069 0.8251,-0.1583 z m 38.53651,78.6479 c -2.14873,-0.3163 -3.95717,-1.3782 -4.94177,-2.9018 -0.97902,-1.5148 -1.39983,-2.9348 -1.48139,-4.999 -0.0646,-1.6361 0.0333,-2.4185 0.46429,-3.7075 0.42396,-1.2679 0.90583,-2.0602 1.82754,-3.0047 0.39496,-0.4047 1.8148,-1.44 1.98174,-1.4449 0.0611,0 0.28585,-0.088 0.49941,-0.1908 0.21356,-0.1032 0.48107,-0.189 0.59448,-0.1909 0.11341,0 0.39734,-0.076 0.63096,-0.1634 0.32593,-0.1227 0.77476,-0.161 1.92931,-0.1637 1.79108,-0.01 2.58242,0.1476 4.24952,0.8159 0.12161,0.048 0.24836,0.1595 0.28165,0.2463 0.075,0.1955 -0.13875,1.3966 -0.27849,1.5648 -0.1629,0.1964 -0.29009,0.1454 -0.80672,-0.3231 -0.58389,-0.5294 -1.84168,-1.1685 -2.56132,-1.3012 -2.82896,-0.522 -5.36181,1.2284 -6.25239,4.3206 -0.36663,1.273 -0.49673,2.7823 -0.36143,4.1933 0.19008,1.9825 0.77365,3.4744 1.81952,4.6519 0.38591,0.4344 1.25009,1.0353 1.87121,1.3013 0.63945,0.2737 2.26336,0.376 3.12616,0.1969 0.6611,-0.1373 1.75403,-0.6527 2.51327,-1.1852 0.82,-0.5752 0.99745,-0.3702 0.65629,0.7583 -0.0766,0.2535 -0.22931,0.3782 -0.87272,0.7129 -1.02159,0.5316 -2.0806,0.7821 -3.48162,0.8238 -0.61395,0.018 -1.24734,0.014 -1.4075,-0.01 z m 11.77063,-0.1894 c -1.02647,-0.2488 -1.90039,-0.8049 -2.61827,-1.666 -1.80636,-2.1669 -1.72154,-5.9917 0.18108,-8.1666 1.11391,-1.2734 2.7548,-1.861 4.596,-1.6456 1.83927,0.2151 3.07896,1.1662 3.81183,2.9246 0.82206,1.9722 0.70727,4.1726 -0.32303,6.1922 -0.29124,0.5709 -1.22885,1.4621 -1.95385,1.8573 -1.09565,0.5971 -2.51232,0.7905 -3.69376,0.5041 z m 2.66635,-1.0925 c 0.54971,-0.3783 1.09944,-1.1787 1.42681,-2.0777 0.31013,-0.8518 0.42726,-1.6206 0.42555,-2.794 -0.003,-1.8089 -0.26163,-2.7605 -1.02351,-3.7603 -0.61348,-0.8049 -0.91879,-0.948 -2.01587,-0.9448 -0.75125,0 -0.99484,0.041 -1.31431,0.2099 -0.94616,0.5003 -1.69956,1.6632 -1.89522,2.9252 -0.27788,1.7924 -0.28594,2.0633 -0.0972,3.2661 0.10073,0.6421 0.25232,1.2986 0.33685,1.4588 0.0845,0.1601 0.15398,0.3226 0.15429,0.361 0.002,0.1792 0.65335,0.967 1.015,1.2266 0.5582,0.4009 0.95222,0.5001 1.81758,0.4579 0.63634,-0.031 0.807,-0.079 1.17005,-0.3287 z m 7.81825,1.097 c -0.60132,-0.2208 -1.02929,-0.631 -1.26495,-1.2123 -0.20948,-0.5167 -0.21803,-0.6709 -0.26548,-4.7886 -0.0459,-3.9841 -0.0604,-4.263 -0.22726,-4.3849 -0.10518,-0.077 -0.30594,-0.1095 -0.48985,-0.079 -0.39119,0.063 -0.56986,-0.1291 -0.52765,-0.5688 0.03,-0.3122 0.0452,-0.3227 0.51377,-0.3524 0.71597,-0.045 0.7463,-0.096 0.71177,-1.189 -0.0254,-0.8036 -0.003,-0.973 0.14698,-1.1395 0.22935,-0.2535 1.08782,-0.6218 1.35926,-0.5831 0.20331,0.029 0.21221,0.079 0.23839,1.3342 0.0158,0.7586 0.0716,1.3573 0.13323,1.4317 0.0736,0.089 0.3788,0.1278 0.99687,0.1278 0.94482,0 1.12382,0.071 1.12382,0.4492 0,0.4363 -0.25598,0.5516 -1.09581,0.494 -1.22112,-0.084 -1.13834,-0.3722 -1.12858,3.9345 0.009,4.1672 0.0414,4.5615 0.41185,5.0962 0.34002,0.4906 0.60444,0.6066 1.38335,0.6066 0.49318,0 0.64261,0.034 0.69036,0.1588 0.10647,0.2774 -0.11867,0.4673 -0.75701,0.6384 -0.74131,0.1988 -1.45836,0.2086 -1.95306,0.027 z m 7.53971,-0.036 c -0.80693,-0.1986 -1.68425,-0.7067 -2.22969,-1.2914 -0.4264,-0.4571 -0.82266,-0.9965 -0.82266,-1.12 0,-0.042 -0.0893,-0.2449 -0.19853,-0.4486 -0.36014,-0.6719 -0.62262,-2.337 -0.53627,-3.4017 0.16538,-2.0391 0.99838,-3.6471 2.36062,-4.5573 0.64491,-0.4308 0.97909,-0.5394 1.92932,-0.6272 1.53826,-0.1423 2.47286,0.1433 3.47602,1.0617 0.78048,0.7146 1.19481,1.5897 1.3906,2.9368 0.11517,0.7927 0.13426,1.1938 0.066,1.3877 l -0.0959,0.273 -3.48375,0.026 c -2.37391,0.017 -3.52508,0.06 -3.61351,0.1332 -0.17721,0.147 -0.16101,0.5525 0.0648,1.6223 0.32881,1.5578 1.20245,2.5884 2.51671,2.9685 0.28997,0.085 0.72678,0.1526 0.97069,0.1529 0.68819,7e-4 1.74905,-0.4336 2.39667,-0.9812 0.3092,-0.2613 0.61868,-0.4753 0.68773,-0.4753 0.17196,0 0.16434,0.7111 -0.0113,1.0507 -0.0908,0.1755 -0.42755,0.4179 -1.00057,0.72 -1.41191,0.7445 -2.50435,0.9056 -3.86705,0.5704 z m 3.62117,-6.757 c 0.33169,-0.1184 -0.0862,-2.1923 -0.59746,-2.9648 -0.13946,-0.2108 -0.43564,-0.5036 -0.65819,-0.6509 -0.3627,-0.2402 -0.49085,-0.2678 -1.2368,-0.2678 -0.78238,0 -0.85959,0.019 -1.29034,0.3181 -0.78109,0.5424 -1.1774,1.2108 -1.48965,2.5123 -0.18022,0.7513 -0.15121,0.9695 0.14335,1.0789 0.19814,0.073 4.91729,0.049 5.12909,-0.026 z m 12.74033,6.7535 c -0.89047,-0.2808 -1.59069,-0.8269 -2.25041,-1.7552 -1.15284,-1.622 -1.11866,-5.8418 0.0617,-7.6199 0.39544,-0.5956 1.28324,-1.4318 1.80041,-1.6955 1.561,-0.7962 3.48331,-0.4419 4.52919,0.8343 0.3624,0.4424 0.61244,0.545 0.61978,0.2544 0.002,-0.093 0.002,-1.8297 -7.2e-4,-3.8585 -0.003,-2.0287 0.0318,-3.7451 0.0769,-3.8143 0.0586,-0.09 0.30211,-0.1174 0.8502,-0.097 l 0.76813,0.028 0,8.7848 0,8.7847 -0.76813,0.028 c -0.54754,0.021 -0.79213,-0.01 -0.85172,-0.097 -0.0459,-0.069 -0.0582,-0.366 -0.027,-0.6596 0.0429,-0.4042 0.0195,-0.581 -0.0962,-0.7279 -0.15162,-0.1927 -0.15413,-0.1924 -0.32117,0.038 -1.0404,1.4384 -2.8072,2.0706 -4.39088,1.5709 z m 2.68516,-0.9862 c 0.88903,-0.4305 1.50776,-1.437 1.91443,-3.1146 0.18178,-0.7499 0.21598,-2.9222 0.0527,-3.351 -0.0572,-0.1502 -0.14354,-0.4811 -0.19181,-0.7353 -0.0952,-0.5013 -0.57969,-1.3226 -1.02765,-1.7425 -0.65253,-0.6113 -1.71875,-0.7248 -2.68674,-0.2859 -1.17876,0.5345 -1.80059,1.8474 -1.96117,4.1407 -0.17095,2.4414 0.58074,4.4717 1.89528,5.119 0.48969,0.241 1.47487,0.2261 2.0049,-0.03 z m 40.6689,1.0137 c -0.59184,-0.1817 -1.122,-0.5284 -1.42732,-0.9334 -0.87572,-1.1613 -0.96348,-1.76 -0.96348,-6.5718 0,-3.5453 0.007,-3.6903 0.18776,-3.7869 0.24646,-0.1319 1.43278,-0.1299 1.51464,0 0.0351,0.056 0.0612,1.5746 0.0582,3.3732 -0.006,3.5274 0.0492,4.3032 0.37219,5.2282 0.2927,0.8383 0.93155,1.4372 1.63668,1.5342 0.67709,0.093 1.40341,-0.019 1.7844,-0.276 0.42421,-0.2859 1.00441,-1.0714 1.15043,-1.5574 0.0825,-0.2744 0.1315,-1.5957 0.15888,-4.2798 0.0351,-3.4505 0.0573,-3.8963 0.19836,-4.0041 0.21904,-0.1674 1.32837,-0.1592 1.46953,0.01 0.0794,0.096 0.10285,1.644 0.0847,5.6057 l -0.0251,5.4735 -0.8251,0 -0.82507,0 -0.0288,-0.6553 c -0.0161,-0.3674 -0.0728,-0.6551 -0.12896,-0.6551 -0.0552,0 -0.28247,0.1798 -0.50518,0.3996 -0.65611,0.6476 -0.99485,0.8699 -1.62397,1.0656 -0.70264,0.2187 -1.60211,0.2292 -2.26284,0.026 z m -16.54517,-0.1079 -0.90441,-0.032 -0.1402,-0.3356 c -0.0771,-0.1845 -0.20498,-0.565 -0.28414,-0.8456 -0.21761,-0.7711 -0.9605,-2.9081 -1.09464,-3.1487 -0.065,-0.1167 -0.1182,-0.2914 -0.11825,-0.3884 0,-0.2935 -0.55361,-1.3673 -0.7624,-1.4791 -0.12433,-0.066 -1.05538,-0.1045 -2.55843,-0.1045 -2.58087,0 -2.71117,0.025 -2.83525,0.5558 -0.0346,0.1481 -0.12414,0.4002 -0.1989,0.5604 -0.0748,0.1601 -0.20537,0.5096 -0.29026,0.7766 -1.03497,3.2548 -1.25188,3.9171 -1.35104,4.1253 -0.10395,0.2184 -0.1811,0.2456 -0.76877,0.2714 -0.5173,0.023 -0.66521,0 -0.71067,-0.1208 -0.0316,-0.083 0.1265,-0.5976 0.35127,-1.145 0.22477,-0.5475 0.53799,-1.323 0.69604,-1.7235 0.27242,-0.6901 0.41355,-1.04 0.85146,-2.1112 0.60458,-1.4788 0.72228,-1.7679 0.89915,-2.2083 0.10719,-0.2669 0.27761,-0.6722 0.37871,-0.9005 0.1011,-0.2283 0.18381,-0.4916 0.18381,-0.5851 0,-0.093 0.0636,-0.2607 0.14122,-0.3716 0.13851,-0.1977 0.2748,-0.5317 0.64399,-1.5784 0.10157,-0.2879 0.22284,-0.5718 0.2695,-0.631 0.0467,-0.059 0.13989,-0.2821 0.20719,-0.4957 0.0674,-0.2135 0.15501,-0.4319 0.19491,-0.4853 0.04,-0.054 0.1046,-0.2063 0.14374,-0.3398 0.0392,-0.1335 0.12993,-0.3737 0.20168,-0.5338 0.0718,-0.1602 0.19331,-0.466 0.27009,-0.6795 0.42919,-1.1936 0.99089,-2.4003 1.1592,-2.4904 0.33789,-0.1808 0.62612,0.2804 1.09777,1.7565 0.0757,0.2371 0.19852,0.5238 0.27288,0.6373 0.0743,0.1134 0.17991,0.3562 0.23455,0.5397 0.0965,0.3236 0.74314,2.0164 1.18425,3.0999 0.11955,0.2936 0.36064,0.927 0.53577,1.4074 0.17513,0.4806 0.4072,1.0921 0.51573,1.3591 0.10853,0.2669 0.28507,0.7256 0.3923,1.0191 0.40836,1.1181 0.6825,1.8095 0.82814,2.0889 0.083,0.1592 0.1512,0.3428 0.15151,0.4081 0,0.065 0.0832,0.3056 0.18409,0.534 0.10091,0.2282 0.28161,0.6772 0.40157,0.9974 0.11994,0.3204 0.27437,0.7135 0.34316,0.8737 0.52924,1.2321 0.60666,1.5089 0.46233,1.6533 -0.0784,0.079 -0.17215,0.1334 -0.20837,0.1223 -0.0362,-0.011 -0.47285,-0.034 -0.97028,-0.052 z m -3.85993,-7.4608 c 0.21093,-0.081 0.19001,-0.4838 -0.0523,-1.0089 -0.11092,-0.2402 -0.3473,-0.8299 -0.52529,-1.3104 -0.178,-0.4805 -0.43913,-1.1575 -0.58028,-1.5046 -0.14116,-0.347 -0.32128,-0.8411 -0.40029,-1.0979 -0.11971,-0.3894 -0.17857,-0.4622 -0.35326,-0.437 -0.23521,0.034 -0.3294,0.2005 -0.70364,1.2438 -0.14365,0.4004 -0.34122,0.9246 -0.43904,1.1648 -0.0978,0.2402 -0.31539,0.8081 -0.48347,1.2619 -0.16809,0.4538 -0.34547,0.8666 -0.3942,0.9173 -0.1023,0.1065 -0.11985,0.6692 -0.0239,0.7652 0.0808,0.081 3.74606,0.086 3.95572,0.01 z m 6.33458,7.3725 c -0.14433,-0.1444 -0.0432,-0.3775 0.451,-1.0398 1.81508,-2.4322 6.02027,-8.765 5.94702,-8.9558 -0.053,-0.138 -0.26732,-0.1483 -1.92694,-0.092 -1.02704,0.034 -2.1636,0.1097 -2.52568,0.1661 -0.82224,0.128 -0.9433,0.05 -0.9433,-0.6018 0,-0.2572 0.0351,-0.4893 0.0781,-0.5159 0.0604,-0.037 7.31064,-0.099 7.85735,-0.067 0.0667,0 0.12135,0.1006 0.12135,0.2149 0,0.1144 -1.42671,2.3479 -3.17046,4.9633 -3.46244,5.1934 -3.40874,5.0855 -2.51289,5.0534 1.36918,-0.049 4.71399,-0.2422 5.01873,-0.2898 0.3082,-0.048 0.37695,-0.022 0.52512,0.2047 0.13532,0.2065 0.15228,0.334 0.0822,0.6176 l -0.0883,0.3574 -4.42377,0.025 c -2.43307,0.014 -4.45333,-0.01 -4.48946,-0.041 z m 24.22106,-0.053 c -0.0878,-0.088 -0.11648,-1.447 -0.11648,-5.5211 0,-4.5235 0.0222,-5.423 0.1364,-5.5178 0.0856,-0.071 0.42002,-0.1025 0.89789,-0.085 l 0.76149,0.028 0.0284,0.7522 c 0.0253,0.6709 0.0488,0.7524 0.21718,0.7524 0.11399,0 0.28372,-0.1504 0.42825,-0.3793 0.37859,-0.5997 0.88695,-1.0341 1.47206,-1.258 0.66912,-0.2562 0.85994,-0.259 1.10264,-0.016 0.16597,0.166 0.18308,0.2764 0.13149,0.8494 -0.0972,1.0789 -0.28641,1.3147 -0.76482,0.9529 -0.32069,-0.2426 -0.93514,-0.1848 -1.36296,0.1283 -0.51314,0.3754 -0.67271,0.5694 -0.93302,1.134 -0.21768,0.4722 -0.22266,0.5574 -0.24988,4.2675 -0.0249,3.3886 -0.0446,3.7984 -0.18842,3.9071 -0.20734,0.1566 -1.40472,0.1602 -1.56018,0.01 z m -42.69928,-9.1058 c -0.11665,-0.047 -0.25861,-0.1724 -0.31548,-0.2786 -0.067,-0.1252 -0.10341,-1.2913 -0.10341,-3.3134 l 0,-3.12 0.28374,-0.2838 c 0.15605,-0.156 0.37644,-0.2837 0.48975,-0.2837 0.24779,0 0.67973,0.4076 0.68965,0.6508 0.0402,0.9839 -0.006,6.0848 -0.0566,6.244 -0.0515,0.162 -0.59815,0.51 -0.74825,0.4763 -0.015,-0.01 -0.12282,-0.045 -0.23944,-0.092 z m -47.04451,-3.3644 c -0.0356,-0.035 -0.0647,-0.1296 -0.0647,-0.209 0,-0.2031 2.19512,-3.4748 2.45227,-3.6548 0.21857,-0.1532 0.63733,-0.1892 1.01637,-0.088 0.12388,0.033 0.40151,0.3344 0.64768,0.7024 0.23698,0.3544 0.53529,0.7972 0.66288,0.9841 1.3727,2.01 1.52224,2.3296 1.09016,2.3296 -0.2734,0 -0.47,-0.1585 -1.61714,-1.3035 -0.61894,-0.6178 -1.17599,-1.1232 -1.23792,-1.1232 -0.0619,0 -0.65309,0.546 -1.31369,1.2133 -1.1022,1.1135 -1.43643,1.3482 -1.63589,1.1487 z m 4.79779,-6.4765 c -0.14139,-0.1704 -0.1379,-16.7088 0.003,-16.9731 0.0743,-0.139 0.22348,-0.1706 0.80399,-0.1706 0.89639,0 0.96225,0.068 0.91645,0.9443 -0.0307,0.5878 -0.0153,0.6573 0.14568,0.6573 0.10417,0 0.35162,-0.225 0.58717,-0.5338 0.30623,-0.4016 0.57195,-0.6181 1.072,-0.8736 0.63009,-0.3221 0.71612,-0.3398 1.64543,-0.3398 0.78641,0 1.0963,0.044 1.56516,0.2219 1.08109,0.4107 1.89192,1.323 2.4971,2.8101 0.30553,0.7507 0.30671,0.7606 0.30374,2.501 -0.003,1.6605 -0.0165,1.7858 -0.27499,2.5237 -0.42681,1.2185 -0.7103,1.6999 -1.40061,2.3783 -0.72831,0.7157 -1.55607,1.1032 -2.59441,1.2143 -1.05749,0.1132 -2.43146,-0.5214 -2.95195,-1.3635 -0.2031,-0.3288 -0.57417,-0.4648 -0.58575,-0.2149 -0.003,0.066 -7.1e-4,1.6865 0.005,3.5995 0.008,2.5399 -0.0199,3.5152 -0.10333,3.6158 -0.15766,0.19 -1.47742,0.1925 -1.63459,0 z m 5.97042,-7.0321 c 0.50269,-0.365 1.06206,-1.0604 1.18755,-1.4764 0.0557,-0.1847 0.17711,-0.5323 0.26975,-0.7726 0.13891,-0.3602 0.16937,-0.7772 0.17375,-2.3781 0.003,-1.2357 -0.0359,-2.0649 -0.10803,-2.2811 -0.30846,-0.9246 -0.45231,-1.2246 -0.77776,-1.6217 -0.48843,-0.5962 -1.12332,-0.9022 -1.87125,-0.9022 -1.2844,0 -2.20398,0.8561 -2.82772,2.6324 -0.19512,0.5556 -0.21799,0.8094 -0.22209,2.4637 -0.004,1.812 0,1.8559 0.27075,2.4989 0.37008,0.8798 0.73223,1.3563 1.34353,1.768 0.48669,0.3278 0.55017,0.3439 1.34687,0.3439 0.76409,0 0.86869,-0.023 1.21465,-0.2748 z m 9.55969,1.3402 c -1.26495,-0.2656 -2.41902,-0.9409 -3.03107,-1.7732 -0.36125,-0.4914 -0.7735,-1.3769 -1.00656,-2.162 -0.24144,-0.8135 -0.24583,-2.9692 -0.008,-3.7794 0.6844,-2.3284 2.11766,-3.6883 4.08581,-3.8767 2.14167,-0.205 3.76198,0.7552 4.58868,2.7198 0.26204,0.6227 0.47612,2.5513 0.31632,2.8499 -0.10478,0.1959 -0.17445,0.1999 -3.50729,0.1999 -2.15835,0 -3.46898,0.037 -3.58815,0.1004 -0.24599,0.1316 -0.24441,0.5798 0.006,1.6232 0.2627,1.0958 0.57445,1.6678 1.18592,2.1761 0.8288,0.689 1.26978,0.8566 2.25306,0.8566 0.99525,0 1.62391,-0.2404 2.44983,-0.9368 0.61663,-0.5198 0.80961,-0.5429 0.80961,-0.097 0,0.5399 -0.17774,0.8721 -0.61132,1.1426 -1.26154,0.7869 -2.88043,1.1795 -3.94287,0.9565 z m 3.13875,-6.8514 c 0.21743,-0.084 0.1987,-0.7387 -0.0494,-1.7278 -0.36481,-1.4545 -1.05957,-2.1638 -2.21462,-2.2606 -0.76589,-0.064 -1.11817,0.065 -1.79533,0.6617 -0.55237,0.4862 -0.88651,1.0889 -1.12789,2.0343 -0.23596,0.9242 -0.23948,1.12 -0.0223,1.2465 0.18287,0.1066 4.94229,0.1484 5.20953,0.046 z m 5.63796,6.8554 c -0.71197,-0.1463 -1.51136,-0.4506 -1.71264,-0.6519 -0.18529,-0.1852 -0.19092,-0.2384 -0.0817,-0.7693 0.13623,-0.6621 0.24953,-0.9105 0.41449,-0.9088 0.0649,7e-4 0.33337,0.2467 0.59668,0.547 0.53804,0.6135 1.31984,1.0284 1.92386,1.0214 0.51539,-0.01 1.30111,-0.4656 1.66362,-0.9728 0.27783,-0.3888 0.30123,-0.4821 0.29369,-1.1712 -0.012,-1.0932 -0.30277,-1.4303 -1.71578,-1.9897 -0.33313,-0.1319 -0.73674,-0.2704 -0.89689,-0.3078 -0.43883,-0.1024 -1.22701,-0.514 -1.5379,-0.803 -0.15179,-0.141 -0.38112,-0.4625 -0.50961,-0.7143 -0.20313,-0.3981 -0.23363,-0.5916 -0.23363,-1.4831 0,-0.9388 0.0237,-1.072 0.28143,-1.5806 0.51333,-1.013 1.25891,-1.5671 2.39432,-1.7793 1.02047,-0.1906 2.61831,0.071 2.9985,0.4911 0.15415,0.1703 0.15399,0.2129 -0.003,0.6998 -0.27762,0.8629 -0.32303,0.9552 -0.4701,0.9552 -0.0778,0 -0.23879,-0.1732 -0.35776,-0.3849 -0.50198,-0.8932 -1.47961,-1.2948 -2.25546,-0.9266 -0.8381,0.3977 -1.2412,1.2173 -1.0911,2.2182 0.11002,0.7337 1.0443,1.4762 2.27422,1.8074 0.49402,0.133 1.24609,0.5099 1.74575,0.8748 0.28738,0.2098 0.49881,0.4774 0.66616,0.8429 0.22129,0.4833 0.24116,0.6268 0.204,1.4735 -0.0345,0.7852 -0.085,1.0232 -0.31023,1.4603 -0.28742,0.5579 -1.01871,1.3474 -1.41775,1.5305 -1.11069,0.5095 -2.07046,0.6842 -2.86355,0.5212 z m -45.71272,-0.3483 c -0.19013,-0.1901 -0.19121,-0.1732 0.0388,-0.6049 0.10525,-0.1973 0.41565,-0.9268 0.68978,-1.6209 0.27414,-0.6939 0.78244,-1.9607 1.12956,-2.8149 0.84746,-2.0855 0.99509,-2.4571 1.15689,-2.9121 0.15337,-0.4313 0.1996,-0.5415 0.54965,-1.3104 0.1337,-0.2936 0.27328,-0.6431 0.31018,-0.7765 0.10227,-0.3699 0.51209,-1.3953 0.88227,-2.2077 0.18264,-0.4008 0.33209,-0.7785 0.33209,-0.8393 0,-0.06 0.0873,-0.2737 0.19413,-0.4729 0.10678,-0.1993 0.19414,-0.42 0.19414,-0.4906 0,-0.07 0.21382,-0.6058 0.47514,-1.1894 0.44038,-0.9836 0.49498,-1.0611 0.7463,-1.0611 0.25384,0 0.29713,0.065 0.67738,1.0192 0.75938,1.9054 1.4275,3.6386 1.609,4.174 0.0995,0.2936 0.22114,0.6212 0.27023,0.728 0.3622,0.7879 0.59006,1.3536 0.59006,1.4651 0,0.072 0.0831,0.3181 0.18455,0.5465 0.32111,0.7223 1.38521,3.4763 1.48608,3.8459 0.0532,0.1952 0.13171,0.3985 0.17436,0.452 0.0427,0.053 0.30435,0.7085 0.58154,1.456 0.27719,0.7474 0.60608,1.5968 0.73086,1.8873 0.33705,0.7851 0.27168,0.8442 -0.92296,0.8349 -1.0849,-0.01 -1.09442,-0.014 -1.26625,-0.6837 -0.0547,-0.2135 -0.16416,-0.5322 -0.24312,-0.708 -0.079,-0.1759 -0.18465,-0.4817 -0.23483,-0.6796 -0.0502,-0.1978 -0.22709,-0.731 -0.39312,-1.1848 -0.16599,-0.4537 -0.33974,-0.9561 -0.38607,-1.1163 -0.18611,-0.6434 -0.6116,-1.5628 -0.79735,-1.7229 -0.17674,-0.1524 -0.4566,-0.1699 -2.71118,-0.1699 l -2.5141,0 -0.23525,0.5096 c -0.1294,0.2803 -0.29728,0.7062 -0.37308,0.9464 -0.0758,0.2403 -0.36223,1.1139 -0.63649,1.9414 -0.27426,0.8275 -0.57244,1.7449 -0.66261,2.0384 -0.23529,0.7662 -0.35367,0.8737 -0.96214,0.8737 -0.33593,0 -0.56432,-0.053 -0.66443,-0.1525 z m 8.28833,-7.3653 c 0.0928,-0.1119 0.0669,-0.2558 -0.12655,-0.7038 -0.13378,-0.3098 -0.35496,-0.8582 -0.49151,-1.219 -0.4178,-1.1035 -0.7527,-1.9437 -0.83868,-2.1038 -0.0451,-0.084 -0.1534,-0.3824 -0.24086,-0.6633 -0.0875,-0.281 -0.22924,-0.5812 -0.31509,-0.667 -0.14338,-0.1434 -0.17032,-0.1386 -0.3315,0.061 -0.0965,0.119 -0.17543,0.2873 -0.17543,0.3738 0,0.087 -0.0854,0.3765 -0.1898,0.6444 -0.10439,0.268 -0.30352,0.793 -0.44249,1.1667 -0.139,0.3738 -0.31232,0.8105 -0.38518,0.9707 -0.3185,0.7002 -0.74283,2.0101 -0.69313,2.1396 0.0803,0.2092 4.05662,0.2101 4.23022,7e-4 z m 7.77104,7.3833 c -0.065,-0.065 -0.0984,-3.036 -0.0984,-8.7548 0,-7.3306 0.0209,-8.6738 0.13687,-8.7701 0.0837,-0.069 0.39489,-0.1023 0.80082,-0.086 l 0.66395,0.029 0.0249,8.7256 c 0.0166,5.8446 -0.008,8.7653 -0.0746,8.8454 -0.1206,0.1453 -1.30986,0.1532 -1.45346,0.01 z m 7.59686,-24.7214 c -0.33278,-0.043 -0.89961,-0.2186 -1.26189,-0.3903 -1.25115,-0.593 -2.48219,-2.199 -2.74407,-3.5799 -0.13081,-0.6898 -0.12433,-2.7796 0.0106,-3.4204 0.18795,-0.8924 0.74971,-1.9067 1.44432,-2.6077 1.07973,-1.0898 2.20343,-1.5467 3.80328,-1.5467 1.46906,0 2.52027,0.4129 3.38286,1.3291 0.94259,1.0011 1.31375,1.8093 1.51946,3.3088 0.13649,0.9948 0.13604,1.1922 -0.005,2.1585 -0.2945,2.0199 -1.3313,3.5547 -2.91647,4.3171 -0.98149,0.4721 -1.93902,0.5998 -3.23325,0.4315 z m 2.16057,-0.985 c 0.51466,-0.3254 1.11497,-0.9968 1.37071,-1.5326 0.41851,-0.877 0.49897,-1.1433 0.67119,-2.2206 0.16637,-1.0408 0.16706,-1.1583 0.0134,-2.271 -0.27107,-1.9613 -0.84344,-3.0136 -1.95256,-3.5889 -0.88634,-0.4598 -2.33323,-0.1283 -3.12442,0.7157 -0.53327,0.5691 -0.75511,0.9656 -1.02482,1.8318 -0.201,0.6456 -0.22672,0.9204 -0.22721,2.4267 -7.1e-4,1.6344 0.0104,1.7298 0.28754,2.5219 0.37886,1.0824 0.86913,1.6934 1.70252,2.1215 0.56865,0.2921 0.69229,0.3196 1.26452,0.2813 0.45784,-0.03 0.7413,-0.1101 1.01923,-0.2858 z m 20.67599,0.9813 c -0.9613,-0.1293 -1.95373,-0.6412 -2.60059,-1.3414 -1.66138,-1.7986 -2.01064,-5.0562 -0.82309,-7.6772 0.29441,-0.6497 0.97707,-1.4287 1.59987,-1.8255 1.18746,-0.7566 2.86927,-0.9312 4.1454,-0.4306 1.34194,0.5265 2.42286,1.9161 2.66862,3.4308 0.14115,0.8699 0.13138,1.9024 -0.0189,1.9996 -0.0667,0.043 -1.65674,0.062 -3.53335,0.042 l -3.412,-0.035 -0.15898,0.2426 c -0.13496,0.206 -0.14373,0.336 -0.0581,0.8607 0.30136,1.8462 0.86668,2.7723 2.07673,3.4017 0.54936,0.2858 0.66869,0.31 1.51838,0.3085 0.84375,0 0.97398,-0.028 1.5317,-0.3121 0.33527,-0.1708 0.78268,-0.4668 0.99425,-0.6579 0.48647,-0.4396 0.67734,-0.3871 0.67734,0.1864 0,0.3359 -0.0542,0.4715 -0.26696,0.6667 -0.96441,0.8849 -2.75058,1.3542 -4.34032,1.1404 z m 3.29707,-6.8476 c 0.17934,-0.1794 0.14589,-0.6975 -0.11105,-1.7203 -0.37909,-1.5091 -1.37744,-2.3606 -2.60712,-2.2235 -1.3931,0.1551 -2.37015,1.4232 -2.74374,3.5612 -0.0904,0.5171 0.0402,0.5422 2.80389,0.5422 2.18935,0 2.51807,-0.02 2.65802,-0.1596 z m 20.23872,6.8912 c -0.58569,-0.054 -1.60932,-0.3963 -2.08699,-0.6959 -0.58991,-0.37 -1.51999,-1.3618 -1.82899,-1.9503 -0.48677,-0.9271 -0.68316,-1.8507 -0.68284,-3.2117 0,-1.4888 0.2119,-2.3114 0.86329,-3.3566 0.38475,-0.6173 1.3326,-1.5938 1.54694,-1.5938 0.0394,0 0.18757,-0.083 0.32928,-0.1825 0.14171,-0.1002 0.59667,-0.275 1.01104,-0.3883 1.51365,-0.4137 3.80718,-0.1843 4.73053,0.4732 0.30202,0.2151 0.31067,0.2402 0.24735,0.7184 -0.13741,1.0373 -0.44545,1.2649 -0.87448,0.6457 -0.47034,-0.6786 -1.59849,-1.2665 -2.43038,-1.2665 -0.68489,0 -1.73258,0.5174 -2.28918,1.1307 -0.3556,0.3918 -0.79024,1.1828 -0.87094,1.5849 -0.0377,0.1881 -0.13925,0.6022 -0.22559,0.9205 -0.21245,0.783 -0.19738,1.609 0.05,2.7433 0.37617,1.7247 1.12327,2.7714 2.38712,3.3444 0.56657,0.2568 0.73375,0.2891 1.33909,0.2586 0.80609,-0.041 1.75169,-0.4594 2.28846,-1.0132 0.42712,-0.4407 0.67021,-0.4395 0.67021,0.01 0,0.5194 -0.14816,0.7906 -0.60102,1.1001 -0.78787,0.5382 -2.3185,0.8534 -3.57295,0.7357 z m 10.28934,-0.042 c -1.54609,-0.1932 -2.80539,-1.1134 -3.54636,-2.5912 -0.49285,-0.9831 -0.6654,-2.0383 -0.59882,-3.6624 0.0632,-1.5421 0.27507,-2.2608 0.98116,-3.3284 0.88947,-1.3448 2.08976,-1.9619 3.81593,-1.9619 2.52792,0 4.16314,1.7421 4.36387,4.6493 0.0543,0.7873 0.0408,0.9283 -0.0994,1.0308 -0.12315,0.09 -0.95363,0.1088 -3.43726,0.078 -3.6948,-0.046 -3.76524,-0.036 -3.7536,0.5559 0.0364,1.8541 0.79623,3.2573 2.1288,3.9316 0.46786,0.2366 0.64679,0.2709 1.43222,0.2739 0.81839,0.01 0.95332,-0.024 1.52963,-0.3085 0.34764,-0.1715 0.80331,-0.4642 1.0126,-0.6504 0.42585,-0.3788 0.47003,-0.3935 0.62493,-0.2068 0.16282,0.1962 0.0239,0.749 -0.26821,1.0676 -0.33981,0.3705 -1.49487,0.9038 -2.3445,1.0825 -0.74485,0.1567 -0.88664,0.1598 -1.84094,0.041 z m 3.14786,-6.8429 c 0.12353,-0.1236 0.14035,-0.2839 0.0884,-0.843 -0.12545,-1.3497 -0.59648,-2.2596 -1.46841,-2.8366 -0.82822,-0.5481 -2.16569,-0.2785 -2.92857,0.5904 -0.43837,0.4992 -0.85863,1.4796 -0.98589,2.2999 -0.0965,0.6217 -0.09,0.6988 0.0679,0.8142 0.13317,0.097 0.75396,0.1276 2.62421,0.1276 2.09784,0 2.47169,-0.022 2.60235,-0.1525 z m -82.20387,6.6006 c -0.13615,-0.1361 -0.15254,-0.9955 -0.15254,-8.0026 0,-7.7947 0.002,-7.8512 0.19827,-7.9891 0.27531,-0.1929 4.15359,-0.1325 5.7715,0.09 2.44387,0.3357 3.35459,1.3348 3.34696,3.6717 -0.005,1.6364 -0.34078,2.5373 -1.26234,3.3905 -1.1893,1.1011 -3.15015,1.7121 -5.103,1.5904 -0.63998,-0.04 -0.83507,-0.021 -0.92859,0.092 -0.0891,0.1074 -0.11224,0.9688 -0.0935,3.491 0.0297,4.0067 0.0766,3.8189 -0.95387,3.8189 -0.47996,0 -0.71364,-0.043 -0.82286,-0.1526 z m 4.47707,-8.3878 c 1.50436,-0.4168 2.47195,-1.5157 2.63748,-2.9952 0.1983,-1.7725 -0.31245,-2.9265 -1.54,-3.4792 -0.48845,-0.22 -0.66363,-0.2419 -2.05841,-0.2566 -1.03277,-0.01 -1.56027,0.02 -1.63534,0.095 -0.0792,0.079 -0.10689,1.0456 -0.0971,3.3889 0.008,1.8028 0.0362,3.3143 0.0637,3.3588 0.10139,0.164 1.91252,0.087 2.62972,-0.1115 z m 7.54982,8.3781 c -0.12226,-0.1222 -0.14283,-0.9114 -0.14283,-5.481 0,-3.2321 0.0368,-5.4071 0.0934,-5.5128 0.0778,-0.1453 0.20482,-0.171 0.76179,-0.154 0.36764,0.011 0.71875,0.051 0.78025,0.09 0.0682,0.041 0.11182,0.351 0.11182,0.7914 0,0.9856 0.0997,0.9738 1.027,-0.1216 0.54417,-0.6427 1.09549,-0.9188 1.76498,-0.884 l 0.55691,0.029 -0.0173,0.7459 c -0.01,0.41 -0.0657,0.8359 -0.12475,0.9463 -0.11803,0.2205 -0.47792,0.2653 -0.79011,0.098 -0.28009,-0.1499 -1.02673,-0.01 -1.33844,0.2541 -0.14687,0.1236 -0.3901,0.4023 -0.54053,0.6194 -0.44735,0.6455 -0.53642,1.5236 -0.53204,5.2452 0.003,2.8722 -0.0143,3.2627 -0.15179,3.3632 -0.2284,0.1671 -1.28324,0.1461 -1.45828,-0.029 z m 22.09689,-0.069 c -0.11942,-0.1271 -0.27768,-0.4656 -0.3517,-0.7523 -0.15632,-0.6054 -0.50626,-1.6126 -0.87246,-2.511 -0.14146,-0.3471 -0.31491,-0.8275 -0.38548,-1.0678 -0.0705,-0.2402 -0.24471,-0.7425 -0.38699,-1.1163 -0.14227,-0.3736 -0.42695,-1.1382 -0.63263,-1.6987 -0.41899,-1.142 -0.61677,-1.6505 -1.066,-2.7406 -0.17013,-0.413 -0.29529,-0.8499 -0.27812,-0.9707 0.0292,-0.206 0.0807,-0.2211 0.80778,-0.2368 0.82132,-0.018 1.11629,0.1038 1.11629,0.46 0,0.094 0.0826,0.4037 0.18357,0.6887 0.10097,0.2851 0.28376,0.8677 0.40619,1.2947 0.12244,0.4272 0.28389,0.902 0.35881,1.0553 0.075,0.1532 0.1943,0.4807 0.26532,0.7279 0.13826,0.4813 0.36033,1.1092 0.77696,2.1968 0.14316,0.3737 0.3887,1.0273 0.54564,1.4523 0.15694,0.4252 0.33841,0.8071 0.40327,0.8489 0.16062,0.1033 0.40609,-0.2105 0.60524,-0.774 0.0893,-0.2527 0.41539,-1.1147 0.72454,-1.9155 0.30917,-0.8008 0.59414,-1.6089 0.63326,-1.7958 0.0392,-0.1868 0.12612,-0.449 0.19335,-0.5824 0.0672,-0.1335 0.15392,-0.3956 0.19267,-0.5825 0.0387,-0.1868 0.1288,-0.4706 0.20009,-0.631 0.19282,-0.4331 0.62645,-1.7783 0.62645,-1.9433 0,-0.306 0.3695,-0.5318 0.87022,-0.5318 0.63489,0 0.77853,0.2165 0.49871,0.7517 -0.10479,0.2005 -0.30501,0.6485 -0.44496,0.9955 -0.13992,0.347 -0.29283,0.702 -0.33981,0.7888 -0.047,0.087 -0.22429,0.5235 -0.39403,0.9706 -0.27845,0.7335 -0.5653,1.4467 -0.91242,2.2689 -0.0676,0.1602 -0.22166,0.5752 -0.3423,0.9222 -0.12064,0.347 -0.36646,1.0022 -0.5463,1.4561 -0.17982,0.4538 -0.48191,1.3156 -0.67131,1.9152 -0.37914,1.2002 -0.45689,1.2881 -1.14045,1.2881 -0.32351,0 -0.47863,-0.055 -0.6434,-0.2312 z m 18.85063,0.085 c -0.1127,-0.082 -0.13476,-0.9981 -0.13297,-5.5206 0.002,-3.7386 0.0347,-5.4613 0.10703,-5.5485 0.14321,-0.1725 1.37668,-0.1299 1.59988,0.055 0.13035,0.1082 0.15361,0.2361 0.10998,0.6046 -0.10541,0.89 0.0903,0.968 0.68781,0.2741 0.27651,-0.3211 0.63963,-0.5922 1.10506,-0.8251 0.63658,-0.3184 0.76266,-0.3467 1.54267,-0.3467 1.91837,0 2.88475,0.8027 3.34128,2.7755 0.1322,0.5711 0.16138,1.3437 0.17131,4.5331 0.009,2.9732 -0.0159,3.878 -0.11094,3.9925 -0.0938,0.1131 -0.28257,0.1407 -0.79736,0.1166 -0.37095,-0.017 -0.71163,-0.07 -0.75704,-0.1188 -0.0454,-0.048 -0.10177,-1.8565 -0.12524,-4.0187 l -0.0427,-3.9314 -0.26316,-0.6417 c -0.30678,-0.7482 -0.62532,-1.0885 -1.21326,-1.2959 -1.3665,-0.4821 -2.69741,0.1804 -3.21782,1.6017 -0.22284,0.6087 -0.23119,0.7398 -0.28276,4.4408 -0.0452,3.244 -0.0749,3.8275 -0.19874,3.9062 -0.18546,0.1179 -1.34431,0.078 -1.52307,-0.053 z m -27.11237,-18.7728 c -0.24025,-0.041 -0.56786,-0.1466 -0.72802,-0.2349 -0.16018,-0.088 -0.34662,-0.1608 -0.41435,-0.1611 -0.0677,0 -0.39978,-0.2773 -0.73791,-0.6155 -0.53207,-0.532 -0.64286,-0.7071 -0.8233,-1.3011 -0.25116,-0.8269 -0.26135,-1.2943 -0.0452,-2.0717 0.18865,-0.6786 0.73949,-1.3766 1.2568,-1.5928 0.49101,-0.2052 0.50219,-0.3801 0.0554,-0.8649 -0.32313,-0.3506 -0.40245,-0.5169 -0.45783,-0.9602 -0.0781,-0.6254 0.009,-1.2781 0.21455,-1.622 0.0801,-0.1334 0.31887,-0.3959 0.53052,-0.5831 0.44594,-0.3946 0.43151,-0.5676 -0.072,-0.8648 -0.39476,-0.233 -0.88595,-0.9026 -1.1278,-1.5377 -0.63188,-1.6592 0.0336,-3.8382 1.41248,-4.6244 0.82593,-0.471 1.63747,-0.5789 3.69096,-0.491 1.02116,0.043 2.19188,0.082 2.60157,0.087 0.40971,0.01 0.76653,0.029 0.79295,0.055 0.0264,0.026 0.0766,0.1617 0.11145,0.3009 0.0935,0.3725 -0.17008,0.599 -0.61905,0.5322 -1.23628,-0.1841 -1.27293,-0.1842 -1.27293,-0.01 0,0.095 0.11191,0.3184 0.24868,0.4977 0.13678,0.1795 0.36503,0.5767 0.50721,0.8828 0.22775,0.4905 0.25775,0.6723 0.25205,1.5275 -0.006,0.8555 -0.0385,1.037 -0.27691,1.531 -0.32168,0.6664 -0.98848,1.2989 -1.74882,1.659 -0.73751,0.3492 -1.21095,0.4449 -2.21364,0.4477 -1.03432,0 -1.53926,0.2077 -1.70839,0.6929 -0.1435,0.4116 -0.13591,0.6238 0.034,0.9525 0.24201,0.4679 0.7317,0.5896 2.37351,0.5896 1.64226,0 2.77512,0.1855 3.29618,0.5395 0.63895,0.4341 1.03187,1.0279 1.22612,1.8529 0.17184,0.7295 0.17234,0.7958 0.0117,1.5761 -0.28115,1.3658 -0.85946,2.2417 -1.96451,2.9752 -0.85817,0.5696 -1.76466,0.8382 -2.94934,0.8738 -0.56059,0.017 -1.2158,0 -1.45604,-0.043 z m 2.90445,-0.9429 c 0.71053,-0.2838 1.11028,-0.5807 1.44598,-1.0737 0.74729,-1.0977 0.60186,-2.8947 -0.29821,-3.6849 -0.57438,-0.5043 -1.91849,-0.7082 -3.19593,-0.4847 -1.02572,0.1794 -1.32498,0.3261 -1.75788,0.8617 -0.46375,0.5738 -0.53097,0.7286 -0.6065,1.3962 -0.14055,1.2423 0.34269,2.2682 1.33131,2.8261 0.65559,0.37 0.73583,0.3894 1.67373,0.4031 0.6211,0.01 0.8917,-0.037 1.4075,-0.2438 z m -0.33184,-10.0481 c 0.64604,-0.4427 1.21309,-1.7657 1.21309,-2.8303 0,-0.6553 -0.31823,-1.7372 -0.65764,-2.2355 -0.32343,-0.475 -1.03067,-0.8416 -1.62349,-0.8416 -0.77681,0 -1.64213,0.5746 -2.02735,1.3463 -0.35919,0.7196 -0.43831,2.3146 -0.16063,3.2377 0.14986,0.4982 0.66489,1.1459 1.12473,1.4146 0.33376,0.1952 0.47652,0.2183 1.09576,0.1774 0.52807,-0.034 0.79558,-0.1042 1.03553,-0.2686 z m -12.52221,4.966 c -1.18124,-0.2163 -2.49037,-1.2534 -3.09296,-2.4501 -0.70134,-1.3929 -0.90273,-3.1561 -0.5534,-4.8453 0.30113,-1.4561 0.7561,-2.3167 1.64234,-3.1062 0.80051,-0.7131 1.615,-1.0414 2.78057,-1.1208 1.89066,-0.1287 3.48238,0.8908 4.19577,2.6875 0.45021,1.1338 0.6607,2.7246 0.3956,2.9897 -0.0862,0.086 -1.01382,0.1165 -3.57214,0.1165 -2.55833,0 -3.48592,0.029 -3.57215,0.1165 -0.266,0.266 0,1.9825 0.44105,2.8447 0.2019,0.395 1.06971,1.2839 1.45403,1.4896 0.11588,0.061 0.54409,0.1766 0.95162,0.2545 0.65806,0.1259 0.81337,0.125 1.38841,-0.01 0.6525,-0.1513 1.57233,-0.6358 1.90513,-1.0036 0.099,-0.1094 0.26052,-0.1988 0.35903,-0.1988 0.14633,0 0.1791,0.076 0.1791,0.4178 0,0.3466 -0.0538,0.4676 -0.31549,0.7106 -0.6111,0.567 -1.1447,0.8298 -2.15978,1.0633 -0.61484,0.1413 -1.77586,0.1618 -2.42673,0.042 z m 3.63517,-6.8844 c 0.13061,-0.2441 -0.0143,-1.3373 -0.27546,-2.0784 -0.50093,-1.4215 -1.62009,-2.0567 -2.94458,-1.6716 -1.05191,0.3059 -1.87438,1.4507 -2.13527,2.9722 -0.17384,1.0138 -0.31674,0.9629 2.69929,0.9629 2.41531,0 2.56254,-0.01 2.65602,-0.1851 z m 24.22259,6.8868 c -0.68092,-0.1454 -1.43748,-0.5479 -2.02149,-1.0757 -1.23844,-1.1191 -1.81163,-2.5527 -1.81163,-4.5309 0,-1.8036 0.5288,-3.2728 1.5673,-4.3542 0.94668,-0.9859 2.02683,-1.4501 3.62592,-1.5585 0.74391,-0.05 0.9813,-0.026 1.59896,0.1626 1.12306,0.3433 1.67659,0.7076 2.32845,1.5322 0.46309,0.5858 0.72997,1.1032 1.00035,1.9395 0.17729,0.5483 0.20981,0.8758 0.20901,2.1054 -7.1e-4,1.3437 -0.0218,1.5152 -0.27177,2.2244 -0.14894,0.4226 -0.34223,0.8812 -0.42952,1.0192 -0.75559,1.1943 -1.64956,1.9841 -2.64667,2.3382 -0.68775,0.2442 -2.42147,0.3532 -3.14891,0.1978 z m 2.32511,-0.8329 c 0.48799,-0.2316 1.26173,-1.0476 1.53304,-1.6169 0.54546,-1.1443 0.70552,-1.9482 0.70167,-3.5239 -0.003,-1.3129 -0.0293,-1.5348 -0.26499,-2.2558 -0.43514,-1.3309 -1.07572,-2.1033 -1.98229,-2.3899 -0.63296,-0.2003 -0.85669,-0.1994 -1.60913,0.01 -0.51578,0.1406 -0.69129,0.2522 -1.18764,0.7555 -0.36864,0.3739 -0.67668,0.8032 -0.83927,1.1698 -0.71458,1.6113 -0.73872,4.6178 -0.0487,6.0635 0.31892,0.6683 0.89167,1.3168 1.45063,1.6427 0.43651,0.2545 0.60199,0.2948 1.21845,0.2966 0.44522,0 0.83171,-0.053 1.02822,-0.1472 z m -45.81215,0.7059 c -0.1261,-0.07 -0.14449,-1.0906 -0.14449,-8.0163 0,-6.0426 0.0278,-7.9632 0.11648,-8.0519 0.0838,-0.084 0.73139,-0.1162 2.3054,-0.1157 4.58615,0 5.86588,0.4522 6.60411,2.3252 0.41053,1.0416 0.17744,2.6952 -0.52853,3.7494 -0.52264,0.7804 -1.48115,1.4195 -2.8917,1.9282 -0.55303,0.1994 -0.59189,0.3921 -0.18418,0.9129 0.1523,0.1945 0.48626,0.6594 0.74214,1.0332 0.25589,0.3736 0.62588,0.8978 0.82222,1.1648 0.19632,0.2669 0.59402,0.8275 0.88376,1.2458 0.82482,1.1906 2.0284,2.8009 2.34353,3.1354 0.31936,0.3389 0.34892,0.7695 0.0519,0.7553 -0.0934,-0.01 -0.60697,-0.016 -1.14121,-0.024 l -0.97135,-0.016 -0.94577,-1.4204 c -0.52018,-0.7812 -1.13191,-1.6876 -1.3594,-2.0142 -0.22749,-0.3266 -0.48886,-0.703 -0.58081,-0.8365 -1.55524,-2.2574 -2.52199,-3.4777 -2.8168,-3.5554 -0.50543,-0.1332 -0.50835,-0.1111 -0.50835,3.8399 0,2.779 -0.0292,3.6956 -0.12133,3.8137 -0.1365,0.1748 -1.42387,0.2878 -1.67556,0.1469 z m 4.27604,-8.8589 c 0.85465,-0.2197 1.56841,-0.614 2.0098,-1.1102 0.5531,-0.6217 0.77773,-1.1785 0.82973,-2.0567 0.083,-1.4009 -0.46524,-2.4132 -1.59679,-2.9485 -0.48549,-0.2297 -0.64026,-0.251 -1.90672,-0.2615 -0.7581,-0.01 -1.47663,0.021 -1.59676,0.06 l -0.2184,0.072 0,3.0802 c 0,2.2663 0.0308,3.111 0.11648,3.1968 0.16765,0.1676 1.66439,0.1472 2.36266,-0.032 z m 30.62696,8.7008 c -0.0684,-0.1278 -0.10254,-1.9523 -0.10254,-5.4812 0,-4.6794 0.0176,-5.3073 0.15254,-5.4423 0.20019,-0.2002 1.42134,-0.2158 1.58363,-0.02 0.0794,0.096 0.10285,1.644 0.0847,5.6056 l -0.0251,5.4735 -0.79535,0.028 c -0.70863,0.025 -0.80654,0.01 -0.89788,-0.1637 z m 17.72061,0.1046 c -0.027,-0.043 -0.0569,-2.5384 -0.0664,-5.544 -0.0145,-4.5453 0.005,-5.4787 0.11612,-5.549 0.0735,-0.046 0.42522,-0.085 0.78178,-0.086 0.8042,0 0.99842,0.1444 0.92447,0.6958 -0.0275,0.2042 -0.027,0.4584 7.1e-4,0.5651 0.0728,0.2781 0.37831,0.2387 0.56584,-0.073 0.43494,-0.7232 1.79461,-1.3832 2.84977,-1.3832 0.82389,0 1.74427,0.3105 2.18275,0.7363 0.58154,0.5648 0.80484,1.0006 1.03039,2.0111 0.19741,0.8844 0.21304,1.2173 0.22136,4.7121 0.005,2.0683 -0.0237,3.8133 -0.0634,3.8777 -0.10179,0.1646 -1.60496,0.1608 -1.66206,-0.01 -0.0231,-0.066 -0.058,-1.8685 -0.0776,-4.0041 l -0.0356,-3.8828 -0.26221,-0.6751 c -0.28801,-0.7413 -0.66865,-1.1483 -1.22671,-1.3114 -0.48154,-0.1408 -1.50299,-0.1241 -1.8717,0.03 -0.52966,0.2223 -1.09758,0.8994 -1.34782,1.6069 -0.21828,0.6172 -0.2282,0.7747 -0.27498,4.3774 -0.0268,2.0555 -0.0838,3.7919 -0.12706,3.8585 -0.0889,0.1373 -1.57559,0.1749 -1.6578,0.042 z m -37.49359,-12.5894 c -0.0656,-0.171 -0.0392,-0.2075 0.98459,-1.3533 1.1447,-1.2811 2.30609,-2.4843 2.49867,-2.5884 0.2498,-0.135 0.72967,0.15 0.91817,0.5453 0.15198,0.3187 0.14922,0.3431 -0.0765,0.6787 -0.12878,0.1915 -0.49622,0.5215 -0.81656,0.7334 -0.32032,0.2117 -0.9537,0.6481 -1.4075,0.9697 -1.70141,1.2056 -1.97661,1.3385 -2.10089,1.0146 z m 20.13001,-1.5845 c -0.42945,-0.2832 -0.55024,-0.5128 -0.55355,-1.0518 -0.003,-0.5713 0.26227,-0.9849 0.76726,-1.1942 0.2456,-0.1017 0.34402,-0.093 0.65633,0.06 0.46934,0.2298 0.83043,0.8343 0.74537,1.2477 -0.0975,0.474 -0.31235,0.8122 -0.61577,0.9691 -0.37558,0.1941 -0.67198,0.1849 -0.99964,-0.031 z"
       id="path6412"
       inkscape:connector-curvature="0" />
  </g>
</svg>
